<?xml version="1.0" encoding="utf-8"?>
<!-- Generator: Adobe Illustrator 16.0.0, SVG Export Plug-In . SVG Version: 6.00 Build 0)  -->
<!DOCTYPE svg PUBLIC "-//W3C//DTD SVG 1.1//EN" "http://www.w3.org/Graphics/SVG/1.1/DTD/svg11.dtd">
<svg version="1.1" id="Слой_1" xmlns="http://www.w3.org/2000/svg" xmlns:xlink="http://www.w3.org/1999/xlink" x="0px" y="0px"
	 width="18.233px" height="8.5px" viewBox="6.792 10.369 18.233 8.5" enable-background="new 6.792 10.369 18.233 8.5"
	 xml:space="preserve">
<path id="Expand_More" fill="#444444" d="M16.205,12.139l-4.263,4.263l-4.263-4.264c-0.204-0.203-0.532-0.203-0.735,0
	c-0.203,0.203-0.203,0.532,0,0.735l4.63,4.632l0,0l0,0c0.203,0.203,0.532,0.203,0.734,0l4.63-4.632c0.202-0.203,0.202-0.533,0-0.736
	C16.737,11.936,16.408,11.936,16.205,12.139z"/>
</svg>
