<?xml version="1.0" encoding="utf-8"?>
<!-- Generator: Adobe Illustrator 23.0.4, SVG Export Plug-In . SVG Version: 6.00 Build 0)  -->
<svg version="1.1" id="Ebene_1" xmlns="http://www.w3.org/2000/svg" xmlns:xlink="http://www.w3.org/1999/xlink" x="0px" y="0px"
	 viewBox="0 0 376.8 142.8" style="enable-background:new 0 0 376.8 142.8;" xml:space="preserve">
<style type="text/css">
	.st0{fill:#00325F;}
	.st1{fill:#FFFFFF;}
</style>
<g id="Ebene_2_Kopie">
</g>
<g id="Ebene_4">
	<g>
		<g>
			<g>
				<g>
					<g>
						<g>
							<path class="st0" d="M374.4,45l-32.9-32.9c-1.5-1.5-3.6-2.4-5.8-2.4c-2.2,0-4.2,0.9-5.8,2.4L297.1,45
								c-1.6,1.6-2.4,3.7-2.4,5.8s0.8,4.2,2.4,5.8l13.8,13.7L330,89.4c1.5,1.6,3.6,2.4,5.8,2.4c2.2,0,4.2-0.8,5.8-2.4l9.1-9.1
								l16.9-16.9l6.9-6.9c1.6-1.6,2.4-3.7,2.4-5.8C376.8,48.6,376,46.5,374.4,45"/>
						</g>
					</g>
				</g>
				<g>
					<path class="st1" d="M349,40.6c3.8,0.2,4.7,2.1,4.9,3.8c1.3-1.8,3.8-8.8-5.4-10.7c0,0-2.4-0.5-3.4-0.6c-0.5,0-0.7-0.6-1-1.2
						c-0.2-0.4-0.3-0.7-0.7-0.9c-2.3-1.2-7.3-1.3-12-0.5c-2.4,0.4-7.5,1.5-7.6,1.5c0.1,0.1,2.9,2,3.4,2.2
						c-2.1,0.7-5.4,2.7-10.7,12.7c0.6-0.2,3.5-0.8,4.1-0.8l-7.5,15.1c-0.9,1.7-1.7,3.4-2.5,5.1l20.2,20.2l0.1,0.1l0.1,0.1
						c1.3,1.5,2.9,2.3,4.5,2.3s3.3-0.8,4.7-2.4l0.1-0.1l0.1-0.1c0,0,15.5-15.4,16.1-15.9c2.7-2.9-8.6-16.2-13.5-14
						c-2,0.9-1.3,2.2-1.3,3.6c0,0,0-0.5,0.1,2.4c-0.4,0-0.6,0-0.8-0.1c-0.7-0.2-0.6-1.1-0.7-1.8c-0.2-1.7-0.2-5.4-0.4-8.2
						c-0.1-0.9,0-1.9,0.1-2.8c0,0,0.4-3.4,4.2-5.2c3.9-1.8,7.9-0.8,7.9-0.8c-0.1-1.3-0.9-1.8-2.9-1.9l-5.2-0.2
						C344.2,40.2,344.4,40.4,349,40.6z M342.7,35.3c0,0.2-0.2,0.3-0.4,0.2l-1.4-0.2c0,0,0,0,0,0.1c-0.1,0.6-0.7,1-1.5,1
						c-0.1,0-0.2,0-0.3,0c-0.9-0.1-1.5-0.7-1.5-1.4l0,0l-1.8-0.2c-0.2,0-0.3-0.2-0.3-0.3c0-0.2,0.1-0.3,0.3-0.3
						c0.1,0,2.5-0.4,3.5-0.3c1,0.1,3.1,1.1,3.2,1.2C342.7,34.9,342.8,35.1,342.7,35.3z"/>
				</g>
			</g>
		</g>
		<g>
			<path class="st0" d="M24.9,77.9c-2.8,3-6.2,4.3-10.8,4.3H0V41.1h14.1c4.6,0,8,1.3,10.8,4.3c3.6,3.9,3.6,9.9,3.6,16.2
				C28.5,68,28.5,74,24.9,77.9z M21.4,48.1c-2.1-2.3-5-3-8.1-3H4.4v33.2h8.9c3.1,0,6-0.7,8.1-3c2.7-2.8,2.7-7.9,2.7-13.6
				S24.1,50.9,21.4,48.1z"/>
			<path class="st0" d="M38.8,82.2V41.1h25.5V45H43.2v14.5h18v3.9h-18v14.8h21.1v3.9L38.8,82.2L38.8,82.2z"/>
			<path class="st0" d="M87.2,82.6c-8.3,0-14.3-5.7-14.3-13.9V41.2h4.4v27.2c0,6.2,3.9,10.3,9.9,10.3s10-4.1,10-10.3V41.2h4.4v27.5
				C101.6,76.9,95.5,82.6,87.2,82.6z"/>
			<path class="st0" d="M125,45.1v37.2h-4.4V45.1h-11.9v-3.9h28.2v3.9H125z"/>
			<path class="st0" d="M155.1,82.6c-6.1,0-10.2-1.6-14-5.4l2.9-2.9c3.4,3.4,6.6,4.4,11.2,4.4c6.1,0,9.8-2.8,9.8-7.6
				c0-2.2-0.6-3.9-2-5.1c-1.3-1.2-2.4-1.6-5.4-2l-4.8-0.7c-3.2-0.5-5.7-1.5-7.5-3.1c-2.1-1.8-3.2-4.4-3.2-7.7c0-7,5-11.5,13.2-11.5
				c5.3,0,8.7,1.4,12.2,4.5l-2.8,2.8c-2.5-2.4-5.3-3.6-9.6-3.6c-5.5,0-8.7,3.1-8.7,7.7c0,2,0.6,3.7,1.8,4.8s3.2,1.8,5.4,2.1l4.8,0.8
				c3.8,0.6,5.6,1.3,7.4,2.9c2.2,1.9,3.5,4.7,3.5,8.1C169.3,78.1,163.7,82.6,155.1,82.6z"/>
			<path class="st0" d="M191.3,82.6c-4.3,0-7.7-1.5-10.3-4c-3.9-3.9-4.1-7.4-4.1-16.9c0-9.4,0.2-13,4.1-16.9c2.5-2.5,6-4,10.3-4
				c7.4,0,12.8,4.6,14.3,12.2H201c-1.1-5.1-4.6-8.3-9.8-8.3c-2.8,0-5.2,1-7.1,2.9c-2.6,2.7-2.9,5.7-2.9,14.1s0.3,11.4,2.9,14.1
				c1.9,1.9,4.3,2.9,7.1,2.9c5.1,0,8.8-3.2,9.9-8.3h4.4C204.1,78,198.7,82.6,191.3,82.6z"/>
			<path class="st0" d="M239.1,82.2V63.4h-19.5v18.8h-4.4V41.1h4.4v18.4h19.5V41.1h4.4v41.1L239.1,82.2L239.1,82.2z"/>
			<path class="st0" d="M255.4,82.2V41.1h25.5V45h-21.1v14.5h18v3.9h-18v14.8h21.1v3.9L255.4,82.2L255.4,82.2z"/>
		</g>
		<g>
			<path class="st0" d="M5.3,103.2v6.7H16v4.7H5.3v11H0V98.4h17.9v4.7L5.3,103.2L5.3,103.2z"/>
			<path class="st0" d="M32.4,125.6v-1.7c-0.7,0.7-1.4,1.1-2.1,1.5c-0.7,0.3-1.7,0.5-2.8,0.5c-2.2,0-3.9-0.6-5.1-1.8
				c-0.5-0.6-0.9-1.2-1.2-2c-0.3-0.8-0.4-1.6-0.4-2.5c0-0.8,0.1-1.5,0.4-2.2s0.7-1.3,1.3-1.8c0.6-0.5,1.3-0.9,2.1-1.2
				c0.9-0.3,1.9-0.5,3-0.5h4.7v-1c0-1.1-0.3-1.9-0.9-2.4s-1.5-0.7-2.8-0.7c-1,0-1.7,0.1-2.3,0.4s-1.1,0.7-1.6,1.3l-3.2-3.1
				c1-1.1,2-1.8,3.1-2.2s2.5-0.6,4.1-0.6c2.8,0,4.9,0.6,6.4,1.8s2.2,2.9,2.2,5.3v13.1L32.4,125.6L32.4,125.6z M32.2,117.2h-3.9
				c-0.9,0-1.6,0.2-2.1,0.6c-0.5,0.4-0.7,0.9-0.7,1.7c0,0.7,0.2,1.2,0.7,1.7c0.5,0.4,1.2,0.6,2.2,0.6c0.7,0,1.3-0.1,1.8-0.2
				c0.5-0.1,0.9-0.4,1.4-0.8c0.5-0.5,0.7-1.3,0.7-2.5L32.2,117.2L32.2,117.2z"/>
			<path class="st0" d="M65.7,125.6v-12c0-0.7-0.1-1.3-0.3-1.7c-0.2-0.5-0.4-0.8-0.8-1.1c-0.3-0.3-0.7-0.5-1.1-0.6
				c-0.4-0.1-0.8-0.2-1.2-0.2s-0.8,0.1-1.2,0.2c-0.4,0.1-0.7,0.3-1.1,0.6c-0.3,0.3-0.6,0.6-0.8,1.1c-0.2,0.4-0.3,1-0.3,1.7v12.1h-5
				v-12c0-0.7-0.1-1.3-0.3-1.7s-0.4-0.8-0.8-1.1c-0.3-0.3-0.7-0.5-1.1-0.6c-0.4-0.1-0.8-0.2-1.2-0.2s-0.8,0.1-1.2,0.2
				c-0.4,0.1-0.8,0.3-1.1,0.6s-0.6,0.6-0.8,1.1s-0.3,1-0.3,1.7v12h-5v-19.9H47v1.8c0.7-0.7,1.4-1.2,2.3-1.5c0.9-0.4,1.8-0.5,2.7-0.5
				c2.3,0,4.1,0.8,5.3,2.5c0.8-0.9,1.7-1.5,2.7-1.9c0.9-0.4,2-0.6,3.3-0.6c1,0,1.9,0.2,2.8,0.5s1.6,0.7,2.1,1.3
				c0.8,0.8,1.4,1.7,1.7,2.6c0.3,0.9,0.5,1.9,0.5,3v12.7h-4.7V125.6z"/>
			<path class="st0" d="M75.9,102.3v-4H81v4C81.1,102.3,75.9,102.3,75.9,102.3z M76,125.6v-19.9h5v19.9H76L76,125.6z"/>
			<path class="st0" d="M92.2,125.6c-1,0-1.9-0.2-2.7-0.5c-0.7-0.3-1.4-0.8-1.8-1.3s-0.8-1.1-1-1.8s-0.3-1.4-0.3-2.1V98.4h5v21.2
				c0,0.6,0.1,1,0.4,1.3s0.7,0.5,1.4,0.5H95v4.2L92.2,125.6L92.2,125.6z"/>
			<path class="st0" d="M98.9,102.3v-4h5.1v4H98.9z M98.9,125.6v-19.9h5v19.9H98.9L98.9,125.6z"/>
			<path class="st0" d="M113.3,117.2c0,1.3,0.4,2.4,1.1,3.2c0.8,0.8,1.8,1.2,3.2,1.2c1.1,0,2-0.2,2.6-0.5s1.3-0.8,1.9-1.4l3,2.9
				c-0.5,0.5-1,1-1.5,1.3c-0.5,0.4-1.1,0.7-1.7,1s-1.3,0.5-2,0.6s-1.5,0.2-2.4,0.2c-1.2,0-2.3-0.2-3.4-0.5s-2.1-0.8-2.9-1.6
				c-0.9-0.8-1.5-1.8-2.1-3.1c-0.5-1.3-0.8-3-0.8-5c0-1.6,0.2-3.1,0.6-4.3c0.4-1.3,1-2.3,1.8-3.2s1.7-1.5,2.7-2
				c1.1-0.4,2.2-0.7,3.5-0.7c1.4,0,2.6,0.2,3.7,0.7s2,1.1,2.7,2c0.7,0.8,1.3,1.8,1.7,3c0.4,1.2,0.6,2.4,0.6,3.8v2.2L113.3,117.2
				L113.3,117.2z M120.9,113.8c0-0.4-0.1-0.8-0.1-1.1c-0.1-0.3-0.2-0.7-0.3-1c-0.3-0.6-0.7-1.1-1.2-1.5s-1.2-0.6-2.1-0.6
				s-1.5,0.2-2.1,0.6c-0.5,0.4-1,0.9-1.2,1.5c-0.2,0.4-0.3,0.7-0.3,1c-0.1,0.3-0.1,0.7-0.1,1.1H120.9z"/>
			<path class="st0" d="M141.9,125.6v-12c0-0.7-0.1-1.3-0.3-1.7s-0.4-0.8-0.8-1.1c-0.3-0.3-0.7-0.5-1.1-0.6
				c-0.4-0.1-0.8-0.2-1.2-0.2s-0.8,0.1-1.2,0.2c-0.4,0.1-0.8,0.3-1.1,0.6s-0.6,0.6-0.8,1.1s-0.3,1-0.3,1.7v12h-5v-19.9h4.9v1.8
				c0.7-0.7,1.4-1.2,2.3-1.5c0.9-0.3,1.8-0.5,2.7-0.5c1,0,1.9,0.2,2.7,0.5s1.5,0.7,2,1.3c0.8,0.8,1.4,1.7,1.6,2.6
				c0.3,0.9,0.4,1.9,0.4,3v12.7C147,125.6,141.9,125.6,141.9,125.6z"/>
			<path class="st0" d="M160.9,125.6H157l-7.3-19.9h5.2l4,12.3l4-12.3h5.2L160.9,125.6z"/>
			<path class="st0" d="M175,117.2c0,1.3,0.4,2.4,1.1,3.2c0.8,0.8,1.8,1.2,3.2,1.2c1.1,0,2-0.2,2.6-0.5s1.3-0.8,1.9-1.4l3,2.9
				c-0.5,0.5-1,1-1.5,1.3c-0.5,0.4-1.1,0.7-1.7,1c-0.6,0.3-1.3,0.5-2,0.6s-1.5,0.2-2.4,0.2c-1.2,0-2.3-0.2-3.4-0.5
				c-1.1-0.3-2.1-0.8-2.9-1.6c-0.9-0.8-1.5-1.8-2.1-3.1c-0.5-1.3-0.8-3-0.8-5c0-1.6,0.2-3.1,0.6-4.3c0.4-1.3,1-2.3,1.8-3.2
				s1.7-1.5,2.7-2c1.1-0.4,2.2-0.7,3.5-0.7c1.4,0,2.6,0.2,3.7,0.7c1.1,0.5,2,1.1,2.7,2c0.7,0.8,1.3,1.8,1.7,3s0.6,2.4,0.6,3.8v2.2
				L175,117.2L175,117.2z M182.6,113.8c0-0.4-0.1-0.8-0.1-1.1c-0.1-0.3-0.2-0.7-0.3-1c-0.3-0.6-0.7-1.1-1.2-1.5s-1.2-0.6-2.1-0.6
				s-1.5,0.2-2.1,0.6c-0.5,0.4-1,0.9-1.2,1.5c-0.2,0.4-0.3,0.7-0.3,1c-0.1,0.3-0.1,0.7-0.1,1.1H182.6z"/>
			<path class="st0" d="M202.8,111.2c-0.4-0.4-0.8-0.7-1.1-0.9c-0.4-0.2-0.9-0.3-1.5-0.3c-0.4,0-0.8,0.1-1.1,0.2s-0.7,0.4-1,0.7
				s-0.6,0.7-0.7,1.1c-0.2,0.5-0.3,1-0.3,1.6v12h-5v-19.9h4.9v1.9c0.5-0.6,1.2-1.1,2.1-1.5s1.9-0.6,2.9-0.6s1.8,0.1,2.6,0.4
				c0.7,0.3,1.5,0.8,2.1,1.5L202.8,111.2z"/>
			<path class="st0" d="M224.4,119.4c0,1.1-0.2,2.1-0.6,2.9c-0.4,0.8-1,1.5-1.8,2s-1.7,0.9-2.7,1.2s-2.1,0.4-3.3,0.4
				c-0.8,0-1.6,0-2.3-0.1s-1.5-0.2-2.2-0.4s-1.4-0.5-2.1-0.9c-0.7-0.4-1.3-0.9-1.9-1.5l3.2-3.2c0.8,0.8,1.7,1.3,2.7,1.5
				s1.9,0.3,2.6,0.3c0.4,0,0.9,0,1.3-0.1c0.4-0.1,0.8-0.2,1.1-0.4s0.6-0.4,0.8-0.6c0.2-0.3,0.3-0.6,0.3-1c0-0.5-0.2-0.9-0.5-1.2
				s-0.9-0.5-1.6-0.6l-3.1-0.3c-1.8-0.2-3.2-0.7-4.3-1.5s-1.5-2.2-1.5-4c0-1,0.2-2,0.6-2.8s1-1.5,1.7-2s1.5-0.9,2.4-1.2
				s1.9-0.4,2.9-0.4c1.6,0,3,0.2,4.2,0.5c1.3,0.3,2.4,0.9,3.4,1.8l-3.1,3.1c-0.6-0.5-1.3-0.9-2.1-1.1c-0.8-0.2-1.7-0.3-2.5-0.3
				c-1,0-1.7,0.2-2.2,0.6c-0.4,0.4-0.7,0.8-0.7,1.3c0,0.4,0.1,0.7,0.4,1.1c0.2,0.4,0.8,0.6,1.7,0.6l3.1,0.3c2,0.2,3.5,0.8,4.4,1.8
				C223.9,116.3,224.4,117.7,224.4,119.4z"/>
			<path class="st0" d="M228.5,102.3v-4h5.1v4H228.5z M228.5,125.6v-19.9h5v19.9H228.5L228.5,125.6z"/>
			<path class="st0" d="M253.6,123.2c-0.9,0.9-1.9,1.6-2.9,2c-1.1,0.4-2.3,0.7-3.6,0.7c-1,0-2-0.2-3.1-0.5s-2-0.8-2.9-1.6
				s-1.6-1.8-2.1-3.1c-0.6-1.3-0.8-3-0.8-5s0.3-3.7,0.8-5c0.6-1.3,1.3-2.3,2.1-3.1c0.9-0.8,1.8-1.3,2.9-1.6s2.1-0.5,3.1-0.5
				c1.4,0,2.6,0.2,3.6,0.6c1.1,0.4,2,1.1,2.9,2l-3.4,3.4c-0.5-0.6-1-1-1.5-1.2s-1.1-0.4-1.7-0.4c-1.2,0-2.1,0.4-2.8,1.3
				c-0.4,0.5-0.7,1.1-0.8,1.8c-0.2,0.7-0.3,1.6-0.3,2.6c0,2,0.4,3.5,1.1,4.4c0.7,0.9,1.7,1.3,2.8,1.3c0.7,0,1.2-0.1,1.7-0.4
				c0.5-0.2,1-0.6,1.5-1.2L253.6,123.2z"/>
			<path class="st0" d="M268.8,125.6v-12.1c0-0.7-0.1-1.2-0.3-1.7c-0.2-0.4-0.4-0.8-0.7-1.1s-0.7-0.5-1-0.6s-0.8-0.2-1.2-0.2
				s-0.8,0.1-1.1,0.2c-0.4,0.1-0.7,0.3-1,0.6s-0.5,0.6-0.7,1.1c-0.2,0.4-0.3,1-0.3,1.7v12.1h-5V98.4h5v9.1c0.7-0.7,1.4-1.2,2.2-1.5
				c0.8-0.3,1.7-0.5,2.6-0.5c1.1,0,2.1,0.2,2.9,0.5c0.8,0.4,1.5,0.9,2.1,1.5c0.6,0.7,1,1.4,1.3,2.3s0.4,1.9,0.4,2.9v12.9H268.8
				L268.8,125.6z"/>
			<path class="st0" d="M283,117.2c0,1.3,0.4,2.4,1.1,3.2c0.8,0.8,1.8,1.2,3.2,1.2c1.1,0,2-0.2,2.6-0.5s1.3-0.8,1.9-1.4l3,2.9
				c-0.5,0.5-1,1-1.5,1.3c-0.5,0.4-1.1,0.7-1.7,1s-1.3,0.5-2,0.6s-1.5,0.2-2.4,0.2c-1.2,0-2.3-0.2-3.4-0.5s-2.1-0.8-2.9-1.6
				c-0.9-0.8-1.5-1.8-2.1-3.1c-0.5-1.3-0.8-3-0.8-5c0-1.6,0.2-3.1,0.6-4.3c0.4-1.3,1-2.3,1.8-3.2s1.7-1.5,2.7-2
				c1.1-0.4,2.2-0.7,3.5-0.7c1.4,0,2.6,0.2,3.7,0.7s2,1.1,2.7,2c0.7,0.8,1.3,1.8,1.7,3s0.6,2.4,0.6,3.8v2.2L283,117.2L283,117.2z
				 M290.6,113.8c0-0.4-0.1-0.8-0.1-1.1c-0.1-0.3-0.2-0.7-0.3-1c-0.3-0.6-0.7-1.1-1.2-1.5s-1.2-0.6-2.1-0.6s-1.5,0.2-2.1,0.6
				c-0.5,0.4-1,0.9-1.2,1.5c-0.2,0.4-0.3,0.7-0.3,1c-0.1,0.3-0.1,0.7-0.1,1.1H290.6z"/>
			<path class="st0" d="M310.9,111.2c-0.4-0.4-0.8-0.7-1.1-0.9c-0.4-0.2-0.9-0.3-1.5-0.3c-0.4,0-0.8,0.1-1.1,0.2
				c-0.4,0.1-0.7,0.4-1,0.7s-0.6,0.7-0.7,1.1c-0.2,0.5-0.3,1-0.3,1.6v12h-5v-19.9h4.9v1.9c0.5-0.6,1.2-1.1,2.1-1.5s1.9-0.6,2.9-0.6
				s1.8,0.1,2.6,0.4c0.7,0.3,1.5,0.8,2.1,1.5L310.9,111.2z"/>
			<path class="st0" d="M328.9,125.6v-1.8c-0.7,0.7-1.4,1.2-2.3,1.5s-1.8,0.5-2.7,0.5c-1,0-1.9-0.2-2.7-0.5c-0.8-0.3-1.5-0.7-2-1.3
				c-0.8-0.8-1.4-1.7-1.6-2.6c-0.3-0.9-0.4-1.9-0.4-3v-12.7h5v12c0,0.7,0.1,1.3,0.3,1.7c0.2,0.5,0.4,0.8,0.8,1.1
				c0.3,0.3,0.7,0.5,1.1,0.6s0.8,0.2,1.2,0.2s0.8-0.1,1.2-0.2c0.4-0.1,0.7-0.3,1.1-0.6c0.3-0.3,0.6-0.6,0.8-1.1
				c0.2-0.5,0.3-1,0.3-1.7v-12h5v19.9L328.9,125.6L328.9,125.6z"/>
			<path class="st0" d="M350.9,125.6v-12c0-0.7-0.1-1.3-0.3-1.7c-0.2-0.5-0.4-0.8-0.8-1.1c-0.3-0.3-0.7-0.5-1.1-0.6
				s-0.8-0.2-1.2-0.2c-0.4,0-0.8,0.1-1.2,0.2c-0.4,0.1-0.8,0.3-1.1,0.6c-0.3,0.3-0.6,0.6-0.8,1.1s-0.3,1-0.3,1.7v12h-5v-19.9h4.9
				v1.8c0.7-0.7,1.4-1.2,2.3-1.5s1.8-0.5,2.7-0.5c1,0,1.9,0.2,2.7,0.5c0.8,0.3,1.5,0.7,2,1.3c0.8,0.8,1.4,1.7,1.6,2.6
				c0.3,0.9,0.4,1.9,0.4,3v12.7C355.9,125.6,350.9,125.6,350.9,125.6z"/>
			<path class="st0" d="M376.8,124.9c0,1.2-0.2,2.3-0.6,3.3s-1,1.9-1.8,2.6c-0.8,0.7-1.7,1.3-2.8,1.7c-1.1,0.4-2.3,0.6-3.6,0.6
				c-1.5,0-2.9-0.2-4-0.6c-1.1-0.4-2.2-1.1-3.2-2l3.1-3.1c0.6,0.5,1.1,0.9,1.7,1.2c0.6,0.2,1.3,0.4,2.2,0.4c0.7,0,1.4-0.1,1.9-0.4
				c0.5-0.2,0.9-0.6,1.2-0.9s0.5-0.8,0.7-1.3c0.1-0.5,0.2-1,0.2-1.5v-2c-0.7,0.7-1.4,1.3-2.1,1.5c-0.8,0.3-1.6,0.4-2.6,0.4
				s-1.9-0.2-2.7-0.5c-0.8-0.3-1.5-0.7-2.1-1.3c-0.9-0.9-1.5-2.1-1.7-3.4c-0.2-1.3-0.3-2.8-0.3-4.5s0.1-3.2,0.3-4.5
				c0.2-1.3,0.8-2.4,1.7-3.3c0.6-0.6,1.3-1,2.1-1.3c0.8-0.3,1.7-0.5,2.7-0.5c1.1,0,2,0.2,2.7,0.5s1.5,0.9,2.1,1.6v-1.9h4.8
				L376.8,124.9L376.8,124.9z M371.9,115.1c0-0.7,0-1.3-0.1-1.9c-0.1-0.6-0.2-1.2-0.4-1.6c-0.2-0.5-0.6-0.9-1-1.1
				c-0.4-0.3-1-0.4-1.7-0.4s-1.3,0.1-1.7,0.4c-0.4,0.3-0.8,0.7-1,1.1c-0.2,0.5-0.4,1-0.4,1.6c-0.1,0.6-0.1,1.3-0.1,1.9
				c0,0.7,0,1.3,0.1,1.9c0.1,0.6,0.2,1.2,0.4,1.7c0.2,0.5,0.5,0.9,1,1.2c0.4,0.3,1,0.4,1.7,0.4s1.3-0.1,1.7-0.4
				c0.4-0.3,0.8-0.7,1-1.2s0.4-1,0.4-1.7C371.8,116.4,371.9,115.8,371.9,115.1z"/>
		</g>
	</g>
</g>
</svg>
