<?xml version="1.0" encoding="UTF-8" standalone="no"?>
<svg
   xmlns:dc="http://purl.org/dc/elements/1.1/"
   xmlns:cc="http://creativecommons.org/ns#"
   xmlns:rdf="http://www.w3.org/1999/02/22-rdf-syntax-ns#"
   xmlns:svg="http://www.w3.org/2000/svg"
   xmlns="http://www.w3.org/2000/svg"
   viewBox="0 0 1594.3351 363.70254"
   height="363.70255"
   width="1594.3351"
   xml:space="preserve"
   version="1.1"
   id="svg3336"><metadata
     id="metadata3342"><rdf:RDF><cc:Work
         rdf:about=""><dc:format>image/svg+xml</dc:format><dc:type
           rdf:resource="http://purl.org/dc/dcmitype/StillImage" /><dc:title></dc:title></cc:Work></rdf:RDF></metadata><defs
     id="defs3340"><clipPath
       id="clipPath3368"
       clipPathUnits="userSpaceOnUse"><path
         style="clip-rule:evenodd"
         id="path3370"
         d="m 36.241,752.52 523.41,0 0,17.88 -523.41,0 0,-17.88 z" /></clipPath><clipPath
       id="clipPath3378"
       clipPathUnits="userSpaceOnUse"><path
         style="clip-rule:evenodd"
         id="path3380"
         d="m 36.24,752.52 523.42,0 0,17.88 -523.42,0 0,-17.88 z" /></clipPath><clipPath
       id="clipPath3390"
       clipPathUnits="userSpaceOnUse"><path
         style="clip-rule:evenodd"
         id="path3392"
         d="m 36.24,752.52 523.42,0 0,17.88 -523.42,0 0,-17.88 z" /></clipPath><clipPath
       id="clipPath3398"
       clipPathUnits="userSpaceOnUse"><path
         style="clip-rule:evenodd"
         id="path3400"
         d="m 36.24,752.52 523.42,0 0,17.88 -523.42,0 0,-17.88 z" /></clipPath><clipPath
       id="clipPath3410"
       clipPathUnits="userSpaceOnUse"><path
         style="clip-rule:evenodd"
         id="path3412"
         d="m 36.24,752.52 523.42,0 0,17.88 -523.42,0 0,-17.88 z" /></clipPath><clipPath
       id="clipPath3422"
       clipPathUnits="userSpaceOnUse"><path
         style="clip-rule:evenodd"
         id="path3424"
         d="m 36.24,752.52 523.42,0 0,17.88 -523.42,0 0,-17.88 z" /></clipPath><clipPath
       id="clipPath3434"
       clipPathUnits="userSpaceOnUse"><path
         style="clip-rule:evenodd"
         id="path3436"
         d="m 36.24,752.52 523.42,0 0,17.88 -523.42,0 0,-17.88 z" /></clipPath><clipPath
       id="clipPath3446"
       clipPathUnits="userSpaceOnUse"><path
         style="clip-rule:evenodd"
         id="path3448"
         d="m 36.24,752.52 523.42,0 0,17.88 -523.42,0 0,-17.88 z" /></clipPath><clipPath
       id="clipPath4308"
       clipPathUnits="userSpaceOnUse"><path
         style="clip-rule:evenodd"
         id="path4310"
         d="m 15.001,36.269 13.56,0 0,141.12 -13.56,0 0,-141.12 z" /></clipPath><clipPath
       id="clipPath4316"
       clipPathUnits="userSpaceOnUse"><path
         style="clip-rule:evenodd"
         id="path4318"
         d="m 15,36.264 13.56,0 0,141.12 -13.56,0 0,-141.12 z" /></clipPath><clipPath
       id="clipPath4328"
       clipPathUnits="userSpaceOnUse"><path
         style="clip-rule:evenodd"
         id="path4330"
         d="m 15,36.264 13.56,0 0,141.12 -13.56,0 0,-141.12 z" /></clipPath><clipPath
       id="clipPath4336"
       clipPathUnits="userSpaceOnUse"><path
         style="clip-rule:evenodd"
         id="path4338"
         d="m 15,36.264 13.56,0 0,141.12 -13.56,0 0,-141.12 z" /></clipPath><clipPath
       id="clipPath4348"
       clipPathUnits="userSpaceOnUse"><path
         style="clip-rule:evenodd"
         id="path4350"
         d="m 15,36.264 13.56,0 0,141.12 -13.56,0 0,-141.12 z" /></clipPath><clipPath
       id="clipPath4360"
       clipPathUnits="userSpaceOnUse"><path
         style="clip-rule:evenodd"
         id="path4362"
         d="m 15,36.264 13.56,0 0,141.12 -13.56,0 0,-141.12 z" /></clipPath><clipPath
       id="clipPath4372"
       clipPathUnits="userSpaceOnUse"><path
         style="clip-rule:evenodd"
         id="path4374"
         d="m 15,36.264 13.56,0 0,141.12 -13.56,0 0,-141.12 z" /></clipPath><clipPath
       id="clipPath4380"
       clipPathUnits="userSpaceOnUse"><path
         style="clip-rule:evenodd"
         id="path4382"
         d="m 15,36.264 13.56,0 0,141.12 -13.56,0 0,-141.12 z" /></clipPath><clipPath
       id="clipPath4392"
       clipPathUnits="userSpaceOnUse"><path
         style="clip-rule:evenodd"
         id="path4394"
         d="m 15,36.264 13.56,0 0,141.12 -13.56,0 0,-141.12 z" /></clipPath><clipPath
       id="clipPath4400"
       clipPathUnits="userSpaceOnUse"><path
         style="clip-rule:evenodd"
         id="path4402"
         d="m 15,36.264 13.56,0 0,141.12 -13.56,0 0,-141.12 z" /></clipPath><clipPath
       id="clipPath4410"
       clipPathUnits="userSpaceOnUse"><path
         id="path4412"
         d="m 0,0 419.49,0 0,96.053 L 0,96.053 0,0 Z" /></clipPath></defs><g
     transform="matrix(1.25,0,0,-1.25,-502.5,1344.0782)"
     id="g3344"><g
       transform="matrix(17.7552,0,0,4.06112,402,782.85651)"
       id="g4404"><g
         transform="scale(0.1716,0.7496)"
         id="g4406"><g
           clip-path="url(#clipPath4410)"
           id="g4408"><g
             id="g4414"><g
               id="g4416"><g
                 id="g4418" /></g><path
               id="path4420"
               style="fill:#ffffff;fill-opacity:1;fill-rule:evenodd;stroke:none"
               d="m -0.37347,0.47434 419,0 0,96 -419,0 0,-96 z" /><path
               id="path4422"
               style="fill:#003f5d;fill-opacity:1;fill-rule:evenodd;stroke:none"
               d="m 123.41,55.339 -0.26,-1.024 -0.31,-0.997 -0.34,-0.972 -0.37,-0.918 -0.42,-0.919 -0.42,-0.893 -0.47,-0.84 -0.52,-0.84 -0.53,-0.787 -0.57,-0.762 -0.58,-0.761 -0.63,-0.709 -0.65,-0.656 -0.71,-0.656 -0.7,-0.604 -0.74,-0.578 -0.76,-0.551 -0.81,-0.525 -0.81,-0.472 -0.84,-0.473 -0.89,-0.394 -0.89,-0.393 -0.92,-0.342 -0.94,-0.315 -0.97,-0.288 -0.99,-0.237 -1,-0.21 -1.05,-0.157 -1.04,-0.131 -1.08,-0.105 -1.1,-0.053 -1.1,0 -1.437,0.026 -1.362,0.079 -1.362,0.158 -1.335,0.21 -1.283,0.288 -1.257,0.315 -1.205,0.394 -1.178,0.446 -1.153,0.499 -1.1,0.551 -1.073,0.604 -1.022,0.656 -0.995,0.709 -0.942,0.762 -0.891,0.787 -0.864,0.866 -0.812,0.893 -0.759,0.945 -0.733,0.997 -0.681,1.024 -0.603,1.077 -0.576,1.128 -0.524,1.155 -0.471,1.208 -0.419,1.234 -0.367,1.286 -0.314,1.313 -0.262,1.338 -0.209,1.392 -0.157,1.417 -0.079,1.444 -0.026,1.47 0.026,1.523 0.105,1.47 0.131,1.47 0.209,1.417 0.262,1.392 0.341,1.365 0.366,1.312 0.419,1.287 0.498,1.233 0.524,1.234 0.576,1.155 0.628,1.129 0.681,1.076 0.733,1.05 0.76,0.998 0.812,0.945 0.864,0.892 0.89,0.867 0.943,0.787 0.969,0.761 1.021,0.683 1.048,0.656 1.1,0.578 1.126,0.525 1.152,0.472 1.178,0.42 1.231,0.368 1.257,0.289 1.257,0.21 1.309,0.183 1.336,0.105 1.362,0.027 0.947,-0.027 0.94,-0.052 0.89,-0.079 0.92,-0.105 0.89,-0.131 0.86,-0.184 0.86,-0.184 0.87,-0.236 0.84,-0.262 0.81,-0.289 0.78,-0.315 0.82,-0.368 0.75,-0.367 0.76,-0.394 0.74,-0.446 0.7,-0.446 0.71,-0.499 0.68,-0.499 0.66,-0.551 0.65,-0.552 0.63,-0.603 0.58,-0.604 0.6,-0.656 0.55,-0.657 0.52,-0.682 0.53,-0.709 0.47,-0.761 0.47,-0.762 0.44,-0.787 0.42,-0.788 0.4,-0.84 0.36,-0.84 0.29,-0.813 0.29,-0.788 0.26,-0.84 0.26,-0.814 0.21,-0.866 0.21,-0.893 0.16,-0.892 0.16,-0.919 0.15,-0.971 0.11,-0.971 0.08,-1.024 0.07,-1.024 0.06,-1.076 0.02,-1.103 0.03,-1.155 -0.03,-1.181 -38.152,0 0.053,-0.972 0.078,-0.918 0.105,-0.893 0.131,-0.866 0.157,-0.84 0.183,-0.814 0.21,-0.787 0.235,-0.762 0.262,-0.735 0.288,-0.709 0.315,-0.682 0.34,-0.63 0.367,-0.63 0.392,-0.578 0.419,-0.577 0.419,-0.525 0.472,-0.499 0.471,-0.446 0.524,-0.447 0.524,-0.393 0.55,-0.394 0.576,-0.341 0.602,-0.315 0.629,-0.263 0.654,-0.262 0.681,-0.21 0.681,-0.184 0.707,-0.158 0.733,-0.105 0.76,-0.078 0.785,-0.053 0.809,-0.026 0.58,0 0.58,0.026 0.57,0.053 0.55,0.052 0.53,0.079 0.52,0.079 0.5,0.105 0.49,0.131 0.48,0.131 0.47,0.158 0.44,0.183 0.45,0.184 0.42,0.21 0.42,0.236 0.39,0.263 0.39,0.262 0.37,0.289 0.36,0.289 0.34,0.341 0.35,0.342 0.34,0.367 0.31,0.368 0.31,0.393 0.29,0.447 0.29,0.42 0.29,0.472 0.26,0.499 0.26,0.499 0.26,0.525 0.24,0.551 0.24,0.577 0.2,0.578 10.92,0 z m -10.68,14.596 -0.1,0.761 -0.11,0.787 -0.13,0.735 -0.16,0.735 -0.18,0.709 -0.18,0.683 -0.24,0.682 -0.24,0.657 -0.28,0.603 -0.29,0.63 -0.32,0.578 -0.31,0.551 -0.37,0.551 -0.36,0.499 -0.4,0.499 -0.41,0.472 -0.45,0.447 -0.45,0.42 -0.47,0.367 -0.47,0.368 -0.52,0.341 -0.53,0.315 -0.52,0.289 -0.58,0.262 -0.55,0.21 -0.6,0.21 -0.6,0.158 -0.63,0.157 -0.63,0.105 -0.65,0.079 -0.66,0.053 -0.677,0 -0.707,0 -0.681,-0.053 -0.681,-0.079 -0.655,-0.078 -0.654,-0.132 -0.629,-0.157 -0.602,-0.184 -0.576,-0.21 -0.576,-0.236 -0.55,-0.263 -0.524,-0.288 -0.524,-0.315 -0.497,-0.342 -0.472,-0.394 -0.471,-0.393 -0.419,-0.42 L 90.026,79.857 89.633,79.385 89.24,78.86 88.874,78.335 88.533,77.784 88.219,77.18 87.905,76.576 87.643,75.946 87.381,75.29 87.119,74.581 86.909,73.872 86.7,73.137 86.517,72.376 86.36,71.588 l -0.131,-0.813 -0.131,-0.84 26.632,0 z" /><path
               id="path4424"
               style="fill:#003f5d;fill-opacity:1;fill-rule:evenodd;stroke:none"
               d="m 214.91,39.168 -12.72,0 -18.94,51.767 12.42,0 8.01,-23.363 0.39,-1.155 0.45,-1.339 0.47,-1.444 0.47,-1.549 0.5,-1.601 0.47,-1.575 0.47,-1.575 0.42,-1.444 0.21,-0.63 0.16,-0.63 0.18,-0.604 0.16,-0.656 0.18,-0.735 0.18,-0.787 0.21,-0.919 0.21,-1.05 0.47,2.074 0.45,1.89 0.47,1.837 0.5,1.838 0.6,2.021 0.73,2.284 0.87,2.678 1.05,3.176 7.69,23.258 11.76,0 -18.49,-51.767 z" /><path
               id="path4426"
               style="fill:#003f5d;fill-opacity:1;fill-rule:evenodd;stroke:none"
               d="m 241.94,39.168 11.418,0 0,51.767 -11.418,0 0,-51.767 z" /><path
               id="path4428"
               style="fill:#003f5d;fill-opacity:1;fill-rule:evenodd;stroke:none"
               d="m 293.42,39.168 -12.72,0 -18.91,51.767 12.39,0 8.04,-23.363 0.36,-1.155 0.45,-1.339 0.47,-1.444 0.47,-1.549 0.5,-1.601 0.5,-1.575 0.44,-1.575 0.42,-1.444 0.21,-0.63 0.16,-0.63 0.18,-0.604 0.16,-0.656 0.18,-0.735 0.18,-0.787 0.21,-0.919 0.24,-1.05 0.44,2.074 0.45,1.89 0.47,1.837 0.5,1.838 0.6,2.021 0.73,2.284 0.87,2.678 1.05,3.176 7.72,23.258 11.76,0 -18.52,-51.767 z" /><path
               id="path4430"
               style="fill:#003f5d;fill-opacity:1;fill-rule:evenodd;stroke:none"
               d="m 400.77,75.92 -0.08,0.525 -0.11,0.499 -0.1,0.472 -0.13,0.446 -0.13,0.447 -0.16,0.42 -0.18,0.42 -0.19,0.393 -0.21,0.368 -0.21,0.341 -0.23,0.341 -0.26,0.315 -0.27,0.315 -0.31,0.289 -0.29,0.263 -0.34,0.262 -0.34,0.237 -0.37,0.21 -0.36,0.21 -0.42,0.21 -0.42,0.157 -0.42,0.158 -0.47,0.157 -0.47,0.105 -0.5,0.131 -0.52,0.079 -0.53,0.079 -0.57,0.079 -0.58,0.052 -0.6,0.026 -0.6,0.027 -0.66,0 -1.1,-0.027 -1.02,-0.052 -0.5,-0.079 -0.47,-0.052 -0.44,-0.079 -0.45,-0.105 -0.44,-0.105 -0.4,-0.105 -0.42,-0.131 -0.36,-0.132 -0.37,-0.157 -0.34,-0.158 -0.31,-0.183 -0.32,-0.184 -0.29,-0.184 -0.28,-0.21 -0.27,-0.236 -0.23,-0.21 -0.21,-0.237 -0.21,-0.262 -0.18,-0.263 -0.16,-0.288 -0.16,-0.263 -0.13,-0.315 -0.1,-0.289 -0.08,-0.315 -0.08,-0.341 -0.05,-0.315 -0.03,-0.367 0,-0.342 0,-0.446 0.05,-0.394 0.06,-0.393 0.1,-0.394 0.1,-0.341 0.16,-0.342 0.19,-0.341 0.18,-0.315 0.23,-0.289 0.29,-0.262 0.29,-0.289 0.34,-0.236 0.34,-0.237 0.39,-0.236 0.45,-0.21 0.47,-0.21 0.52,-0.21 0.74,-0.262 0.94,-0.263 1.1,-0.289 1.31,-0.341 1.47,-0.341 1.62,-0.368 1.81,-0.393 1.41,-0.289 1.31,-0.315 1.23,-0.289 1.18,-0.315 1.1,-0.289 1.05,-0.315 0.97,-0.315 0.91,-0.315 0.87,-0.315 0.83,-0.341 0.76,-0.341 0.74,-0.368 0.7,-0.367 0.66,-0.368 0.63,-0.394 0.63,-0.42 0.57,-0.446 0.55,-0.472 0.53,-0.525 0.49,-0.525 0.45,-0.578 0.42,-0.604 0.39,-0.63 0.37,-0.682 0.28,-0.683 0.29,-0.709 0.24,-0.735 0.18,-0.735 0.16,-0.787 0.1,-0.788 0.08,-0.787 0.03,-0.814 -0.03,-0.971 -0.08,-0.945 -0.13,-0.945 -0.18,-0.893 -0.21,-0.866 -0.26,-0.84 -0.34,-0.84 -0.34,-0.788 -0.42,-0.761 -0.47,-0.735 -0.5,-0.709 -0.52,-0.682 -0.61,-0.657 -0.63,-0.63 -0.68,-0.577 -0.7,-0.578 -0.76,-0.525 -0.81,-0.499 -0.84,-0.472 -0.87,-0.446 -0.91,-0.394 -0.97,-0.368 -0.97,-0.341 -1.05,-0.315 -1.07,-0.262 -1.1,-0.237 -1.13,-0.21 -1.18,-0.157 -1.2,-0.131 -1.23,-0.105 -1.29,-0.053 -1.3,0 -1.34,0 -1.28,0.053 -1.29,0.105 -1.2,0.131 -1.18,0.157 -1.15,0.184 -1.1,0.236 -1.05,0.289 -1.02,0.289 -1,0.341 -0.94,0.368 -0.91,0.42 -0.87,0.446 -0.81,0.472 -0.79,0.525 -0.76,0.552 -0.68,0.577 -0.68,0.63 -0.63,0.657 -0.57,0.682 -0.53,0.735 -0.52,0.735 -0.45,0.788 -0.41,0.84 -0.37,0.866 -0.34,0.866 -0.29,0.945 -0.26,0.945 -0.21,0.998 -0.16,1.024 -0.13,1.05 -0.08,1.102 10.92,0 0.08,-0.604 0.08,-0.603 0.13,-0.552 0.13,-0.551 0.16,-0.499 0.18,-0.498 0.19,-0.499 0.21,-0.446 0.23,-0.447 0.26,-0.42 0.29,-0.393 0.29,-0.394 0.31,-0.368 0.34,-0.341 0.34,-0.315 0.37,-0.315 0.42,-0.263 0.39,-0.288 0.45,-0.237 0.47,-0.236 0.47,-0.21 0.5,-0.184 0.52,-0.157 0.55,-0.158 0.58,-0.131 0.57,-0.131 0.61,-0.079 0.62,-0.105 0.66,-0.052 0.68,-0.053 0.71,-0.026 0.7,0 0.66,0 0.6,0.026 0.6,0.053 0.61,0.052 0.55,0.079 0.57,0.079 0.53,0.105 0.52,0.131 0.5,0.131 0.49,0.158 0.45,0.157 0.47,0.184 0.42,0.21 0.42,0.21 0.37,0.21 0.39,0.236 0.34,0.263 0.34,0.262 0.29,0.263 0.29,0.288 0.28,0.316 0.24,0.315 0.24,0.315 0.18,0.341 0.18,0.367 0.16,0.342 0.13,0.393 0.1,0.368 0.11,0.394 0.05,0.42 0.03,0.42 0.02,0.42 0,0.367 -0.02,0.341 -0.05,0.342 -0.06,0.315 -0.05,0.315 -0.1,0.288 -0.11,0.289 -0.13,0.263 -0.13,0.289 -0.18,0.236 -0.19,0.262 -0.21,0.237 -0.26,0.21 -0.26,0.236 -0.31,0.21 -0.32,0.21 -0.37,0.21 -0.36,0.21 -0.42,0.21 -0.45,0.184 -1.02,0.42 -1.12,0.393 -1.31,0.394 -1.44,0.42 -1.63,0.42 -1.8,0.446 -1.39,0.315 -1.31,0.315 -1.21,0.289 -1.12,0.263 -1,0.236 -0.91,0.236 -0.82,0.21 -0.68,0.184 -0.78,0.184 -0.76,0.236 -0.73,0.236 -0.71,0.237 -0.66,0.262 -0.65,0.289 -0.66,0.289 -0.6,0.288 -0.57,0.315 -0.55,0.342 -0.53,0.341 -0.5,0.341 -0.49,0.368 -0.45,0.393 -0.44,0.394 -0.4,0.42 -0.39,0.42 -0.34,0.447 -0.34,0.446 -0.31,0.472 -0.27,0.473 -0.26,0.499 -0.23,0.525 -0.21,0.525 -0.19,0.551 -0.15,0.551 -0.13,0.578 -0.14,0.577 -0.07,0.604 -0.06,0.604 -0.05,0.63 0,0.656 0.03,0.893 0.05,0.892 0.13,0.84 0.16,0.84 0.21,0.788 0.23,0.787 0.29,0.735 0.34,0.735 0.39,0.709 0.42,0.656 0.47,0.657 0.5,0.603 0.55,0.578 0.6,0.577 0.63,0.525 0.66,0.499 0.73,0.473 0.73,0.446 0.79,0.42 0.84,0.394 0.86,0.367 0.92,0.315 0.94,0.315 0.97,0.263 1.02,0.236 1.08,0.21 1.07,0.184 1.13,0.131 1.17,0.105 1.18,0.079 1.23,0.052 1.29,0.027 0.68,0 0.7,-0.027 0.68,-0.026 0.69,-0.052 0.68,-0.079 0.65,-0.053 0.66,-0.105 0.62,-0.105 0.66,-0.105 0.63,-0.131 0.6,-0.131 0.6,-0.158 0.6,-0.157 0.61,-0.184 0.57,-0.184 0.55,-0.183 0.55,-0.237 0.55,-0.21 0.53,-0.236 0.52,-0.236 0.5,-0.263 0.5,-0.288 0.47,-0.263 0.47,-0.289 0.44,-0.315 0.42,-0.315 0.42,-0.315 0.42,-0.341 0.39,-0.341 0.37,-0.368 0.34,-0.367 0.34,-0.368 0.45,-0.499 0.36,-0.472 0.37,-0.499 0.34,-0.499 0.29,-0.525 0.26,-0.525 0.26,-0.551 0.21,-0.577 0.21,-0.604 0.18,-0.63 0.16,-0.657 0.13,-0.708 0.13,-0.735 0.11,-0.788 0.1,-0.814 0.08,-0.892 -10.89,0 z" /><path
               id="path4432"
               style="fill:#003f5d;fill-opacity:1;fill-rule:evenodd;stroke:none"
               d="m 144.36,39.483 -11.33,0 0,0.42 0,1.208 0,1.864 0.02,2.389 0,2.861 0,3.176 0.03,3.413 0,3.518 0.02,3.517 0,3.413 0,3.202 0.03,2.888 0,2.441 0,1.891 0,1.26 0,0.472 0.03,0.236 0.05,0.499 0.05,0.368 0.08,0.42 0.1,0.446 0.14,0.525 0.15,0.551 0.21,0.578 0.24,0.63 0.29,0.63 0.34,0.682 0.39,0.683 0.44,0.682 0.53,0.683 0.55,0.709 0.65,0.682 0.71,0.683 0.79,0.656 0.86,0.63 0.94,0.604 1.05,0.577 1.13,0.552 1.2,0.472 1.34,0.446 1.41,0.394 1.52,0.341 1.65,0.263 1.75,0.21 1.86,0.105 1.99,0.052 1.99,-0.026 1.86,-0.131 1.76,-0.158 1.65,-0.236 1.52,-0.289 1.41,-0.367 1.34,-0.394 1.23,-0.446 1.12,-0.473 1.02,-0.525 0.97,-0.551 0.87,-0.577 0.78,-0.604 0.74,-0.604 0.62,-0.656 0.58,-0.63 0.52,-0.657 0.45,-0.656 0.39,-0.656 0.34,-0.63 0.32,-0.63 0.23,-0.63 0.21,-0.578 0.16,-0.577 0.16,-0.552 0.1,-0.498 0.08,-0.473 0.05,-0.446 0.05,-0.709 0.03,-0.525 0,-0.761 0,-1.444 0,-2.021 0,-2.52 0,-2.914 0,-3.203 0,-3.36 0,-3.439 0,-3.413 0,-3.307 0,-3.072 0,-2.73 0,-2.31 0,-1.759 0,-1.155 0,-0.393 -11.34,0 -0.1,33.942 0,0.131 -0.03,0.342 -0.03,0.525 -0.07,0.656 -0.06,0.394 -0.1,0.42 -0.08,0.446 -0.13,0.446 -0.16,0.473 -0.18,0.499 -0.18,0.472 -0.24,0.525 -0.29,0.499 -0.29,0.472 -0.34,0.499 -0.39,0.473 -0.42,0.472 -0.47,0.447 -0.52,0.42 -0.58,0.393 -0.6,0.368 -0.68,0.341 -0.74,0.289 -0.78,0.262 -0.84,0.21 -0.89,0.158 -0.97,0.105 -1.05,0.052 -1.04,0 -0.97,-0.078 -0.89,-0.132 -0.84,-0.183 -0.79,-0.21 -0.73,-0.289 -0.66,-0.315 -0.6,-0.341 -0.57,-0.394 -0.5,-0.42 -0.47,-0.42 -0.42,-0.473 -0.37,-0.472 -0.34,-0.499 -0.29,-0.499 -0.26,-0.499 -0.23,-0.525 -0.19,-0.498 -0.18,-0.499 -0.13,-0.499 -0.13,-0.472 -0.11,-0.447 -0.05,-0.446 -0.08,-0.394 -0.1,-1.312 -0.06,-0.578 0,-0.446 -0.02,-1.103 0,-1.706 -0.03,-2.205 0,-2.573 0,-2.861 0,-3.045 0.03,-3.176 0,-3.151 0,-3.045 0,-2.835 0.02,-2.546 0,-2.153 0,-1.654 0,-1.076 0,-0.367 -0.21,-0.132 z" /><path
               id="path4434"
               style="fill:#003f5d;fill-opacity:1;fill-rule:evenodd;stroke:none"
               d="m 359.34,60.458 0.21,-22.576 -11.32,-0.131 0,0.21 -0.02,0.499 0,0.735 -0.03,0.866 -0.02,0.919 0,0.918 -0.03,0.762 0,0.577 -0.89,-0.682 -0.92,-0.63 -0.44,-0.289 -0.47,-0.289 -0.48,-0.289 -0.47,-0.262 -0.49,-0.263 -0.5,-0.236 -0.5,-0.21 -0.5,-0.236 -1.02,-0.394 -1.05,-0.341 -1.1,-0.315 -1.12,-0.263 -1.13,-0.236 -1.2,-0.184 -1.21,-0.131 -1.25,-0.105 -1.31,-0.052 -1.34,-0.027 -0.97,0.027 -0.97,0.052 -0.91,0.079 -0.92,0.131 -0.89,0.158 -0.86,0.183 -0.84,0.21 -0.81,0.263 -0.76,0.262 -0.76,0.315 -0.74,0.342 -0.7,0.393 -0.66,0.394 -0.65,0.42 -0.6,0.473 -0.58,0.472 -0.55,0.525 -0.52,0.552 -0.48,0.577 -0.47,0.578 -0.42,0.63 -0.36,0.656 -0.37,0.656 -0.31,0.709 -0.27,0.709 -0.26,0.761 -0.21,0.761 -0.15,0.788 -0.16,0.814 -0.08,0.813 -0.05,0.867 -0.03,0.866 0,0.577 0.03,0.552 0.05,0.551 0.05,0.551 0.08,0.525 0.08,0.525 0.1,0.499 0.14,0.499 0.15,0.499 0.16,0.472 0.16,0.473 0.18,0.472 0.21,0.446 0.23,0.42 0.24,0.447 0.24,0.42 0.28,0.393 0.29,0.42 0.29,0.368 0.31,0.394 0.35,0.367 0.34,0.342 0.36,0.367 0.37,0.315 0.39,0.341 0.39,0.315 0.42,0.289 0.45,0.289 0.44,0.289 0.48,0.262 0.47,0.263 0.49,0.262 0.87,0.341 0.94,0.368 1.02,0.315 1.08,0.341 1.12,0.263 1.15,0.262 1.13,0.21 1.15,0.132 2.12,0.21 2.15,0.341 2.15,0.21 1.94,0.236 1.72,0.236 1.52,0.237 1.34,0.236 0.58,0.131 0.55,0.131 0.49,0.132 0.47,0.131 0.45,0.131 0.37,0.158 0.36,0.157 0.32,0.158 0.29,0.157 0.26,0.21 0.23,0.184 0.19,0.21 0.18,0.21 0.16,0.236 0.13,0.263 0.1,0.262 0.08,0.289 0.08,0.289 0.05,0.341 0.05,0.341 0.06,0.735 0,0.84 0,0.499 -0.03,0.473 -0.05,0.472 -0.08,0.446 -0.11,0.42 -0.1,0.42 -0.13,0.394 -0.16,0.368 -0.16,0.367 -0.18,0.368 -0.23,0.315 -0.24,0.315 -0.24,0.315 -0.28,0.289 -0.29,0.262 -0.32,0.263 -0.34,0.236 -0.34,0.21 -0.39,0.21 -0.39,0.184 -0.42,0.183 -0.45,0.158 -0.44,0.157 -0.5,0.132 -0.5,0.105 -0.52,0.105 -0.55,0.078 -0.58,0.053 -0.57,0.079 -0.61,0.026 -0.62,0.026 -0.66,0 -0.71,0 -0.65,-0.026 -0.66,-0.026 -0.62,-0.053 -0.61,-0.079 -0.57,-0.078 -0.55,-0.105 -0.53,-0.105 -0.49,-0.132 -0.47,-0.131 -0.48,-0.184 -0.44,-0.183 -0.42,-0.184 -0.39,-0.236 -0.37,-0.237 -0.37,-0.236 -0.31,-0.289 -0.34,-0.289 -0.29,-0.315 -0.29,-0.341 -0.26,-0.367 -0.23,-0.368 -0.24,-0.394 -0.21,-0.446 -0.18,-0.42 -0.19,-0.472 -0.18,-0.499 -0.13,-0.525 -0.16,-0.525 -0.1,-0.551 -0.11,-0.604 -0.1,-0.604 -10.69,0 0.11,1.076 0.16,1.05 0.2,0.998 0.24,0.971 0.26,0.945 0.32,0.919 0.34,0.866 0.39,0.84 0.42,0.788 0.47,0.787 0.5,0.735 0.55,0.683 0.57,0.682 0.63,0.63 0.66,0.578 0.7,0.578 0.74,0.525 0.78,0.498 0.81,0.447 0.87,0.42 0.89,0.393 0.94,0.368 0.97,0.315 1.02,0.289 1.05,0.262 1.1,0.21 1.13,0.184 1.17,0.157 1.21,0.132 1.26,0.078 1.31,0.053 1.33,0.026 1.36,-0.026 1.36,-0.079 1.34,-0.131 1.31,-0.158 1.28,-0.21 1.26,-0.262 1.2,-0.289 1.16,-0.341 1.12,-0.368 1.08,-0.42 0.49,-0.236 0.5,-0.21 0.5,-0.236 0.47,-0.263 0.45,-0.236 0.41,-0.262 0.42,-0.289 0.42,-0.263 0.37,-0.288 0.37,-0.289 0.34,-0.315 0.31,-0.315 0.47,-0.499 0.42,-0.499 0.39,-0.525 0.34,-0.525 0.32,-0.551 0.29,-0.578 0.23,-0.603 0.21,-0.63 0.18,-0.657 0.16,-0.709 0.13,-0.735 0.11,-0.761 0.08,-0.84 0.05,-0.892 0.02,-0.919 0.03,-0.998 0,-3.229 -0.05,-1.391 -0.03,-1.155 -0.02,-0.945 -0.06,-0.761 -0.02,-0.63 -0.03,-0.499 -0.02,-0.446 0,-0.394 -0.03,-0.42 -0.03,-0.446 0,-0.525 -0.02,-0.63 0,-0.788 0,-0.971 0,-1.182 0,-1.443 -0.08,0.236 z m -10.95,4.673 -1.02,-0.525 -0.92,-0.42 -0.47,-0.184 -0.47,-0.158 -0.52,-0.157 -0.55,-0.158 -0.63,-0.131 -0.71,-0.131 -0.81,-0.158 -0.92,-0.131 -2.22,-0.341 -2.83,-0.394 -1.41,-0.184 -1.21,-0.21 -1.07,-0.184 -0.97,-0.21 -0.84,-0.236 -0.76,-0.262 -0.34,-0.158 -0.34,-0.131 -0.34,-0.184 -0.32,-0.157 -0.44,-0.237 -0.39,-0.262 -0.4,-0.315 -0.36,-0.315 -0.32,-0.341 -0.31,-0.368 -0.29,-0.394 -0.23,-0.42 -0.24,-0.446 -0.21,-0.446 -0.16,-0.473 -0.15,-0.498 -0.11,-0.526 -0.08,-0.525 -0.05,-0.525 0,-0.577 0,-0.446 0.03,-0.447 0.05,-0.42 0.08,-0.42 0.08,-0.393 0.1,-0.394 0.13,-0.394 0.16,-0.367 0.16,-0.342 0.18,-0.341 0.21,-0.315 0.21,-0.315 0.23,-0.289 0.27,-0.289 0.28,-0.262 0.29,-0.263 0.32,-0.236 0.31,-0.236 0.34,-0.21 0.37,-0.184 0.36,-0.184 0.4,-0.157 0.42,-0.158 0.44,-0.131 0.42,-0.105 0.47,-0.105 0.47,-0.105 0.5,-0.079 0.5,-0.052 0.52,-0.026 0.55,-0.027 0.55,0 0.53,0 0.52,0.027 0.52,0.026 0.53,0.052 1.02,0.132 1.02,0.157 0.97,0.236 0.94,0.263 0.92,0.315 0.86,0.367 0.42,0.184 0.42,0.21 0.39,0.21 0.4,0.21 0.36,0.21 0.37,0.236 0.34,0.263 0.34,0.236 0.31,0.263 0.29,0.262 0.29,0.263 0.29,0.289 0.23,0.262 0.24,0.289 0.21,0.315 0.21,0.289 0.16,0.288 0.13,0.315 0.13,0.289 0.1,0.315 0.11,0.341 0.08,0.342 0.07,0.367 0.08,0.394 0.11,0.919 0.05,1.076 0.05,1.313 0,1.548 0,6.091 z" /><path
               id="path4436"
               style="fill:#fbbb21;fill-opacity:1;fill-rule:evenodd;stroke:none"
               d="m 4.9426,37.803 29.9324,0 26.947,27.013 -26.947,26.986 -29.9324,0 0.1833,0 L 31.89,64.816 4.9426,37.803 Z" /><path
               id="path4438"
               style="fill:#003f5d;fill-opacity:1;fill-rule:evenodd;stroke:none"
               d="m 78.006,25.833 2.357,0 0,-7.587 7.227,7.587 3.274,0 -7.726,-7.744 8.564,-9.5818 -3.352,0 -7.987,9.1878 0,-9.1878 -2.357,0 0,17.3258 z" /><path
               id="path4440"
               style="fill:#003f5d;fill-opacity:1;fill-rule:evenodd;stroke:none"
               d="m 96.704,18.115 0,0.604 -0.027,0.63 -0.052,0.604 -0.052,0.603 2.278,0 0.052,-2.336 0.105,0.315 0.105,0.263 0.131,0.262 0.157,0.236 0.157,0.184 0.183,0.184 0.184,0.184 0.205,0.131 0.21,0.131 0.21,0.131 0.21,0.079 0.21,0.079 0.42,0.131 0.39,0.079 0.48,0.052 0.41,0 0.34,0 0.32,0 0,-2.231 -0.18,0.079 -0.24,0.026 -0.29,0.026 -0.36,0 -0.48,-0.026 -0.42,-0.052 -0.39,-0.079 -0.34,-0.131 -0.31,-0.132 -0.26,-0.183 -0.24,-0.21 -0.21,-0.237 -0.157,-0.262 -0.131,-0.263 -0.131,-0.315 -0.078,-0.315 -0.053,-0.341 -0.052,-0.341 -0.026,-0.394 0,-0.368 0,-6.4048 -2.278,0 0,9.6078 z" /><path
               id="path4442"
               style="fill:#003f5d;fill-opacity:1;fill-rule:evenodd;stroke:none"
               d="m 115.95,8.5072 -0.1,0.4462 -0.06,0.4463 -0.05,0.4463 0,0.446 -0.21,-0.341 -0.21,-0.3151 -0.23,-0.2625 -0.24,-0.2625 -0.23,-0.1837 -0.27,-0.1838 -0.23,-0.1575 -0.26,-0.1312 -0.27,-0.0788 -0.23,-0.0788 -0.24,-0.0787 -0.23,-0.0263 -0.45,-0.0525 -0.42,-0.0262 -0.49,0.0262 -0.48,0.0525 -0.44,0.0788 -0.39,0.1313 -0.4,0.1312 -0.34,0.1838 -0.31,0.21 -0.29,0.21 -0.26,0.2625 -0.21,0.2625 -0.18,0.315 -0.16,0.2888 -0.13,0.341 -0.08,0.342 -0.05,0.367 -0.03,0.368 0.03,0.367 0.05,0.42 0.05,0.236 0.08,0.237 0.08,0.236 0.1,0.236 0.13,0.236 0.16,0.237 0.16,0.236 0.21,0.236 0.21,0.21 0.26,0.21 0.29,0.21 0.31,0.21 0.24,0.131 0.26,0.105 0.29,0.105 0.26,0.079 0.58,0.158 0.57,0.078 0.55,0.079 0.55,0.026 0.47,0.027 0.4,0 0.39,0 0.37,-0.027 0.39,0 0.47,-0.052 0,0.971 -0.05,0.735 -0.06,0.289 -0.07,0.263 -0.11,0.21 -0.13,0.21 -0.21,0.21 -0.23,0.157 -0.27,0.131 -0.26,0.132 -0.31,0.078 -0.29,0.053 -0.26,0.026 -0.26,0 -0.4,-0.026 -0.36,-0.053 -0.32,-0.078 -0.26,-0.105 -0.24,-0.105 -0.18,-0.158 -0.16,-0.157 -0.13,-0.158 -0.1,-0.157 -0.11,-0.184 -0.05,-0.184 -0.05,-0.157 -0.05,-0.289 0,-0.237 -2.26,0 0.06,0.526 0.13,0.551 0.1,0.289 0.13,0.315 0.19,0.315 0.23,0.288 0.19,0.184 0.18,0.158 0.21,0.157 0.23,0.131 0.24,0.132 0.24,0.105 0.26,0.078 0.26,0.079 0.52,0.131 0.53,0.079 0.52,0.053 0.5,0.026 0.31,-0.026 0.34,0 0.34,-0.053 0.32,-0.026 0.31,-0.079 0.32,-0.079 0.31,-0.078 0.29,-0.105 0.29,-0.105 0.26,-0.132 0.23,-0.157 0.24,-0.158 0.21,-0.183 0.18,-0.184 0.16,-0.21 0.16,-0.21 0.13,-0.263 0.08,-0.262 0.07,-0.236 0.06,-0.237 0.05,-0.42 0,-0.42 -0.08,-5.775 0,-0.367 0.03,-0.762 0.05,-0.9186 0.1,-0.9712 -2.04,0 z m -1.54,5.9328 -0.45,0 -0.63,-0.053 -0.34,-0.026 -0.36,-0.052 -0.37,-0.079 -0.37,-0.105 -0.36,-0.131 -0.34,-0.158 -0.16,-0.105 -0.13,-0.105 -0.16,-0.105 -0.13,-0.131 -0.11,-0.131 -0.13,-0.132 -0.08,-0.157 -0.07,-0.184 -0.08,-0.184 -0.03,-0.183 -0.02,-0.21 -0.03,-0.237 0.03,-0.288 0.07,-0.342 0.08,-0.183 0.08,-0.184 0.11,-0.158 0.13,-0.157 0.15,-0.158 0.16,-0.157 0.21,-0.132 0.24,-0.105 0.26,-0.078 0.29,-0.079 0.34,-0.0263 0.34,-0.0262 0.42,0.0262 0.39,0.0525 0.37,0.1048 0.34,0.158 0.28,0.183 0.29,0.21 0.26,0.263 0.21,0.289 0.16,0.315 0.13,0.289 0.11,0.315 0.07,0.341 0.03,0.394 0.05,0.42 0,0.525 0.03,0.577 -0.29,0.026 -0.31,0.027 -0.32,0.026 -0.36,0 z" /><path
               id="path4444"
               style="fill:#003f5d;fill-opacity:1;fill-rule:evenodd;stroke:none"
               d="m 124.75,19.165 -0.03,1.391 2.26,0 0.02,-1.942 0.13,0.236 0.19,0.315 0.13,0.184 0.15,0.184 0.19,0.183 0.21,0.184 0.23,0.158 0.27,0.183 0.28,0.158 0.34,0.131 0.37,0.105 0.42,0.079 0.44,0.052 0.5,0.027 0.21,0 0.29,-0.027 0.29,-0.026 0.34,-0.079 0.36,-0.078 0.37,-0.105 0.37,-0.158 0.34,-0.184 0.37,-0.236 0.31,-0.289 0.16,-0.157 0.15,-0.184 0.13,-0.184 0.14,-0.21 0.1,-0.21 0.1,-0.236 0.11,-0.236 0.08,-0.263 0.05,-0.288 0.05,-0.289 0.03,-0.342 0,-0.315 0,-8.1898 -2.31,0 0,7.6648 0,0.289 0,0.289 -0.05,0.262 -0.05,0.263 -0.08,0.263 -0.13,0.236 -0.13,0.236 -0.18,0.21 -0.24,0.21 -0.24,0.158 -0.26,0.131 -0.26,0.131 -0.29,0.079 -0.29,0.052 -0.28,0.053 -0.29,0 -0.29,0 -0.31,-0.053 -0.29,-0.052 -0.29,-0.105 -0.26,-0.131 -0.26,-0.158 -0.24,-0.184 -0.23,-0.21 -0.21,-0.236 -0.19,-0.262 -0.15,-0.289 -0.14,-0.342 -0.13,-0.341 -0.08,-0.367 -0.05,-0.42 0,-0.447 0,-6.9298 -2.25,0 0,10.6578 z" /><path
               id="path4446"
               style="fill:#003f5d;fill-opacity:1;fill-rule:evenodd;stroke:none"
               d="m 141.85,25.964 2.23,0 0,-10.343 4.5,4.935 2.96,0 -5.08,-5.119 5.39,-6.9298 -2.95,0 -4.82,6.5098 0,-6.5098 -2.23,0 0,17.4568 z" /><path
               id="path4448"
               style="fill:#003f5d;fill-opacity:1;fill-rule:evenodd;stroke:none"
               d="m 158.58,14.125 0,-0.473 0.03,-0.446 0.05,-0.42 0.08,-0.394 0.11,-0.393 0.15,-0.342 0.16,-0.341 0.18,-0.315 0.24,-0.263 0.26,-0.236 0.29,-0.21 0.31,-0.184 0.34,-0.157 0.37,-0.0788 0.42,-0.0787 0.45,-0.0263 0.26,0.0263 0.29,0.0262 0.23,0.0263 0.26,0.0787 0.21,0.0783 0.24,0.105 0.21,0.132 0.18,0.131 0.18,0.157 0.16,0.184 0.16,0.21 0.13,0.237 0.1,0.236 0.11,0.262 0.05,0.315 0.05,0.289 2.26,0 -0.03,-0.236 -0.05,-0.263 -0.06,-0.315 -0.07,-0.315 -0.13,-0.341 -0.19,-0.341 -0.21,-0.342 -0.29,-0.367 -0.23,-0.2363 -0.32,-0.2625 -0.15,-0.1313 -0.21,-0.1312 -0.21,-0.1313 -0.24,-0.1312 -0.26,-0.105 -0.29,-0.105 -0.31,-0.105 -0.34,-0.0788 -0.34,-0.0788 -0.4,-0.0525 -0.41,-0.0262 -0.42,-0.0263 -0.37,0 -0.34,0.0263 -0.31,0.0262 -0.32,0.0525 -0.31,0.0788 -0.29,0.0525 -0.26,0.105 -0.29,0.0788 -0.26,0.1312 -0.24,0.105 -0.23,0.1575 -0.21,0.1313 -0.21,0.1575 -0.21,0.1837 -0.19,0.1838 -0.18,0.1838 -0.18,0.2095 -0.16,0.21 -0.13,0.237 -0.13,0.236 -0.13,0.236 -0.11,0.263 -0.1,0.262 -0.11,0.289 -0.13,0.578 -0.1,0.63 -0.08,0.682 -0.03,0.683 0.03,0.446 0,0.42 0.05,0.42 0.03,0.42 0.08,0.394 0.07,0.393 0.11,0.368 0.13,0.368 0.13,0.367 0.18,0.315 0.19,0.341 0.21,0.315 0.26,0.289 0.26,0.289 0.32,0.262 0.34,0.263 0.21,0.131 0.23,0.131 0.24,0.132 0.21,0.078 0.47,0.158 0.44,0.131 0.45,0.053 0.39,0.052 0.34,0.026 0.29,0 0.5,-0.026 0.44,-0.026 0.45,-0.079 0.39,-0.079 0.37,-0.105 0.34,-0.157 0.31,-0.131 0.29,-0.184 0.29,-0.184 0.23,-0.21 0.21,-0.21 0.21,-0.236 0.19,-0.236 0.15,-0.263 0.16,-0.236 0.13,-0.289 0.11,-0.262 0.1,-0.289 0.08,-0.263 0.08,-0.289 0.1,-0.551 0.05,-0.551 0.03,-0.551 0.03,-0.499 0,-0.446 0,-0.394 -8.65,0 z m 6.34,1.575 0,0.499 -0.08,0.551 -0.05,0.289 -0.08,0.288 -0.1,0.289 -0.13,0.289 -0.16,0.289 -0.21,0.236 -0.24,0.236 -0.28,0.21 -0.16,0.079 -0.18,0.079 -0.19,0.052 -0.18,0.053 -0.21,0.052 -0.24,0.027 -0.23,0.026 -0.26,0.026 -0.27,-0.026 -0.28,-0.026 -0.29,-0.053 -0.26,-0.079 -0.29,-0.105 -0.26,-0.157 -0.27,-0.158 -0.23,-0.183 -0.24,-0.237 -0.21,-0.236 -0.18,-0.289 -0.16,-0.341 -0.13,-0.368 -0.1,-0.393 -0.08,-0.447 -0.03,-0.472 6.26,0 z" /><path
               id="path4450"
               style="fill:#003f5d;fill-opacity:1;fill-rule:evenodd;stroke:none"
               d="m 173.33,19.165 -0.03,1.391 2.25,0 0.03,-1.942 0.13,0.236 0.18,0.315 0.14,0.184 0.15,0.184 0.19,0.183 0.21,0.184 0.23,0.158 0.26,0.183 0.32,0.158 0.31,0.131 0.37,0.105 0.42,0.079 0.44,0.052 0.5,0.027 0.21,0 0.29,-0.027 0.29,-0.026 0.34,-0.079 0.36,-0.078 0.37,-0.105 0.37,-0.158 0.34,-0.184 0.36,-0.236 0.32,-0.289 0.15,-0.157 0.16,-0.184 0.13,-0.184 0.13,-0.21 0.11,-0.21 0.1,-0.236 0.11,-0.236 0.08,-0.263 0.05,-0.288 0.05,-0.289 0.03,-0.342 0,-0.315 0,-8.1898 -2.28,0 0,7.6648 -0.03,0.289 0,0.289 -0.05,0.262 -0.05,0.263 -0.08,0.263 -0.11,0.236 -0.15,0.236 -0.19,0.21 -0.23,0.21 -0.24,0.158 -0.26,0.131 -0.26,0.131 -0.29,0.079 -0.29,0.052 -0.29,0.053 -0.28,0 -0.29,0 -0.32,-0.053 -0.28,-0.052 -0.29,-0.105 -0.26,-0.131 -0.27,-0.158 -0.23,-0.184 -0.24,-0.21 -0.21,-0.236 -0.18,-0.262 -0.16,-0.289 -0.13,-0.342 -0.13,-0.341 -0.08,-0.367 -0.05,-0.42 0,-0.447 0,-6.9298 -2.25,0 0,10.6578 z" /><path
               id="path4452"
               style="fill:#003f5d;fill-opacity:1;fill-rule:evenodd;stroke:none"
               d="m 188.31,20.556 2.51,0 3.82,-9.555 3.75,9.555 2.49,0 -5.27,-12.0488 -2.27,0 -5.03,12.0488 z" /><path
               id="path4454"
               style="fill:#003f5d;fill-opacity:1;fill-rule:evenodd;stroke:none"
               d="m 207.53,14.125 0,-0.473 0.05,-0.446 0.05,-0.42 0.08,-0.394 0.11,-0.393 0.13,-0.342 0.18,-0.341 0.18,-0.315 0.24,-0.263 0.24,-0.236 0.28,-0.21 0.32,-0.184 0.37,-0.157 0.36,-0.0788 0.42,-0.0787 0.45,-0.0263 0.26,0.0263 0.26,0.0262 0.26,0.0263 0.24,0.0787 0.23,0.0783 0.24,0.105 0.21,0.132 0.18,0.131 0.18,0.157 0.16,0.184 0.16,0.21 0.13,0.237 0.1,0.236 0.08,0.262 0.08,0.315 0.05,0.289 2.26,0 -0.03,-0.236 -0.05,-0.263 -0.05,-0.315 -0.11,-0.315 -0.1,-0.341 -0.19,-0.341 -0.23,-0.342 -0.29,-0.367 -0.21,-0.2363 -0.32,-0.2625 -0.18,-0.1313 -0.18,-0.1312 -0.21,-0.1313 -0.26,-0.1312 -0.26,-0.105 -0.27,-0.105 -0.31,-0.105 -0.34,-0.0788 -0.37,-0.0788 -0.36,-0.0525 -0.42,-0.0262 -0.45,-0.0263 -0.34,0 -0.34,0.0263 -0.31,0.0262 -0.32,0.0525 -0.31,0.0788 -0.29,0.0525 -0.29,0.105 -0.26,0.0788 -0.26,0.1312 -0.24,0.105 -0.23,0.1575 -0.24,0.1313 -0.21,0.1575 -0.18,0.1837 -0.21,0.1838 -0.16,0.1838 -0.18,0.2095 -0.16,0.21 -0.13,0.237 -0.16,0.236 -0.1,0.236 -0.13,0.263 -0.08,0.262 -0.11,0.289 -0.15,0.578 -0.11,0.63 -0.05,0.682 -0.03,0.683 0,0.446 0.03,0.42 0.03,0.42 0.05,0.42 0.08,0.394 0.08,0.393 0.1,0.368 0.1,0.368 0.16,0.367 0.16,0.315 0.21,0.341 0.21,0.315 0.26,0.289 0.26,0.289 0.32,0.262 0.34,0.263 0.21,0.131 0.23,0.131 0.21,0.132 0.24,0.078 0.47,0.158 0.44,0.131 0.42,0.053 0.39,0.052 0.37,0.026 0.29,0 0.5,-0.026 0.44,-0.026 0.42,-0.079 0.42,-0.079 0.37,-0.105 0.34,-0.157 0.31,-0.131 0.29,-0.184 0.26,-0.184 0.26,-0.21 0.21,-0.21 0.21,-0.236 0.19,-0.236 0.15,-0.263 0.16,-0.236 0.1,-0.289 0.14,-0.262 0.07,-0.289 0.11,-0.263 0.05,-0.289 0.11,-0.551 0.07,-0.551 0.03,-0.551 0.03,-0.499 0,-0.446 -0.03,-0.394 -8.64,0 z m 6.36,1.575 -0.02,0.499 -0.06,0.551 -0.05,0.289 -0.08,0.288 -0.1,0.289 -0.13,0.289 -0.16,0.289 -0.21,0.236 -0.23,0.236 -0.29,0.21 -0.16,0.079 -0.18,0.079 -0.19,0.052 -0.18,0.053 -0.24,0.052 -0.21,0.027 -0.23,0.026 -0.26,0.026 -0.26,-0.026 -0.29,-0.026 -0.29,-0.053 -0.29,-0.079 -0.26,-0.105 -0.29,-0.157 -0.23,-0.158 -0.27,-0.183 -0.21,-0.237 -0.21,-0.236 -0.18,-0.289 -0.18,-0.341 -0.13,-0.368 -0.08,-0.393 -0.08,-0.447 -0.03,-0.472 6.26,0 z" /><path
               id="path4456"
               style="fill:#003f5d;fill-opacity:1;fill-rule:evenodd;stroke:none"
               d="m 222.33,18.115 0,0.604 -0.03,0.63 -0.03,0.604 -0.05,0.603 2.28,0 0.02,-2.336 0.11,0.315 0.1,0.263 0.14,0.262 0.15,0.236 0.16,0.184 0.18,0.184 0.19,0.184 0.21,0.131 0.21,0.131 0.2,0.131 0.21,0.079 0.21,0.079 0.42,0.131 0.4,0.079 0.47,0.052 0.42,0 0.36,0 0.32,0 0,-2.231 -0.21,0.079 -0.24,0.026 -0.29,0.026 -0.36,0 -0.47,-0.026 -0.42,-0.052 -0.4,-0.079 -0.34,-0.131 -0.31,-0.132 -0.26,-0.183 -0.24,-0.21 -0.18,-0.237 -0.19,-0.262 -0.13,-0.263 -0.1,-0.315 -0.11,-0.315 -0.05,-0.341 -0.05,-0.341 -0.03,-0.394 0,-0.368 0,-6.4048 -2.27,0 0,9.6078 z" /><path
               id="path4458"
               style="fill:#003f5d;fill-opacity:1;fill-rule:evenodd;stroke:none"
               d="m 236.02,12.077 0,-0.183 0.03,-0.158 0.02,-0.184 0.06,-0.21 0.05,-0.183 0.1,-0.158 0.11,-0.184 0.13,-0.184 0.16,-0.131 0.18,-0.157 0.21,-0.132 0.26,-0.105 0.29,-0.078 0.31,-0.079 0.34,-0.0525 0.4,0 0.34,0 0.31,0.0262 0.29,0.0525 0.29,0.0788 0.23,0.105 0.24,0.131 0.21,0.158 0.18,0.21 0.16,0.262 0.13,0.263 0.08,0.315 0.02,0.289 -0.02,0.21 -0.03,0.183 -0.05,0.184 -0.05,0.158 -0.11,0.131 -0.1,0.105 -0.13,0.131 -0.16,0.079 -0.37,0.184 -0.44,0.157 -0.55,0.131 -0.63,0.158 -0.92,0.21 -0.86,0.236 -0.39,0.131 -0.4,0.132 -0.34,0.183 -0.34,0.184 -0.29,0.184 -0.28,0.236 -0.24,0.263 -0.18,0.288 -0.08,0.158 -0.08,0.157 -0.08,0.184 -0.05,0.184 -0.05,0.42 -0.03,0.446 0.03,0.394 0.05,0.394 0.1,0.367 0.16,0.342 0.18,0.315 0.24,0.315 0.24,0.262 0.31,0.263 0.31,0.21 0.37,0.21 0.37,0.183 0.42,0.132 0.44,0.105 0.47,0.078 0.5,0.053 0.5,0.026 0.6,-0.026 0.6,-0.079 0.32,-0.052 0.31,-0.053 0.31,-0.079 0.32,-0.105 0.29,-0.131 0.29,-0.131 0.28,-0.158 0.24,-0.157 0.23,-0.21 0.21,-0.21 0.19,-0.236 0.15,-0.237 0.08,-0.262 0.08,-0.236 0.08,-0.237 0.03,-0.21 0.02,-0.42 0,-0.394 -2.28,0 -0.02,0.316 -0.03,0.288 -0.08,0.237 -0.1,0.236 -0.11,0.184 -0.15,0.157 -0.16,0.131 -0.18,0.105 -0.19,0.105 -0.21,0.053 -0.18,0.052 -0.21,0.053 -0.37,0.026 -0.34,0.026 -0.21,0 -0.31,-0.026 -0.39,-0.079 -0.42,-0.105 -0.24,-0.105 -0.18,-0.105 -0.18,-0.157 -0.19,-0.158 -0.13,-0.21 -0.1,-0.21 -0.06,-0.262 -0.02,-0.315 0,-0.21 0.05,-0.158 0.05,-0.184 0.06,-0.131 0.1,-0.131 0.1,-0.105 0.11,-0.105 0.13,-0.105 0.29,-0.131 0.26,-0.132 0.29,-0.078 0.26,-0.079 1.13,-0.263 0.91,-0.236 0.74,-0.184 0.57,-0.183 0.45,-0.158 0.36,-0.184 0.32,-0.21 0.29,-0.236 0.21,-0.236 0.21,-0.263 0.15,-0.262 0.13,-0.289 0.08,-0.289 0.05,-0.288 0.06,-0.315 0,-0.289 0,-0.236 -0.03,-0.263 -0.05,-0.236 -0.05,-0.21 -0.06,-0.237 -0.07,-0.21 -0.11,-0.21 -0.1,-0.21 -0.14,-0.183 -0.1,-0.184 -0.13,-0.1838 -0.16,-0.1575 -0.16,-0.1575 -0.13,-0.1313 -0.18,-0.1312 -0.16,-0.105 -0.39,-0.21 -0.42,-0.1838 -0.44,-0.1575 -0.45,-0.105 -0.47,-0.0788 -0.45,-0.0525 -0.47,-0.0262 -0.47,0 -0.47,0.0262 -0.44,0.0263 -0.42,0.0525 -0.45,0.105 -0.39,0.105 -0.39,0.1575 -0.37,0.1838 -0.34,0.21 -0.32,0.2625 -0.28,0.2625 -0.11,0.1575 -0.13,0.1838 -0.1,0.1575 -0.11,0.184 -0.08,0.21 -0.08,0.183 -0.07,0.21 -0.06,0.237 -0.02,0.236 -0.03,0.236 -0.03,0.263 0,0.262 2.36,0 z" /><path
               id="path4460"
               style="fill:#003f5d;fill-opacity:1;fill-rule:evenodd;stroke:none"
               d="m 249.22,25.78 2.7,0 0,-2.467 -2.7,0 0,2.467 z m 0.24,-5.224 2.25,0 0,-12.0488 -2.25,0 0,12.0488 z" /><path
               id="path4462"
               style="fill:#003f5d;fill-opacity:1;fill-rule:evenodd;stroke:none"
               d="m 265.67,16.697 -0.03,0.263 -0.05,0.367 -0.06,0.184 -0.07,0.21 -0.08,0.21 -0.11,0.237 -0.13,0.183 -0.16,0.21 -0.21,0.184 -0.2,0.158 -0.27,0.131 -0.31,0.079 -0.34,0.078 -0.37,0.027 -0.29,-0.027 -0.26,-0.026 -0.26,-0.052 -0.24,-0.053 -0.2,-0.105 -0.19,-0.079 -0.21,-0.131 -0.15,-0.105 -0.16,-0.157 -0.16,-0.132 -0.13,-0.157 -0.1,-0.184 -0.21,-0.341 -0.16,-0.394 -0.13,-0.368 -0.11,-0.393 -0.08,-0.394 -0.02,-0.341 -0.05,-0.657 0,-0.446 0,-0.472 0.02,-0.447 0.03,-0.446 0.08,-0.42 0.08,-0.42 0.1,-0.394 0.13,-0.367 0.16,-0.341 0.18,-0.342 0.21,-0.262 0.24,-0.263 0.28,-0.21 0.14,-0.079 0.18,-0.078 0.16,-0.079 0.18,-0.053 0.18,-0.052 0.21,-0.0263 0.21,-0.0262 0.21,0 0.34,0.0262 0.32,0.0263 0.28,0.079 0.27,0.105 0.23,0.131 0.21,0.157 0.18,0.158 0.19,0.184 0.13,0.184 0.13,0.21 0.1,0.236 0.08,0.21 0.06,0.236 0.05,0.21 0.02,0.236 0.03,0.237 2.28,0 -0.05,-0.447 -0.08,-0.42 -0.13,-0.42 -0.16,-0.394 -0.18,-0.367 -0.24,-0.368 -0.26,-0.3408 -0.29,-0.2888 -0.31,-0.2887 -0.37,-0.2625 -0.39,-0.21 -0.42,-0.1838 -0.45,-0.1575 -0.49,-0.105 -0.5,-0.0525 -0.55,-0.0263 -0.34,0 -0.45,0.0525 -0.5,0.0788 -0.52,0.1313 -0.26,0.0787 -0.29,0.105 -0.29,0.1313 -0.26,0.1575 -0.29,0.1575 -0.26,0.21 -0.26,0.21 -0.24,0.2363 -0.26,0.341 -0.26,0.394 -0.13,0.21 -0.11,0.236 -0.13,0.237 -0.1,0.288 -0.08,0.263 -0.11,0.315 -0.07,0.341 -0.06,0.341 -0.05,0.368 -0.05,0.394 0,0.446 -0.03,0.446 0.03,0.446 0.03,0.447 0.02,0.42 0.05,0.393 0.08,0.394 0.11,0.368 0.1,0.341 0.11,0.315 0.13,0.315 0.13,0.289 0.16,0.289 0.15,0.236 0.19,0.262 0.18,0.21 0.18,0.21 0.19,0.21 0.21,0.158 0.21,0.184 0.2,0.131 0.24,0.157 0.45,0.237 0.47,0.183 0.47,0.132 0.47,0.105 0.44,0.052 0.48,0.026 0.34,-0.026 0.42,-0.026 0.44,-0.079 0.52,-0.131 0.27,-0.079 0.23,-0.105 0.26,-0.131 0.27,-0.131 0.26,-0.158 0.23,-0.184 0.21,-0.21 0.24,-0.236 0.29,-0.394 0.23,-0.367 0.16,-0.368 0.13,-0.341 0.08,-0.341 0.05,-0.315 0.03,-0.289 0.02,-0.263 -2.27,0 z" /><path
               id="path4464"
               style="fill:#003f5d;fill-opacity:1;fill-rule:evenodd;stroke:none"
               d="m 272.32,25.807 2.28,0 0,-7.036 0.15,0.237 0.16,0.21 0.18,0.21 0.19,0.183 0.21,0.184 0.23,0.184 0.24,0.131 0.23,0.131 0.26,0.132 0.27,0.105 0.28,0.078 0.29,0.079 0.29,0.053 0.31,0.052 0.29,0.026 0.32,0 0.49,-0.026 0.53,-0.052 0.29,-0.079 0.26,-0.053 0.26,-0.105 0.29,-0.105 0.26,-0.105 0.24,-0.131 0.23,-0.157 0.24,-0.184 0.21,-0.21 0.18,-0.21 0.16,-0.236 0.15,-0.263 0.08,-0.184 0.08,-0.21 0.08,-0.236 0.05,-0.289 0.05,-0.367 0.03,-0.42 0.03,-0.499 0,-0.604 0,-7.5338 -2.31,0 0,7.1138 0,0.473 -0.02,0.525 -0.06,0.288 -0.05,0.289 -0.08,0.263 -0.1,0.289 -0.13,0.262 -0.19,0.236 -0.21,0.21 -0.23,0.21 -0.16,0.079 -0.16,0.079 -0.15,0.052 -0.19,0.053 -0.18,0.052 -0.21,0.027 -0.21,0.026 -0.23,0 -0.32,0 -0.29,-0.026 -0.26,-0.079 -0.26,-0.053 -0.21,-0.105 -0.21,-0.078 -0.21,-0.132 -0.18,-0.105 -0.32,-0.262 -0.23,-0.263 -0.21,-0.262 -0.13,-0.236 -0.13,-0.263 -0.11,-0.315 -0.05,-0.315 -0.05,-0.341 -0.05,-0.683 0,-0.63 0,-6.3788 -2.28,0 0,17.2998 z" /><path
               id="path4466"
               style="fill:#003f5d;fill-opacity:1;fill-rule:evenodd;stroke:none"
               d="m 291.04,14.125 0,-0.473 0.05,-0.446 0.06,-0.42 0.07,-0.394 0.11,-0.393 0.13,-0.342 0.18,-0.341 0.19,-0.315 0.23,-0.263 0.24,-0.236 0.29,-0.21 0.31,-0.184 0.37,-0.157 0.36,-0.0788 0.42,-0.0787 0.45,-0.0263 0.26,0.0263 0.26,0.0262 0.26,0.0263 0.24,0.0787 0.23,0.0783 0.24,0.105 0.21,0.132 0.18,0.131 0.19,0.157 0.15,0.184 0.16,0.21 0.13,0.237 0.11,0.236 0.08,0.262 0.07,0.315 0.06,0.289 2.25,0 -0.03,-0.236 -0.05,-0.263 -0.05,-0.315 -0.11,-0.315 -0.1,-0.341 -0.19,-0.341 -0.23,-0.342 -0.29,-0.367 -0.21,-0.2363 -0.31,-0.2625 -0.19,-0.1313 -0.18,-0.1312 -0.21,-0.1313 -0.26,-0.1312 -0.26,-0.105 -0.26,-0.105 -0.32,-0.105 -0.34,-0.0788 -0.37,-0.0788 -0.36,-0.0525 -0.42,-0.0262 -0.45,-0.0263 -0.34,0 -0.34,0.0263 -0.31,0.0262 -0.32,0.0525 -0.31,0.0788 -0.29,0.0525 -0.29,0.105 -0.26,0.0788 -0.26,0.1312 -0.24,0.105 -0.23,0.1575 -0.24,0.1313 -0.21,0.1575 -0.18,0.1837 -0.21,0.1838 -0.16,0.1838 -0.18,0.2095 -0.16,0.21 -0.13,0.237 -0.16,0.236 -0.1,0.236 -0.13,0.263 -0.08,0.262 -0.1,0.289 -0.16,0.578 -0.11,0.63 -0.05,0.682 -0.02,0.683 0,0.446 0.02,0.42 0.03,0.42 0.05,0.42 0.08,0.394 0.08,0.393 0.1,0.368 0.11,0.368 0.15,0.367 0.16,0.315 0.21,0.341 0.21,0.315 0.26,0.289 0.26,0.289 0.32,0.262 0.34,0.263 0.21,0.131 0.23,0.131 0.21,0.132 0.24,0.078 0.47,0.158 0.45,0.131 0.41,0.053 0.4,0.052 0.36,0.026 0.29,0 0.5,-0.026 0.44,-0.026 0.42,-0.079 0.42,-0.079 0.37,-0.105 0.34,-0.157 0.31,-0.131 0.29,-0.184 0.26,-0.184 0.27,-0.21 0.2,-0.21 0.21,-0.236 0.19,-0.236 0.15,-0.263 0.16,-0.236 0.11,-0.289 0.13,-0.262 0.08,-0.289 0.1,-0.263 0.05,-0.289 0.11,-0.551 0.08,-0.551 0.02,-0.551 0.03,-0.499 0,-0.446 -0.03,-0.394 -8.64,0 z m 6.36,1.575 -0.02,0.499 -0.05,0.551 -0.06,0.289 -0.07,0.288 -0.11,0.289 -0.13,0.289 -0.16,0.289 -0.21,0.236 -0.23,0.236 -0.29,0.21 -0.16,0.079 -0.18,0.079 -0.18,0.052 -0.21,0.053 -0.21,0.052 -0.21,0.027 -0.24,0.026 -0.26,0.026 -0.26,-0.026 -0.29,-0.026 -0.29,-0.053 -0.29,-0.079 -0.26,-0.105 -0.29,-0.157 -0.23,-0.158 -0.26,-0.183 -0.21,-0.237 -0.21,-0.236 -0.21,-0.289 -0.16,-0.341 -0.13,-0.368 -0.11,-0.393 -0.05,-0.447 -0.02,-0.472 6.25,0 z" /><path
               id="path4468"
               style="fill:#003f5d;fill-opacity:1;fill-rule:evenodd;stroke:none"
               d="m 305.84,18.115 0,0.604 -0.03,0.63 -0.03,0.604 -0.05,0.603 2.28,0 0.03,-2.336 0.1,0.315 0.11,0.263 0.13,0.262 0.15,0.236 0.16,0.184 0.18,0.184 0.19,0.184 0.21,0.131 0.21,0.131 0.21,0.131 0.21,0.079 0.21,0.079 0.41,0.131 0.4,0.079 0.47,0.052 0.42,0 0.36,0 0.32,0 0,-2.231 -0.21,0.079 -0.24,0.026 -0.28,0.026 -0.37,0 -0.47,-0.026 -0.42,-0.052 -0.39,-0.079 -0.34,-0.131 -0.32,-0.132 -0.26,-0.183 -0.24,-0.21 -0.18,-0.237 -0.18,-0.262 -0.13,-0.263 -0.11,-0.315 -0.1,-0.315 -0.06,-0.341 -0.05,-0.341 -0.02,-0.394 0,-0.368 0,-6.4048 -2.28,0 0,9.6078 z" /><path
               id="path4470"
               style="fill:#003f5d;fill-opacity:1;fill-rule:evenodd;stroke:none"
               d="m 319.82,20.556 0,-7.744 0.03,-0.472 0.05,-0.446 0.05,-0.237 0.08,-0.21 0.11,-0.21 0.1,-0.21 0.16,-0.184 0.18,-0.183 0.18,-0.132 0.27,-0.131 0.26,-0.105 0.34,-0.079 0.34,-0.052 0.42,-0.026 0.42,0.026 0.42,0.052 0.39,0.105 0.36,0.132 0.19,0.078 0.16,0.105 0.18,0.105 0.16,0.132 0.15,0.131 0.13,0.158 0.13,0.157 0.14,0.158 0.15,0.288 0.13,0.289 0.08,0.289 0.08,0.315 0.05,0.577 0,0.499 0,6.825 2.33,0 0,-9.791 0,-0.368 0.03,-0.6035 0.03,-0.6826 0.02,-0.6037 -2.35,0 -0.06,2.0738 -0.18,-0.341 -0.24,-0.3678 -0.13,-0.1837 -0.15,-0.1838 -0.19,-0.1838 -0.21,-0.1575 -0.23,-0.1575 -0.26,-0.1575 -0.29,-0.1312 -0.32,-0.105 -0.34,-0.105 -0.39,-0.0525 -0.42,-0.0525 -0.47,-0.0263 -0.55,0.0263 -0.5,0.0525 -0.47,0.105 -0.42,0.1312 -0.39,0.1575 -0.37,0.21 -0.31,0.21 -0.29,0.2625 -0.26,0.2888 -0.21,0.3153 -0.18,0.341 -0.16,0.341 -0.11,0.394 -0.07,0.394 -0.06,0.42 -0.02,0.446 0,8.085 2.3,0 z" /><path
               id="path4472"
               style="fill:#003f5d;fill-opacity:1;fill-rule:evenodd;stroke:none"
               d="m 335.19,19.165 -0.02,1.391 2.25,0 0.03,-1.942 0.13,0.236 0.21,0.315 0.13,0.184 0.15,0.184 0.16,0.183 0.21,0.184 0.24,0.158 0.28,0.183 0.29,0.158 0.34,0.131 0.37,0.105 0.39,0.079 0.47,0.052 0.47,0.027 0.24,0 0.26,-0.027 0.32,-0.026 0.34,-0.079 0.34,-0.078 0.36,-0.105 0.37,-0.158 0.37,-0.184 0.34,-0.236 0.34,-0.289 0.16,-0.157 0.13,-0.184 0.15,-0.184 0.13,-0.21 0.11,-0.21 0.1,-0.236 0.08,-0.236 0.08,-0.263 0.08,-0.288 0.03,-0.289 0.02,-0.342 0.03,-0.315 0,-8.1898 -2.31,0 0,7.6648 0,0.289 -0.02,0.289 -0.03,0.262 -0.08,0.263 -0.08,0.263 -0.1,0.236 -0.16,0.236 -0.18,0.21 -0.21,0.21 -0.26,0.158 -0.24,0.131 -0.29,0.131 -0.26,0.079 -0.29,0.052 -0.28,0.053 -0.29,0 -0.32,0 -0.28,-0.053 -0.29,-0.052 -0.29,-0.105 -0.26,-0.131 -0.26,-0.158 -0.27,-0.184 -0.21,-0.21 -0.21,-0.236 -0.18,-0.262 -0.18,-0.289 -0.13,-0.342 -0.11,-0.341 -0.08,-0.367 -0.05,-0.42 -0.02,-0.447 0,-6.9298 -2.26,0 0,10.6578 z" /><path
               id="path4474"
               style="fill:#003f5d;fill-opacity:1;fill-rule:evenodd;stroke:none"
               d="m 354.65,7.5621 0,-0.2362 0.05,-0.2363 0.06,-0.2363 0.05,-0.21 0.1,-0.21 0.11,-0.21 0.1,-0.1837 0.16,-0.1576 0.16,-0.1312 0.21,-0.1575 0.21,-0.105 0.26,-0.105 0.29,-0.0788 0.31,-0.0525 0.34,-0.0262 0.39,0 0.26,0 0.29,0.0262 0.24,0.0263 0.23,0.0525 0.24,0.0525 0.18,0.0525 0.19,0.105 0.18,0.0787 0.16,0.105 0.15,0.1313 0.13,0.105 0.14,0.1575 0.1,0.1313 0.11,0.1575 0.07,0.1837 0.08,0.1838 0.13,0.3675 0.11,0.42 0.08,0.4725 0.05,0.4726 0.05,1.0762 0,1.1816 -0.18,-0.368 -0.24,-0.289 -0.23,-0.2883 -0.27,-0.21 -0.28,-0.21 -0.27,-0.1575 -0.31,-0.1313 -0.29,-0.1312 -0.29,-0.0788 -0.28,-0.0525 -0.27,-0.0525 -0.26,-0.0262 -0.44,-0.0525 -0.34,0 -0.42,0.0262 -0.47,0.0263 -0.5,0.0787 -0.47,0.1575 -0.26,0.0788 -0.24,0.105 -0.24,0.1312 -0.23,0.1313 -0.24,0.1575 -0.21,0.1838 -0.21,0.1837 -0.21,0.2358 -0.18,0.237 -0.16,0.236 -0.15,0.236 -0.13,0.263 -0.13,0.262 -0.11,0.289 -0.1,0.263 -0.08,0.288 -0.16,0.578 -0.08,0.577 -0.05,0.604 -0.03,0.604 0.03,0.367 0,0.368 0.05,0.367 0.05,0.315 0.06,0.342 0.07,0.315 0.08,0.315 0.08,0.288 0.11,0.263 0.13,0.263 0.13,0.262 0.13,0.236 0.16,0.237 0.15,0.236 0.16,0.184 0.18,0.21 0.19,0.183 0.21,0.158 0.18,0.157 0.21,0.158 0.24,0.131 0.2,0.131 0.24,0.105 0.24,0.105 0.49,0.158 0.5,0.131 0.53,0.053 0.54,0.026 0.45,0 0.39,-0.053 0.37,-0.052 0.34,-0.079 0.31,-0.105 0.29,-0.105 0.24,-0.131 0.23,-0.158 0.21,-0.131 0.19,-0.157 0.18,-0.158 0.13,-0.131 0.26,-0.289 0.21,-0.262 0.03,1.653 2.17,0 -0.05,-2.178 -0.03,-7.535 0,-1.0233 -0.02,-0.8663 -0.03,-0.735 -0.05,-0.63 -0.08,-0.5251 -0.1,-0.4725 L 362.45,6.1971 362.3,5.8296 362.09,5.4883 361.88,5.1995 361.62,4.937 361.33,4.7008 361.04,4.4907 360.7,4.307 360.39,4.1757 360.05,4.0445 359.7,3.9395 359.34,3.8607 359,3.782 358.63,3.7557 357.95,3.7032 357.3,3.677 l -0.45,0 -0.39,0.0262 -0.4,0.0263 -0.36,0.0525 -0.34,0.0525 -0.32,0.0525 -0.28,0.0787 -0.27,0.0788 -0.26,0.105 -0.21,0.105 -0.21,0.105 -0.21,0.1312 -0.15,0.105 -0.19,0.1313 -0.13,0.1313 -0.13,0.1575 -0.21,0.2887 -0.18,0.315 -0.13,0.3151 -0.08,0.3412 -0.05,0.315 -0.06,0.3413 -0.02,0.315 -0.03,0.315 2.41,0 z m 5.24,4.0429 0.16,0.236 0.15,0.263 0.16,0.288 0.1,0.342 0.11,0.446 0.08,0.499 0.02,0.63 0.03,0.761 -0.03,0.525 -0.02,0.472 -0.08,0.447 -0.11,0.367 -0.13,0.341 -0.18,0.316 -0.18,0.262 -0.21,0.263 -0.24,0.236 -0.26,0.184 -0.31,0.183 -0.32,0.158 -0.34,0.131 -0.37,0.079 -0.36,0.052 -0.4,0.027 -0.23,0 -0.26,-0.027 -0.24,-0.052 -0.21,-0.053 -0.21,-0.052 -0.18,-0.105 -0.18,-0.079 -0.19,-0.105 -0.15,-0.105 -0.14,-0.131 -0.15,-0.131 -0.11,-0.158 -0.23,-0.315 -0.19,-0.315 -0.15,-0.368 -0.13,-0.341 -0.08,-0.367 -0.08,-0.368 -0.05,-0.367 -0.03,-0.342 -0.03,-0.341 0,-0.289 0,-0.367 0.03,-0.341 0.05,-0.368 0.05,-0.367 0.08,-0.368 0.11,-0.367 0.13,-0.342 0.18,-0.315 0.19,-0.315 0.23,-0.288 0.26,-0.237 0.32,-0.21 0.18,-0.105 0.18,-0.079 0.19,-0.078 0.21,-0.053 0.21,-0.052 0.21,-0.027 0.26,-0.026 0.23,0 0.47,0.026 0.42,0.053 0.4,0.105 0.34,0.157 0.28,0.158 0.27,0.21 0.26,0.236 0.21,0.263 z" /><path
               id="path4476"
               style="fill:#003f5d;fill-opacity:1;fill-rule:evenodd;stroke:none"
               d="m 384.37,25.833 2.57,0 6.99,-17.3258 -2.62,0 -1.86,4.5148 -8.01,0 -1.89,-4.5148 -2.46,0 7.28,17.3258 z m -2.17,-10.868 6.55,0 -3.2,8.505 -3.35,-8.505 z" /><path
               id="path4478"
               style="fill:#003f5d;fill-opacity:1;fill-rule:evenodd;stroke:none"
               d="m 408.31,21.501 -0.05,0.315 -0.08,0.263 -0.11,0.289 -0.13,0.236 -0.18,0.262 -0.18,0.21 -0.19,0.21 -0.23,0.184 -0.27,0.184 -0.28,0.131 -0.29,0.132 -0.34,0.105 -0.34,0.078 -0.4,0.079 -0.39,0.026 -0.44,0.027 -0.58,-0.027 -0.58,-0.052 -0.55,-0.131 -0.49,-0.132 -0.26,-0.105 -0.24,-0.105 -0.21,-0.131 -0.21,-0.131 -0.21,-0.132 -0.21,-0.157 -0.18,-0.184 -0.19,-0.184 -0.26,-0.315 -0.23,-0.341 -0.24,-0.341 -0.18,-0.341 -0.16,-0.368 -0.16,-0.367 -0.13,-0.368 -0.1,-0.367 -0.11,-0.368 -0.08,-0.367 -0.05,-0.342 -0.05,-0.367 -0.05,-0.683 -0.03,-0.63 0.03,-0.604 0.05,-0.656 0.08,-0.709 0.16,-0.735 0.1,-0.367 0.11,-0.368 0.13,-0.367 0.13,-0.368 0.18,-0.341 0.18,-0.341 0.21,-0.289 0.21,-0.315 0.24,-0.236 0.21,-0.21 0.26,-0.184 0.26,-0.184 0.26,-0.157 0.27,-0.132 0.28,-0.131 0.32,-0.105 0.29,-0.079 0.31,-0.078 0.31,-0.079 0.32,-0.026 0.63,-0.079 0.65,-0.026 0.71,0.026 0.63,0.052 0.57,0.053 0.5,0.105 0.81,0.157 0.53,0.158 0,5.145 -3.93,0 0,1.995 6.34,0 0,-8.5576 -0.45,-0.1312 -0.52,-0.1575 -0.66,-0.1838 -0.73,-0.1575 -0.81,-0.1575 -0.92,-0.1313 -0.5,-0.0525 -0.49,-0.0525 -0.53,0 -0.55,-0.0262 -0.57,0.0262 -0.55,0.0263 -0.53,0.0525 -0.5,0.0525 -0.47,0.105 -0.44,0.105 -0.42,0.105 -0.39,0.1575 -0.37,0.1313 -0.34,0.1837 -0.34,0.1575 -0.32,0.21 -0.28,0.1838 -0.27,0.21 -0.26,0.2363 -0.23,0.236 -0.29,0.315 -0.29,0.342 -0.26,0.367 -0.26,0.368 -0.21,0.393 -0.19,0.394 -0.18,0.42 -0.16,0.42 -0.13,0.42 -0.13,0.446 -0.1,0.447 -0.08,0.446 -0.05,0.446 -0.06,0.446 -0.02,0.473 0,0.446 0,0.341 0.02,0.421 0.03,0.42 0.05,0.498 0.11,0.499 0.1,0.525 0.13,0.551 0.19,0.578 0.21,0.551 0.26,0.578 0.29,0.551 0.36,0.551 0.19,0.289 0.21,0.262 0.23,0.237 0.24,0.262 0.23,0.237 0.26,0.236 0.29,0.21 0.32,0.21 0.31,0.21 0.34,0.184 0.34,0.157 0.34,0.131 0.34,0.132 0.37,0.078 0.34,0.105 0.34,0.053 0.63,0.105 0.57,0.052 0.5,0.027 0.37,0 0.55,0 0.6,-0.053 0.32,-0.026 0.31,-0.053 0.34,-0.078 0.34,-0.079 0.34,-0.105 0.34,-0.131 0.34,-0.158 0.34,-0.157 0.32,-0.21 0.34,-0.237 0.31,-0.262 0.32,-0.289 0.18,-0.21 0.16,-0.21 0.15,-0.184 0.11,-0.21 0.21,-0.367 0.13,-0.368 0.1,-0.341 0.06,-0.315 0.02,-0.289 0.03,-0.289 -2.62,0 z" /></g></g></g></g></g></svg>