<?xml version="1.0" encoding="utf-8"?>
<!-- Generator: Adobe Illustrator 23.0.4, SVG Export Plug-In . SVG Version: 6.00 Build 0)  -->
<svg version="1.1" id="svg3268" xmlns:svg="http://www.w3.org/2000/svg"
	 xmlns="http://www.w3.org/2000/svg" xmlns:xlink="http://www.w3.org/1999/xlink" x="0px" y="0px" viewBox="0 0 1024 488"
	 style="enable-background:new 0 0 1024 488;" xml:space="preserve">
<style type="text/css">
	.st0{fill:#1A171B;stroke:#231F20;stroke-width:8.250000e-02;stroke-miterlimit:3.864;}
	.st1{fill-rule:evenodd;clip-rule:evenodd;fill:#1A171B;stroke:#231F20;stroke-width:8.250000e-02;stroke-miterlimit:3.864;}
	.st2{fill-rule:evenodd;clip-rule:evenodd;fill:#1A171B;}
	.st3{fill:#1A171B;}
	.st4{fill:#FDCC00;}
</style>
<path class="st0" d="M820.5,353.4c-10.7-4.2-16.2-4.8-26.2-4.8c-12,0-25.3,5.7-25.1,17.7c0.2,12.4,14.1,16.7,19.2,17.3
	c7.5,0.8,7.6,9.7-3.3,7c-6.1-1.5-8.8-5.4-10.8-7.6l-7.2,15.9c10.4,4.4,16.1,6,28.8,6.5c13.2,0.6,26.2-5.9,26.4-18.7
	c0.1-6.2-5.4-13.4-13.7-15.9c-4.9-1.5-12.4-2.2-11.1-6.5c0.7-2.5,7.5-4.1,16.3,3.6C813.8,367.8,820.4,353.5,820.5,353.4L820.5,353.4
	z"/>
<path class="st1" d="M697.4,375.8c-3,2.8-9.3,2-9.3-4.4c0-5.5,4.5-6.5,9.3-5.5C697.4,365.8,697.6,375.6,697.4,375.8l-0.5,12.4
	c-1.1,0.5-5.6,2.8-12.7,2.4c-11.4-0.5-19.9-7.5-19.9-20c0-11.6,4.8-21.2,26.7-21.2c12.5,0,22.2,0,34.5,0c0,22,0,30.1,0,44.9
	c0,26.9-34.9,31.1-61.2,16.6v-25.2c12.9,13.3,33.5,11.6,32.6,2.4L697.4,375.8L697.4,375.8z"/>
<path class="st0" d="M734.3,403.9h27.8c0-14.6,0-54.5,0-54.5c-8.8,4.2-18.2,4.8-27.8,0C734.3,349.4,734.3,386.9,734.3,403.9z"/>
<path class="st0" d="M739.5,339.2c0-4.5,3.6-8.1,8.1-8.1s8.1,3.6,8.1,8.1s-3.6,8.1-8.1,8.1S739.5,343.7,739.5,339.2z"/>
<path id="path3336" class="st0" d="M605.3,349.4h27.9c0,4,0,10,0,9.9c9.6-17.9,27.6-10.7,28.1,2.9c0.4,9.1-9.7,19.8-23.9,8.8
	c-3.9,3.2-4.2,9.2-4.2,14.3c0,7.7,0,10.8,0,18.6h-27.9L605.3,349.4L605.3,349.4z"/>
<path class="st0" d="M295,336.8h27.8v67H295V336.8z"/>
<path class="st0" d="M250,336.8h-27.8v67H250c0,0-0.1-26.5,0-26.5c3.4,0.5,10.5,5.6,10.3,26.5c0,0.1,27.6,0,27.6,0
	c1.4-16.6-3.5-25.7-11-32.1c6-3.3,11.6-11.7,11-22.4h-28.5c0.1,9.4-5,16.4-9.5,17.8C249.8,367.2,250,341.5,250,336.8L250,336.8z"/>
<path class="st0" d="M215.8,376.9c0,0,0.1-23.9,0-23.9c-24.9-10-52.1,1.9-51.6,24.8c0.6,31.2,39,31.5,51.7,24.4c0,0,0.1-23.1,0-23
	c-4.9,2.1-23.5,5.3-23.1-1.6C193.1,370.1,211.2,374.5,215.8,376.9L215.8,376.9z"/>
<path class="st1" d="M129.6,371.5h12.5c0.2-4.2-2.5-7.5-6.1-7.4C132.3,364.2,129.5,366.8,129.6,371.5l1.8,9.4
	c1.8,10.3,20,11.6,28,2.4v9.8c-14,21.3-57.9,15.5-57.7-16c0.1-16.8,13.1-26.9,27.5-27.6c15-0.8,31,9.2,30.1,31.4
	c0,0-27.9-0.1-27.9,0L129.6,371.5z"/>
<path class="st0" d="M14,336.8h30.2l11.2,13.9l11.7-13.9h29.8v67H67.1v-33.2l-11.7,12.3l-11.2-12.3v33.2H14V336.8L14,336.8z"/>
<path class="st0" d="M419.7,349.4h-28.6v54.5H419c0-4.7,0-36.8,0-36.8c4.3-3.1,9.9-0.9,9.9,4.2c0,8.3,0,32.5,0,32.5
	c10.2,0,26.2,0.1,26.2,0c0,0-0.2-27-0.1-38.6c0.2-15.4-22-22.3-35.8-9.8C419.2,355.5,419.8,349.4,419.7,349.4L419.7,349.4z"/>
<path class="st0" d="M568.4,403.9H597v-54.5h-27.9c0,4.7,0,36.8,0,36.8c-4.3,3.1-9.9,0.9-9.9-4.2c0-8.3,0-32.5,0-32.5
	c-10.2,0-26.2-0.1-26.2,0c0,0,0.2,27,0.1,38.6c-0.2,15.4,22,22.3,35.8,9.8C568.9,397.8,568.3,403.9,568.4,403.9L568.4,403.9z"/>
<path class="st1" d="M355.1,370.7h12.5c0.2-4.2-2.5-7.5-6.1-7.4C357.8,363.3,354.9,366,355.1,370.7l1.8,9.4c1.8,10.3,20,11.6,28,2.4
	v9.8c-14,21.3-57.9,15.5-57.7-16c0.1-16.8,13.1-26.9,27.6-27.6c15-0.8,31,9.2,30.1,31.4c0,0-27.9-0.1-27.9,0L355.1,370.7z"/>
<path class="st1" d="M490.3,372.1c6.3-3,10.5-0.2,10.5,5.2c0,5.3-4.8,6.6-10.5,5.4C490.1,382.7,490.3,372.1,490.3,372.1V351
	c19.4-6.3,37,4.9,37.2,24.6c0.2,20.6-19.3,28.4-28.9,28.4c-10.7,0-35.2,0-35.2,0c0-5.6,0-52.2,0-67h26.9V372.1z"/>
<path class="st0" d="M911.6,336.8h-28.2v67h27.9c0-4.7,0-36.8,0-36.8c4.3-3.1,9.9-0.9,9.9,4.2c0,8.3,0,32.5,0,32.5
	c10.2,0,26.2,0.1,26.2,0c0,0,0-27,0-38.6c0-15.4-22.1-22.3-35.8-9.8L911.6,336.8L911.6,336.8L911.6,336.8z"/>
<path class="st1" d="M980.5,369.6H993c0-4.2-2.5-7.5-6.1-7.4C983.2,362.3,980.4,364.9,980.5,369.6l1.8,9.4c1.8,10.3,20,11.6,28,2.3
	v9.8c-14,21.3-57.9,15.5-57.7-16c0-16.8,13.1-26.9,27.6-27.6c15-0.8,31,9.2,30.1,31.4c0,0-27.9-0.1-27.9,0L980.5,369.6z"/>
<path class="st0" d="M877.7,376.1v-23.9c-24.9-10-52.1,1.9-51.7,24.8c0.6,31.2,39,31.5,51.7,24.4c0,0,0-23.1,0-23
	c-4.9,2.1-23.5,5.3-23.1-1.6C855.1,369.2,873,373.6,877.7,376.1z"/>
<path id="path3364" class="st2" d="M512.5,268.8l-18.9-23.2v61h-56.7V176h56.7l18.9,27.5l18.9-27.5h56.7v130.7h-56.7v-60.2
	L512.5,268.8"/>
<path id="path3378" class="st3" d="M570,169.1h18.1v-46.4H570V169.1z M547.9,169.1h18V88.3h-18V169.1z M525.7,169.1h18.1V53.9h-18.1
	V169.1z M503.5,169.1h18V19.5h-18V169.1z M481.3,169.1h18.1V53.9h-18.1V169.1z M459.1,169.1h18.1V88.3h-18.1V169.1z M436.9,169.1
	H455v-46.4h-18.1V169.1z"/>
<path id="path3416" class="st3" d="M1010.3,467.7v-4H1000v-7.3h8.5v-4.1h-8.5V446h9.4v-4h-15.9v25.8L1010.3,467.7 M946.4,458.4
	c7,0,13.1,0.9,13.4-8.4l-0.5-3.1l-0.9-2.1l-1.5-1.6l-1.6-0.7l-1.7-0.4l-3.5-0.2h-10.6v25.8h6.7v-9.4L946.4,458.4z M946.4,454.9v-9.6
	h2.2l2.3,0.3l1,0.6l0.8,1l0.5,2.7C953.3,455.2,951,455,946.4,454.9 M892.9,458.4c7,0,13.2,0.9,13.4-8.4l-0.5-3.1l-0.9-2.1l-1.5-1.6
	l-1.6-0.7l-1.7-0.4l-3.4-0.2h-10.6v25.8h6.6v-9.4L892.9,458.4z M892.9,454.9v-9.6h2.2l2.3,0.3l1,0.6l0.9,1l0.5,2.7
	C899.3,455.2,897.4,455,892.9,454.9 M850.6,441.9h-6.4v16.3l-0.4,3.5l-0.5,1.1l-0.8,0.9l-1.6,0.7l-1.1,0.2l-1.5-0.2l-1-0.5l-1.1-1.4
	l-0.4-4.1V442h-6.6v16.5l0.1,3.2l0.3,1.5l0.8,1.5l1.9,2l2.1,1.1l2.3,0.6l3,0.1l3-0.1l2.4-0.6l1.9-0.8l1.4-1.1l1.2-1.7l0.7-1.8
	l0.4-2.6v-2.1L850.6,441.9 M795.9,467.7c-3-3.1-0.7-11.9-7.1-12.7c3.6-0.5,5.3-2.9,5.3-6.4l-0.5-3l-1.2-1.8l-1.9-1.3l-3.4-0.7h-13.4
	v25.8h6.5v-10.9h1.9l1.1,0.1l1.7,0.6l1.3,1.6l0.8,2.9l0.2,1.1l1,3.7l0.7,0.8L795.9,467.7L795.9,467.7z M780.3,453.5v-8.1
	c3.7,0.2,6.9-0.8,7.2,3.9C787.3,454.3,784,453.3,780.3,453.5 M738.6,467.7V454h-10.3v3.6h4.2c1.5,9.2-8.8,9.6-9.4,2.1l-0.3-4.3
	l0.2-3.4l0.5-3.4l1.1-2.3l0.9-0.8c3.9-2.1,6.7,0.1,6.7,4.5h6.3c0.1-6.3-4.3-9-10.4-8.8c-5.8-0.2-10.6,2.5-11.7,8.5
	c-0.5,5.6-1.7,14,4.3,17.4c3.4,1.7,9,1.8,11.8-1.4v1.9L738.6,467.7 M682,448.9c0.5-7.6-6.7-7.9-12.3-7.3l-2.3,0.7l-1.8,0.9l-1.2,1.2
	l-1,1.7l-0.5,3l0.3,2.4l0.7,1.5l1.6,1.5l1.9,1.2l3.3,1.1l1.5,0.5l2.1,0.8l1.4,0.8l0.5,0.8l0.3,1.4l-0.4,1.6l-0.6,1l-1.1,0.8
	l-1.8,0.2l-2.1-0.4l-1.1-0.8l-0.6-1.1l-0.4-2.6l-6.3-0.1c-0.7,13.7,27.1,10,19.3-4.2L680,454l-2.1-1.2l-2.6-1l-1.9-0.6l-2-0.8
	l-1.8-1.3l-0.4-1.5l0.5-1.8l1-0.8l2.1-0.5l1.5,0.2l1.3,0.9l0.6,1l0.2,1.9L682,448.9 M628.1,467.7V454h-10.3v3.6h4.2
	c1.5,9.2-8.8,9.6-9.4,2.1l-0.3-4.3l0.2-3.4l0.5-3.4l1.1-2.3l0.9-0.8c3.9-2.1,6.7,0.1,6.7,4.5h6.3c0.1-6.3-4.3-9-10.4-8.8
	c-5.8-0.2-10.6,2.5-11.7,8.5c-0.5,5.6-1.7,14,4.3,17.4c3.5,1.7,9,1.8,11.8-1.4v1.9L628.1,467.7 M570.9,467.7v-25.8h-5.7v13.2v4.8
	l-1-2.6l-1.2-2.6l-6.5-12.9H549v25.8h5.8l-0.2-14.5v-3.4l1.6,3.8l7.2,14.1h7.5 M513.3,441.9h-6.4v16.3l-0.4,3.5l-0.4,1.1l-0.8,0.9
	l-1.6,0.7l-1.1,0.2l-1.5-0.2l-1-0.5l-1.1-1.4l-0.4-4.1V442H492v16.5l0.1,3.2l0.3,1.5l0.8,1.5l1.9,2l2,1.1l2.3,0.6l3,0.1l3-0.1
	l2.4-0.6l1.9-0.8l1.4-1.1l1.2-1.7l0.7-1.8l0.4-2.6v-2.1L513.3,441.9 M458.7,467.7c-3-3.1-0.7-11.9-7.1-12.7c3.6-0.5,5.3-2.9,5.3-6.4
	l-0.5-3l-1.2-1.8l-1.9-1.3l-3.4-0.7h-13.4v25.8h6.5v-10.9h1.9l1.1,0.1l1.7,0.6l1.3,1.6l0.8,2.9l0.2,1.1l1,3.7l0.7,0.8L458.7,467.7
	L458.7,467.7z M443.1,453.5v-8.1c3.7,0.2,6.9-0.8,7.2,3.9C450,454.3,446.8,453.3,443.1,453.5 M402.7,467.7v-4h-10.4v-7.3h8.5v-4.1
	h-8.5V446h9.4v-4h-15.9v25.8L402.7,467.7 M349.9,467.7v-25.8h-6.6v10.2h-7.9v-10.2h-6.7v25.8h6.7v-11.6h7.9v11.6H349.9 M294.6,450.7
	c0.4-9.1-7.6-10.2-14.8-8.8c-8.6,2.2-7.9,11.3-7.4,18.3c0.8,6.1,5,8.2,10.7,8.3c6.2,0.2,11.6-2.5,11.8-9.3h-6.7
	c-0.1,8.4-10.4,8.4-9.2-3.5c-1.3-13.6,9.6-13.3,9.1-4.8L294.6,450.7 M230.8,467.7h6.7v-25.8h-6.7V467.7z M195.9,448.9
	c0.5-7.6-6.7-7.9-12.4-7.3l-2.3,0.7l-1.8,0.9l-1.2,1.2l-1,1.7l-0.5,3l0.3,2.4l0.7,1.5l1.6,1.5l1.9,1.2l3.3,1.1l1.5,0.5l2.1,0.8
	l1.4,0.8l0.5,0.8l0.3,1.4l-0.4,1.6l-0.6,1l-1.1,0.8l-1.8,0.2l-2.1-0.4l-1.1-0.8l-0.6-1.1l-0.4-2.6l-6.3-0.1
	c-0.7,13.7,27,10,19.3-4.2l-1.4-1.5l-2.1-1.2l-2.6-1l-1.9-0.6l-2-0.8l-1.8-1.3l-0.4-1.5l0.5-1.8l1-0.8l2.1-0.5l1.5,0.2l1.3,0.9
	l0.6,1l0.2,1.9L195.9,448.9 M143.9,467.7c-3-3.1-0.7-11.9-7.1-12.7c3.6-0.5,5.3-2.9,5.3-6.4l-0.5-3l-1.2-1.8l-1.9-1.3l-3.4-0.7
	h-13.4v25.8h6.5v-10.9h1.9l1.1,0.1l1.7,0.6l1.3,1.6l0.8,2.9l0.2,1.1l1,3.7l0.7,0.8L143.9,467.7L143.9,467.7z M128.3,453.5v-8.1
	c3.7,0.2,6.9-0.8,7.2,3.9C135.2,454.3,132,453.3,128.3,453.5 M87.9,467.7v-4H77.5v-7.3H86v-4.1h-8.5V446h9.4v-4h-16v25.8L87.9,467.7
	 M30.5,467.7l7.2-25.8h-6.5l-4,16.5l-0.5,1.9l-0.4,2.5l-0.5-2.6l-0.5-2l-4.1-16.4l-6.8,0.1l7.2,25.7L30.5,467.7"/>
<path id="path3362" class="st4" d="M441.2,181.1h49.9l21.5,30.1l23.2-30.9h48.1v121.2h-47.3l-0.9-64.5l-23.2,24.1l-23.2-26.6v67H442
	L441.2,181.1"/>
</svg>
