<?xml version="1.0" encoding="utf-8"?>
<!-- Generator: Adobe Illustrator 23.0.6, SVG Export Plug-In . SVG Version: 6.00 Build 0)  -->
<svg version="1.1" id="Wort-_x2F_Bildmarke" xmlns="http://www.w3.org/2000/svg" xmlns:xlink="http://www.w3.org/1999/xlink"
	 x="0px" y="0px" viewBox="0 0 400.6 95.7" style="enable-background:new 0 0 400.6 95.7;" xml:space="preserve">
<style type="text/css">
	.st0{fill:#013560;}
	.st1{fill:#023661;}
	.st2{fill:#023561;}
	.st3{fill:#013460;}
	.st4{fill:#013561;}
	.st5{fill:#033662;}
	.st6{fill:#043762;}
	.st7{fill:#003460;}
	.st8{fill:#033661;}
</style>
<g>
	<path class="st0" d="M52,0.5c1.3,0.2,2.6,0.5,3.9,0.7C74.9,4.3,90.4,19,94.3,37.9c3.4,16.6-0.9,31.1-12.6,43.3
		c-7.7,8-17.3,12.6-28.4,13.8c-1,0.1-2,0.3-3,0.4c-1.8,0-3.5,0-5.3,0c-0.2-0.1-0.4-0.2-0.6-0.2c-1.7-0.2-3.5-0.4-5.2-0.7
		c-19.5-3.5-35-19.3-38.2-38.8c-0.2-1.2-0.4-2.5-0.7-3.7c0-2.8,0-5.6,0-8.4c0.1-0.2,0.2-0.4,0.2-0.6c0.2-1.3,0.3-2.5,0.5-3.8
		C4.9,19.7,20.2,4.6,40,1.1c1.2-0.2,2.5-0.4,3.7-0.7C46.4,0.5,49.2,0.5,52,0.5z M68.6,78.7c2.6,0,5.1,0,7.7,0c0.8,0,1.3-0.2,1.9-0.8
		c10-10.4,14-22.8,11.8-37C87,21.5,69.9,6.2,50.2,5.3C37.5,4.8,26.6,9,17.6,18C4.4,31.2,1.5,51.8,10.5,68.3c0.4,0.7,0.8,1,1.7,1
		c11.5,0,23,0,34.6,0c0.9,0,1.6,0.3,2.3,0.8c3.4,2.7,6.7,5.4,10.1,8.1c0.4,0.3,1.1,0.6,1.6,0.6C63.3,78.8,66,78.7,68.6,78.7z"/>
	<path class="st1" d="M400.5,29.5c-0.1,0.1-0.2,0.2-0.3,0.4c-0.7,2.8-2.5,4.7-5.1,5.9c-0.7,0.3-0.8,0.6-0.4,1.2
		c1.6,2.9,3.2,5.9,4.8,8.8c0.2,0.3,0.3,0.6,0.4,0.8c0.3,0.8,0,1.3-0.8,1.3c-1.8,0-3.6,0.1-5.4,0c-0.4,0-0.8-0.5-1-0.9
		c-1.6-3.2-3.2-6.4-4.8-9.6c-0.2-0.3-0.4-0.8-0.7-0.8c-0.8-0.1-1.6,0-2.4,0c-0.1,0-0.1,0.6-0.1,0.9c0,3,0,6,0,9
		c0,1.4-0.1,1.5-1.5,1.5c-1.2,0-2.4,0-3.6,0c-1.5,0-1.6-0.1-1.6-1.6c0-7.6,0-15.1,0-22.7c0-1.3,0-2.6,0-3.8c0-0.8,0.3-1.3,1.2-1.3
		c4.4,0,8.7-0.1,13.1,0.1c4.1,0.2,7,2.8,8,6.9c0,0.1,0.2,0.2,0.2,0.3C400.5,27.1,400.5,28.3,400.5,29.5z M388.2,24.7
		c-0.9,0-1.8,0.1-2.6,0c-0.8-0.1-0.9,0.2-0.9,1c0.1,1.2,0,2.3,0,3.5c0,2.1,0,2.1,2,2.1c1.6,0,3.2,0.1,4.8-0.2
		c1.6-0.2,2.7-1.9,2.5-3.5c-0.2-1.7-1.4-2.8-3.1-2.8C390,24.7,389.1,24.7,388.2,24.7z"/>
	<path class="st2" d="M218.1,31.9c0,4.8,0,9.6,0,14.4c0,1.6-0.1,1.7-1.6,1.7c-1.3,0-2.6,0-3.8,0c-0.9,0-1.2-0.3-1.2-1.2
		c0-9.1,0-18.2,0-27.3c0-0.4,0.4-1.1,0.6-1.1c0.6,0,1.4,0.1,1.8,0.5c1.7,1.5,3.3,3.1,4.9,4.6c3.5,3.4,7.1,6.8,10.6,10.2
		c0.1,0.1,0.3,0.3,0.6,0.5c0-0.5,0.1-0.9,0.1-1.3c0-4.2,0-8.4,0-12.6c0-1.5,0.1-1.6,1.6-1.6c1.2,0,2.4,0,3.6,0
		c1.3,0,1.4,0.1,1.4,1.4c0,9,0,18.1,0,27.1c0,0.4-0.2,1-0.4,1.1c-0.5,0.1-1.1,0.1-1.6-0.1c-0.3-0.1-0.5-0.5-0.8-0.7
		c-4.9-4.9-9.8-9.9-14.7-14.8c-0.3-0.3-0.4-0.6-0.7-1C218.4,31.7,218.2,31.8,218.1,31.9z"/>
	<path class="st3" d="M125.7,31.6c0,5,0,9.8,0,14.5c0,1.8-0.1,1.8-1.8,1.8c-1.2,0-2.4,0-3.6,0c-0.9,0-1.3-0.3-1.3-1.3
		c0-9.1,0-18.2,0-27.2c0-0.4,0.3-1.1,0.6-1.1c0.6,0,1.4,0,1.9,0.4c1.2,1,2.3,2.1,3.4,3.2c4,3.8,7.9,7.7,11.9,11.5
		c0.2,0.2,0.5,0.4,0.9,0.7c0-1.9,0-3.5,0-5.2c0-3,0-5.9,0-8.9c0-1.3,0.2-1.4,1.5-1.4c1.3,0,2.6,0,4,0c0.8,0,1.2,0.3,1.2,1.2
		c0,9.1,0,18.2,0,27.4c0,1.1-0.9,1.6-2,1c-0.2-0.1-0.4-0.4-0.6-0.6c-5.1-5.1-10.2-10.3-15.3-15.4C126.2,32.1,126.1,31.9,125.7,31.6z
		"/>
	<path class="st2" d="M294.9,33.3c0-4.4,0-8.8,0-13.2c0-1.4,0.1-1.5,1.5-1.5c4.2,0,8.5-0.1,12.7,0.1c4.1,0.2,7.3,3.1,8.1,7
		c0.8,4.2-1,7.9-4.8,9.9c-1.1,0.6-1.1,0.6-0.5,1.7c1.6,2.9,3.1,5.8,4.7,8.7c0.8,1.5,0.5,1.9-1.2,1.9c-1.4,0-2.7-0.1-4.1,0
		c-1,0.1-1.4-0.3-1.8-1.2c-1.6-3.2-3.2-6.4-4.8-9.5c-0.2-0.3-0.5-0.7-0.7-0.8c-0.7-0.1-1.5,0-2.3,0.1c-0.1,0-0.2,0.6-0.2,0.9
		c0,3,0,5.9,0,8.9c0,1.5-0.1,1.6-1.6,1.7c-1.2,0-2.5,0-3.7,0c-1.1,0-1.3-0.2-1.3-1.3C294.9,42.2,294.9,37.8,294.9,33.3z M305.1,24.7
		c-0.9,0-1.8,0-2.8,0c-0.7,0-0.8,0.2-0.8,0.8c0,1,0,1.9,0,2.9c0,0.9-0.2,2.1,0.2,2.6c0.4,0.4,1.6,0.2,2.5,0.2c1.2,0,2.5,0.1,3.7-0.1
		c1.8-0.2,3-1.7,2.8-3.5c-0.2-1.7-1.4-2.8-3.2-2.9C306.8,24.7,306,24.7,305.1,24.7z"/>
	<path class="st2" d="M346.8,38.4c0,2,0,4,0,6c0,0.6-0.1,1.1-0.7,1.4c-5.7,2.8-11.5,3.8-17.3,0.7c-5.5-2.9-8.6-8.7-7.6-15.5
		c1-6.5,6-11.5,12.2-12.5c4.6-0.7,8.7,0.5,12.4,3.3c1.1,0.8,1.1,1.1,0.2,2.1c-0.8,0.9-1.7,1.8-2.5,2.7c-0.6,0.7-1.1,0.7-1.8,0.1
		c-3.2-2.4-7.2-2.4-10.3,0.1c-2.9,2.4-3.9,6.6-2.3,10c1.9,3.9,6.2,5.7,10.5,4.4c0.3-0.1,0.6-0.6,0.6-0.9c0.1-1,0-2,0-3
		c0-0.7-0.2-0.8-0.8-0.8c-2.6-0.1-2.6-0.1-2.6-2.8c0-2.9-0.2-2.5,2.6-2.5c2.1,0,4.2,0,6.2,0c1,0,1.3,0.4,1.3,1.3
		C346.8,34.4,346.8,36.4,346.8,38.4z"/>
	<path class="st0" d="M182.8,33.2c0-4.4,0-8.7,0-13.1c0-1.4,0.1-1.5,1.5-1.5c4.3,0,8.6-0.1,12.8,0.1c4,0.2,7.1,3,8,6.9
		c0.9,3.9-0.8,7.6-4.2,9.6c-0.3,0.2-0.5,0.4-0.8,0.4c-0.9,0.2-0.8,0.7-0.4,1.3c1.2,2.2,2.4,4.3,3.5,6.5c0.5,0.9,1,1.9,1.5,2.8
		c0.5,1,0.2,1.5-0.9,1.5c-1.5,0-3,0-4.6,0c-0.9,0-1.4-0.3-1.8-1.1c-1.5-3.2-3.2-6.4-4.8-9.5c-0.2-0.3-0.4-0.8-0.7-0.9
		c-0.8-0.1-1.6,0-2.4,0c-0.1,0-0.2,0.6-0.2,0.9c0,3,0,6,0,9c0,1.4-0.1,1.5-1.6,1.5c-1.2,0-2.4,0-3.6,0c-1.3,0-1.4-0.1-1.5-1.4
		C182.8,42.1,182.8,37.6,182.8,33.2z M193.1,24.7c-0.9,0-1.8,0-2.6,0c-0.8-0.1-1.1,0.2-1,1c0.1,1.2,0,2.4,0,3.6c0,1.9,0,1.9,2,1.9
		c1.6,0,3.2,0.1,4.8-0.1c1.7-0.2,2.7-1.8,2.5-3.6c-0.2-1.6-1.4-2.7-3.1-2.7C194.8,24.7,193.9,24.7,193.1,24.7z"/>
	<path class="st0" d="M258.8,33c0.6,0.3,1,0.4,1.4,0.7c5.5,2.7,4.7,9.3,1.2,12.1c-1.8,1.4-3.8,2.1-6.1,2.2c-3.4,0.1-6.8,0-10.2,0
		c-1.2,0-1.4-0.1-1.4-1.4c0-8.9,0-17.7,0-26.6c0-0.8,0.1-1.3,1.1-1.3c3.6,0,7.2,0,10.8,0.1c2.1,0.1,3.9,1,5.5,2.5
		c3.5,3.4,2.9,8.7-1.3,11.2C259.5,32.6,259.2,32.8,258.8,33z M250.3,38.9c0,0.8,0,1.6,0,2.4c0,0.2,0.4,0.6,0.6,0.6
		c1.2,0,2.5,0,3.7-0.1c1.7-0.2,2.5-1.3,2.5-2.9c0-1.6-1.1-2.8-2.8-2.9c-1.1-0.1-2.2,0-3.2,0c-0.7,0-0.9,0.3-0.8,0.9
		C250.4,37.6,250.3,38.2,250.3,38.9z M250.3,27.5C250.3,27.5,250.3,27.5,250.3,27.5c0.1,0.8,0,1.6,0.1,2.4c0,0.2,0.3,0.6,0.5,0.6
		c1.1,0,2.2,0.1,3.3,0c0.6-0.1,1.3-0.5,1.7-1c0.8-1,0.9-2.1,0.4-3.2c-0.5-1.1-1.4-1.5-2.6-1.5c-1,0.1-2.1,0.1-3.1,0.1
		C250.4,25.7,250.3,26.6,250.3,27.5z"/>
	<path class="st1" d="M151.3,28.7c0-2.9,0-5.8,0-8.6c0-1.3,0.1-1.4,1.4-1.4c1.3,0,2.6,0,4,0c1.2,0,1.4,0.2,1.4,1.4
		c0,5.4,0,10.8,0,16.2c0,2.1,0.4,3.9,2.4,4.8c2.3,1,4.7,1,6.8-0.5c1-0.7,1.5-1.8,1.6-3c0.1-1.9,0.1-3.8,0.1-5.6c0-3.9,0-7.8,0-11.6
		c0-1.6,0.1-1.7,1.7-1.7c1.2,0,2.5,0,3.7,0c1.1,0,1.4,0.2,1.4,1.3c0,5.8,0.1,11.6,0,17.4c-0.1,5.7-4.4,10.2-10,10.9
		c-3.1,0.4-6.2,0.1-8.9-1.5c-3.6-2.1-5.5-5.3-5.6-9.5C151.2,34.4,151.3,31.5,151.3,28.7z"/>
	<path class="st0" d="M353,33.2c0-4.4,0-8.8,0-13.2c0-1.3,0.1-1.4,1.4-1.4c5.4,0,10.7,0,16.1,0c1.3,0,1.4,0.2,1.5,1.4
		c0,1.1,0,2.2,0,3.2c0,1.4-0.1,1.5-1.6,1.5c-3.2,0-6.5,0-9.7,0c-0.9,0-1.2,0.2-1.1,1.1c0.1,1,0.1,2.1,0,3.1c0,0.8,0.2,0.9,1,0.9
		c2.6,0,5.3,0,7.9,0c1.4,0,1.5,0.1,1.5,1.5c0,1.1,0,2.2,0,3.4c0,1.2-0.2,1.4-1.4,1.4c-2.6,0-5.3,0-7.9,0c-0.8,0-1.2,0.1-1.1,1
		c0.1,1.2,0.1,2.4,0,3.6c-0.1,0.8,0.3,1,1,1c3.3,0,6.6,0,10,0c1.4,0,1.5,0.1,1.5,1.5c0,1.2,0,2.4,0,3.6c0,0.8-0.3,1.1-1.1,1.1
		c-5.6,0-11.2,0-16.8,0c-0.9,0-1.1-0.5-1.1-1.3C353,42.2,353,37.7,353,33.2z"/>
	<path class="st4" d="M269.9,33.2c0-4.4,0-8.7,0-13.1c0-1.5,0.1-1.6,1.6-1.6c5.3,0,10.6,0,15.8,0c1.4,0,1.5,0.1,1.5,1.6
		c0,1.1,0,2.2,0,3.2c0,1.2-0.2,1.4-1.4,1.4c-3.3,0-6.6,0-9.8,0c-0.9,0-1.3,0.2-1.2,1.2c0.1,1,0.1,1.9,0,2.9c-0.1,1,0.3,1.1,1.2,1.1
		c2.6-0.1,5.2,0,7.8,0c1.3,0,1.4,0.1,1.4,1.3c0,1.2,0,2.3,0,3.5c0,1.3-0.1,1.4-1.5,1.4c-2.6,0-5.1,0-7.7,0c-0.9,0-1.3,0.2-1.2,1.2
		c0.1,1.2,0.1,2.3,0,3.5c0,0.8,0.2,0.9,0.9,0.9c3.3,0,6.6,0,10,0c1.5,0,1.5,0.1,1.5,1.5c0,1.2,0,2.3,0,3.5c0,0.9-0.4,1.3-1.3,1.3
		c-5.4,0-10.9,0-16.3,0c-1.2,0-1.4-0.1-1.4-1.4C269.9,42.1,269.9,37.7,269.9,33.2z"/>
	<path class="st5" d="M295.6,71.6c0-3.1,0-6.2,0-9.3c0-0.9,0.2-1.2,1.1-1.2c2.6,0.1,2.2-0.3,2.2,2.1c0,4.8,0,9.6,0,14.4
		c0,0.4-0.1,1.1-0.3,1.3c-0.6,0.3-1.1-0.2-1.5-0.6c-2.9-3.3-5.9-6.5-8.8-9.8c-0.2-0.2-0.5-0.4-0.7-0.6c-0.1,0.3-0.2,0.6-0.2,1
		c0,2.9,0,5.8,0,8.8c0,0.9-0.3,1.2-1.2,1.2c-2.1,0-2.1,0-2.1-2.2c0-4.8,0-9.7,0-14.5c0-0.4,0.2-0.8,0.3-1.2c0.5,0.2,1,0.2,1.3,0.5
		c3.1,3.2,6.1,6.5,9.2,9.8c0.2,0.2,0.2,0.4,0.4,0.6C295.4,71.8,295.5,71.7,295.6,71.6z"/>
	<path class="st6" d="M159.3,61.2c1.1,0,2.2,0,3.4,0c2.4,0.1,4.4,1.7,5,3.9c0.6,2.3-0.3,4.7-2.5,6c-0.8,0.5-1,0.8-0.5,1.7
		c1,1.6,1.8,3.2,2.6,4.8c0.5,0.9,0.4,1.1-0.7,1.1c-2.5,0.1-2.5,0.1-3.6-2.2c-0.7-1.4-1.4-2.7-2-4.1c-0.3-0.5-2.6-0.9-2.9-0.4
		c-0.1,0.2-0.1,0.5-0.1,0.8c0,1.6,0,3.3,0,4.9c0,0.7-0.2,1-1,1c-2.9-0.1-2.3,0.4-2.3-2.3c0-4.7,0-9.4,0-14.2c0-0.9,0.2-1.2,1.1-1.2
		C157,61.2,158.2,61.2,159.3,61.2C159.3,61.2,159.3,61.2,159.3,61.2z M160.7,64.3c-0.6,0-1.3,0-1.9,0c-0.5,0-0.7,0.1-0.7,0.6
		c0,1.2,0,2.4,0,3.6c0,0.2,0.3,0.6,0.4,0.6c1.4,0,2.7,0.1,4.1-0.1c1.2-0.1,2.1-1.5,1.9-2.7c-0.1-1.3-1-2.1-2.4-2.1
		C161.7,64.3,161.2,64.3,160.7,64.3z"/>
	<path class="st6" d="M248.3,69.9c0-2.6,0-5.1,0-7.7c0-0.9,0.3-1.1,1.1-1.1c2.2,0,4.4,0,6.6,0c2.6,0.1,4.7,1.7,5.3,4
		c0.6,2.4-0.4,4.7-2.7,6.1c-0.7,0.4-0.7,0.7-0.3,1.3c0.9,1.7,1.8,3.4,2.7,5c0.5,1,0.4,1.1-0.7,1.2c-2.4,0.1-2.4,0.1-3.5-2.1
		c-0.7-1.3-1.3-2.6-2-4c-0.3-0.6-2.5-1.1-2.9-0.6c-0.2,0.2-0.2,0.5-0.2,0.8c0,1.6,0,3.3,0,4.9c0,0.8-0.2,1-1,1c-2.3,0-2.3,0-2.3-2.3
		C248.3,74.3,248.3,72.1,248.3,69.9z M254.3,64.3c-0.6,0-1.3,0-1.9,0c-0.5,0-0.7,0.1-0.7,0.7c0,1.2,0,2.4,0,3.6
		c0,0.2,0.3,0.6,0.5,0.6c1.3,0,2.6,0.1,4,0c1.2-0.1,2.2-1.5,2-2.7c-0.1-1.3-1-2.1-2.4-2.1C255.3,64.3,254.8,64.3,254.3,64.3z"/>
	<path class="st6" d="M318,73.3c0,0.9-0.1,1.8,0,2.8c0.1,1-0.3,1.4-1.2,1.8c-4,1.6-7.9,1.8-11.4-1.2c-3.6-3.1-4-9-0.9-12.6
		c3.2-3.8,9.1-4.3,12.7-1.2c0.6,0.5,0.7,0.9,0.1,1.4c-0.1,0.1-0.2,0.2-0.2,0.3c-1.2,1.3-1.2,1.3-2.6,0.4c-2-1.2-4.5-1-6.3,0.4
		c-1.9,1.5-2.6,4.1-1.9,6.4c0.8,2.3,2.8,3.8,5.1,3.9c0.2,0,0.3,0,0.5,0c2.6,0,3.2-0.8,2.6-3.3c0-0.2-0.3-0.3-0.5-0.5
		c-0.1-0.1-0.2,0-0.4,0c-1.5,0-2-0.8-1.5-2.3c0.1-0.2,0.5-0.4,0.7-0.4c1.4,0,2.9,0,4.3,0c0.6,0,0.8,0.3,0.8,0.8
		C318,71.1,318,72.2,318,73.3z"/>
	<path class="st6" d="M227.7,70c0,2.6,0,5.1,0,7.7c0,0.8-0.2,1.1-1.1,1.1c-2.7-0.1-2.2,0.3-2.2-2.2c0-1.5,0-3,0-4.4
		c0-0.6-0.1-0.8-0.7-0.8c-2.1,0-4.2,0-6.4,0c-0.6,0-0.8,0.2-0.8,0.8c0,1.8,0,3.7,0,5.5c0,0.8-0.2,1.1-1,1c-2.7-0.1-2.4,0.4-2.4-2.4
		c0-4.6,0-9.2,0-13.8c0-1.5,0-1.5,1.4-1.5c2.3,0,1.9-0.2,1.9,1.9c0,1.5,0,3,0,4.4c0,0.6,0.2,0.8,0.7,0.8c2.2,0,4.3,0,6.5,0
		c0.7,0,0.7-0.3,0.7-0.8c0-1.8,0-3.5,0-5.3c0-0.8,0.2-1.1,1-1.1c2.8,0,2.3-0.2,2.3,2.3C227.7,65.6,227.7,67.8,227.7,70z"/>
	<path class="st6" d="M279.5,67.5c0,1.9,0.2,3.8,0,5.6c-0.4,3.9-3.5,6.1-7.8,5.9c-3.6-0.2-6.2-2.9-6.3-6.6c-0.1-3.4,0-6.9,0-10.3
		c0-0.7,0.3-1,1-1c2.8,0.1,2.5-0.3,2.5,2.4c0,2.8,0,5.7,0,8.5c0,2.2,1.2,3.5,3.4,3.7c2.2,0.1,3.7-1,3.9-3.1c0.2-2.1,0.1-4.2,0.1-6.2
		c0-1.4,0-2.9,0-4.3c0-0.6,0.2-0.9,0.8-0.9c3.2,0,2.5-0.3,2.6,2.4C279.5,64.8,279.5,66.2,279.5,67.5
		C279.5,67.5,279.5,67.5,279.5,67.5z"/>
	<path class="st0" d="M139,69.9c0-2.5,0-5,0-7.6c0-0.9,0.2-1.2,1.1-1.2c3,0,6,0,9,0c0.8,0,1.1,0.2,1.1,1.1c-0.1,2.2,0.2,2-2,2
		c-1.7,0-3.4,0-5.2,0c-0.6,0-0.9,0.1-0.8,0.8c0.1,0.8,0,1.6,0,2.4c0,0.6,0.2,0.8,0.8,0.8c1.6,0,3.1,0,4.7,0c0.9,0,1.3,0.2,1.3,1.2
		c-0.1,2.1,0.2,1.9-2,1.9c-1.3,0-2.6,0-3.8,0c-0.7,0-1,0.1-1,0.9c0.1,0.8,0.1,1.7,0,2.5c-0.1,0.8,0.3,0.9,1,0.9c2,0,3.9,0,5.9,0
		c0.8,0,1.1,0.2,1.1,1.1c-0.1,2.3,0.2,1.9-2,2c-2.7,0-5.4,0-8.2,0c-0.8,0-1.1-0.2-1.1-1.1C139.1,75.1,139,72.5,139,69.9z"/>
	<path class="st0" d="M232.6,69.8c0-2.5,0-5,0-7.4c0-0.9,0.2-1.3,1.2-1.3c3,0.1,6,0,9,0c0.8,0,1.2,0.3,1.1,1.1c0,0.2,0,0.5,0,0.7
		c0.1,1-0.2,1.4-1.3,1.3c-1.9-0.1-3.8,0-5.8,0c-0.6,0-1,0.1-0.9,0.9c0.1,1,0.1,2,0.2,3.1c1,0,1.9,0.1,2.9,0.1c0.9,0,1.8,0,2.8,0
		c0.6,0,0.9,0.1,0.9,0.8c0,2.8,0.3,2.3-2.1,2.3c-1.2,0-2.4,0-3.6,0c-0.8,0-1,0.2-0.9,1c0.1,1.1-0.3,2.5,0.2,3.1
		c0.5,0.6,2,0.2,3.1,0.3c1.2,0,2.5,0,3.7,0c0.7,0,0.9,0.3,0.9,0.9c0.1,2.1,0.1,2.1-2,2.1c-2.8,0-5.5,0-8.3,0c-0.8,0-1.1-0.2-1-1
		C232.7,75.1,232.6,72.5,232.6,69.8z"/>
	<path class="st6" d="M203.2,79c-4.1,0-7.5-2.5-8.7-6.3c-1.2-3.8,0.2-7.9,3.5-10.2c3.1-2.2,7.5-2.2,10.5,0.1c1.2,0.9,1.2,1,0.2,2.1
		c-0.1,0.1-0.3,0.3-0.4,0.4c-0.5,0.8-0.9,0.6-1.6,0.1c-3.4-2.4-7.7-0.8-8.7,3.3c-0.6,2.3,0.3,4.7,2.1,6.1c1.9,1.4,4.3,1.4,6.4,0.1
		c0.4-0.2,1-0.6,1.2-0.5c0.7,0.5,1.2,1.2,1.8,1.9c0.1,0.1-0.3,0.6-0.5,0.8C207.3,78.4,205.4,79.1,203.2,79z"/>
	<path class="st6" d="M177,79c-1.9,0.1-3.6-0.5-5.1-1.6c-0.6-0.4-0.7-0.8-0.2-1.4c0.2-0.3,0.4-0.5,0.5-0.8c0.4-0.8,0.8-0.9,1.5-0.3
		c1,0.8,2.1,1.3,3.4,1.3c1,0,1.8-0.3,2.1-1.3c0.4-1,0-1.8-0.9-2.4c-0.7-0.4-1.4-0.8-2.1-1.2c-0.9-0.5-1.8-0.9-2.6-1.4
		c-1.8-1.3-2.6-3-2-5.2c0.5-2.1,2-3.2,4.1-3.6c2.2-0.4,4.3,0.1,6.2,1.3c0.6,0.4,0.7,0.8,0.3,1.4c-0.2,0.2-0.3,0.5-0.5,0.7
		c-0.7,1.1-0.7,1-1.9,0.4c-0.9-0.4-1.8-0.8-2.8-1c-0.9-0.2-1.8,0.2-2.1,1.2c-0.3,1,0.1,1.7,0.9,2.2c0.6,0.4,1.3,0.7,2,1.1
		c1,0.5,2,0.9,2.8,1.5c2,1.3,2.7,3.3,2.2,5.4c-0.5,2-2.5,3.5-4.7,3.7C177.8,79,177.4,79,177,79z"/>
	<path class="st6" d="M127.2,72.3c1.5-3.4,3-6.5,4.4-9.8c0.4-1,1-1.4,2.1-1.4c2.2,0.1,2.2,0,1.3,2.1c-2.3,5-4.6,9.9-6.9,14.9
		c-0.2,0.4-0.6,0.6-0.9,1c-0.3-0.3-0.7-0.6-0.9-0.9c-2.4-5.2-4.8-10.3-7.1-15.5c-0.6-1.3-0.5-1.3,0.9-1.4c1.6-0.2,2.4,0.4,3,1.9
		C124.3,66.1,125.8,69.1,127.2,72.3z"/>
	<path class="st7" d="M187,70c0-2.6,0-5.2,0-7.8c0-0.8,0.2-1.1,1-1c2.8,0.1,2.2-0.3,2.3,2.2c0,4.8,0,9.5,0,14.3
		c0,0.9-0.2,1.2-1.2,1.2c-2.4-0.1-2.1,0.3-2.1-2.1C187,74.4,187,72.2,187,70z"/>
	<path class="st7" d="M163.6,16.6c0.5,0,1,0,1.4,0c1-0.1,1.4,0.3,1.4,1.3c0,0.9,0,1.8,0,2.8c0,0.7-0.3,1.1-1.1,1.1
		c-1.2,0-2.4,0-3.6,0c-0.7,0-1-0.3-1-1c0-1,0-2.1,0-3.1c0-0.8,0.3-1.1,1.1-1C162.4,16.6,163,16.6,163.6,16.6z"/>
	<path class="st7" d="M37.3,40.8c4,0,7.9,0,11.9,0c0.9,0,1.3,0.2,1.1,1.1c-0.2,1.1-0.4,2.3-0.9,3.3c-1.2,2.4-1.6,4.9-1.5,7.6
		c0.1,3.6,0,7.1,0.1,10.7c0,0.9-0.2,1.1-1.1,1.1c-6.4,0-12.9,0-19.3,0c-0.9,0-1-0.3-1-1.1c0-4.3,0.1-8.6,0-13c0-1-0.3-2-0.6-3
		c-0.4-1.2-0.9-2.3-1.4-3.4c-0.1-0.2-0.3-0.4-0.3-0.7c0-0.8-0.1-1.7,0.1-2.5c0.1-0.2,1.2-0.2,1.8-0.2C29.9,40.8,33.6,40.8,37.3,40.8
		z"/>
	<path class="st0" d="M63.4,55.1c3.1,0,6.2,0,9.2,0c1.4,0,1.3,0,0.8,1.2c-0.3,0.8-0.6,1.7-0.6,2.6c-0.1,4.6,0,9.3,0,13.9
		c0,0.9-0.2,1.3-1.2,1.2c-3.1-0.1-6.2,0-9.3,0c-0.5,0-1.1-0.2-1.5-0.5c-2.1-1.6-4.2-3.3-6.3-5c-0.5-0.4-0.7-0.9-0.7-1.5
		c0-2.7,0.1-5.4,0-8c0-1-0.4-1.9-0.7-2.8c-0.3-0.9-0.4-1,0.7-1C57,55.1,60.2,55.1,63.4,55.1z"/>
	<path class="st3" d="M37.2,36.4c-4.6,0-9.3,0-13.9,0c-0.3,0-0.7-0.1-1-0.2c0.2-0.3,0.3-0.6,0.5-0.8c2.6-2.6,5.2-5.3,7.9-7.9
		c0.3-0.3,0.9-0.5,1.3-0.6c3.4,0,6.9,0,10.3,0c0.5,0,1.1,0.3,1.4,0.6c2.6,2.6,5.2,5.2,7.8,7.8c0.2,0.2,0.4,0.6,0.6,0.8
		c-0.3,0.1-0.7,0.2-1,0.2C46.6,36.4,41.9,36.4,37.2,36.4z"/>
	<path class="st8" d="M63.4,50.9c-3.2,0-6.4,0-9.6,0c-1.1,0-1.1-0.1-0.7-1.1c0.5-1.1,0.9-2.3,1.4-3.4c0.1-0.3,0.4-0.5,0.5-0.8
		c0.2,0.3,0.5,0.5,0.6,0.8c0.5,1,0.9,2.1,1.3,3.1c0.1,0.3,0.3,0.5,0.5,0.8c0.2-0.3,0.4-0.5,0.5-0.8c1.3-3.2,2.6-6.3,4-9.5
		c0.3-0.7,0.5-1.3,0.8-2c0.2-0.3,0.4-0.6,0.6-0.9c0.2,0.3,0.5,0.6,0.7,0.9c1.5,3.7,3.1,7.4,4.6,11c0.2,0.4,0.4,0.8,0.6,1.2
		c0.3-0.4,0.6-0.8,0.8-1.3c0.4-1,0.8-2,1.3-3c0.2-0.5,0.5-0.6,0.8,0c0.6,1.4,1.2,2.8,1.8,4.2c0.3,0.8-0.3,0.6-0.7,0.7
		C69.8,50.9,66.6,50.9,63.4,50.9z"/>
	<path class="st8" d="M37.2,22.7c-2,0-3.9,0-5.9,0c-0.3,0-0.6-0.2-0.8-0.2c0.1-0.2,0.2-0.5,0.3-0.7c1.9-2.6,3.9-5.2,5.8-7.8
		c0.4-0.6,0.7-0.8,1.2-0.1c1.9,2.6,3.9,5.2,5.9,7.9c0.2,0.2,0.2,0.5,0.3,0.7c-0.3,0.1-0.6,0.2-0.9,0.2
		C41.2,22.7,39.2,22.7,37.2,22.7z"/>
</g>
</svg>
