<?xml version="1.0" encoding="utf-8"?>
<!-- Generator: Adobe Illustrator 24.2.1, SVG Export Plug-In . SVG Version: 6.00 Build 0)  -->
<svg version="1.1" id="Ebene_1" xmlns="http://www.w3.org/2000/svg" xmlns:xlink="http://www.w3.org/1999/xlink" x="0px" y="0px"
	 viewBox="0 0 99.2 99.2" style="enable-background:new 0 0 99.2 99.2;" xml:space="preserve">
<style type="text/css">
	.Schlagschatten{fill:none;}
	.Abgerundete_x0020_Ecken_x0020_2_x0020_Pt_x002E_{fill:#FFFFFF;stroke:#000000;stroke-miterlimit:10;}
	.Interaktiv_x0020_X_x0020_spiegeln{fill:none;}
	.Weich_x0020_abgeflachte_x0020_Kante{fill:url(#SVGID_1_);}
	.Abenddämmerung{fill:#FFFFFF;}
	.Laub_GS{fill:#FFDD00;}
	.Pompadour_GS{fill-rule:evenodd;clip-rule:evenodd;fill:#51AEE2;}
	.st0{fill:#163A65;}
	.st1{fill:none;stroke:#163A65;stroke-width:3;stroke-linecap:round;stroke-linejoin:round;stroke-miterlimit:10;}
</style>
<linearGradient id="SVGID_1_" gradientUnits="userSpaceOnUse" x1="-121.8167" y1="3.4911" x2="-121.1096" y2="4.1982">
	<stop  offset="0" style="stop-color:#E6E6EB"/>
	<stop  offset="0.1738" style="stop-color:#E2E2E6"/>
	<stop  offset="0.352" style="stop-color:#D5D4D8"/>
	<stop  offset="0.5323" style="stop-color:#C0BFC2"/>
	<stop  offset="0.7139" style="stop-color:#A4A2A4"/>
	<stop  offset="0.8949" style="stop-color:#828282"/>
	<stop  offset="1" style="stop-color:#6B6E6E"/>
</linearGradient>
<g id="XMLID_427_">
	<g id="XMLID_425_">
		<path class="st0" d="M53.7,91.6c-2.8,0-5-2.2-5-5v-6.7c0-3.3-0.6-6.5-1.7-9.5l-1-2.6c-0.3-0.9-1.2-1.5-2.1-1.5
			c-1,0-1.8,0.6-2.1,1.5l-1,2.8c-1,2.9-1.5,5.8-1.5,8.9v7.1c0,2.8-2.2,5-5,5c-1.8,0-3.4-1-4.3-2.5l-2.4-4.3
			c-4.1-7.2-6.7-15.4-7.4-23.7c-0.3-3.2-1.3-6.4-2.9-9.3l-3.7-6.4C10.9,41,9.6,36,9.6,30.9c0-5.2,1.2-9.9,3.4-13.8
			c3-5.3,8.9-8.6,15.3-8.6c1.1,0,2.1,0.1,3.1,0.3L44.2,11c0.8,0.1,1.4,0.9,1.2,1.7c-0.1,0.8-0.9,1.4-1.7,1.2l-12.8-2.3
			c-0.8-0.1-1.7-0.2-2.6-0.2c-5.3,0-10.2,2.7-12.7,7.1c-2,3.5-3,7.7-3,12.3c0,4.6,1.2,9.1,3.5,13l3.7,6.4c1.9,3.3,3,6.9,3.3,10.5
			c0.7,7.8,3.1,15.6,7,22.4l2.4,4.3c0.4,0.6,1,1,1.7,1c1.1,0,2-0.9,2-2v-7.1c0-3.4,0.6-6.7,1.6-9.8l1-2.8c0.7-2.1,2.7-3.6,5-3.6
			c2.2,0,4.2,1.4,4.9,3.4l1,2.6c1.3,3.4,1.9,6.9,1.9,10.5v6.7c0,1.1,0.9,2,2,2c0.7,0,1.4-0.4,1.7-1l2.4-4.3c1.4-2.5,2.7-5.1,3.7-7.7
			c0.3-0.8,1.2-1.2,1.9-0.9c0.8,0.3,1.2,1.2,0.9,1.9c-1.1,2.8-2.4,5.6-3.9,8.2L58,89.1C57.1,90.6,55.5,91.6,53.7,91.6z"/>
		<path class="st0" d="M44,14c-0.7,0-1.3-0.5-1.5-1.2c-0.1-0.8,0.4-1.6,1.2-1.7l12.8-2.3c2.4-0.4,5-0.3,7.3,0.2
			c0.8,0.2,1.3,1,1.1,1.8c-0.2,0.8-1,1.3-1.8,1.1c-2-0.5-4.1-0.5-6.1-0.2L44.2,14C44.2,14,44.1,14,44,14z"/>
		<path class="st0" d="M21.4,29.7c-0.8,0-1.5-0.7-1.5-1.5c0-2.7,0.8-5.2,2.2-7.2c0.2-0.2,0.4-0.5,0.5-0.7c2.6-3,6.7-4.4,10.8-3.5
			l7.8,1.7c0.8,0.2,1.3,1,1.1,1.8c-0.2,0.8-1,1.3-1.8,1.1l-7.8-1.7c-3-0.7-6,0.3-7.8,2.5c-0.1,0.2-0.3,0.3-0.4,0.5
			c-1.1,1.5-1.6,3.3-1.6,5.4C22.9,29,22.3,29.7,21.4,29.7L21.4,29.7z"/>
	</g>
	<g id="XMLID_404_">
		<path class="st0" d="M71,73.2c-12.6,0-22.8-10.2-22.8-22.8c0-10.8,16.5-34.8,21.6-41.9C70,8,70.5,7.8,71,7.8h0
			c0.5,0,0.9,0.2,1.2,0.6c5.1,7.1,21.5,31.2,21.5,41.9C93.7,62.9,83.5,73.2,71,73.2z M71,11.9c-9.4,13.4-19.8,30.9-19.8,38.5
			c0,10.9,8.9,19.8,19.8,19.8c10.9,0,19.8-8.9,19.8-19.8C90.7,42.8,80.8,25.9,71,11.9z M73.9,62.4h-5.8c-0.8,0-1.5-0.7-1.5-1.5v-7.3
			H59c-0.8,0-1.5-0.7-1.5-1.5v-5.8c0-0.8,0.7-1.5,1.5-1.5h7.5V37c0-0.8,0.7-1.5,1.5-1.5h5.8c0.8,0,1.5,0.7,1.5,1.5v7.8h7.5
			c0.8,0,1.5,0.7,1.5,1.5v5.8c0,0.8-0.7,1.5-1.5,1.5h-7.5v7.3C75.4,61.7,74.7,62.4,73.9,62.4z M69.6,59.4h2.8v-7.3
			c0-0.8,0.7-1.5,1.5-1.5h7.5v-2.8h-7.5c-0.8,0-1.5-0.7-1.5-1.5v-7.8h-2.8v7.8c0,0.8-0.7,1.5-1.5,1.5h-7.5v2.8h7.5
			c0.8,0,1.5,0.7,1.5,1.5V59.4z"/>
		<path class="st0" d="M73.9,62.4h-5.8c-0.8,0-1.5-0.7-1.5-1.5v-7.3H59c-0.8,0-1.5-0.7-1.5-1.5v-5.8c0-0.8,0.7-1.5,1.5-1.5h7.5V37
			c0-0.8,0.7-1.5,1.5-1.5h5.8c0.8,0,1.5,0.7,1.5,1.5v7.8h7.5c0.8,0,1.5,0.7,1.5,1.5v5.8c0,0.8-0.7,1.5-1.5,1.5h-7.5v7.3
			C75.4,61.7,74.7,62.4,73.9,62.4z M69.6,59.4h2.8v-7.3c0-0.8,0.7-1.5,1.5-1.5h7.5v-2.8h-7.5c-0.8,0-1.5-0.7-1.5-1.5v-7.8h-2.8v7.8
			c0,0.8-0.7,1.5-1.5,1.5h-7.5v2.8h7.5c0.8,0,1.5,0.7,1.5,1.5V59.4z"/>
		<path class="st0" d="M73.9,62.4h-5.8c-0.8,0-1.5-0.7-1.5-1.5v-7.3H59c-0.8,0-1.5-0.7-1.5-1.5v-5.8c0-0.8,0.7-1.5,1.5-1.5h7.5V37
			c0-0.8,0.7-1.5,1.5-1.5h5.8c0.8,0,1.5,0.7,1.5,1.5v7.8h7.5c0.8,0,1.5,0.7,1.5,1.5v5.8c0,0.8-0.7,1.5-1.5,1.5h-7.5v7.3
			C75.4,61.7,74.7,62.4,73.9,62.4z M69.6,59.4h2.8v-7.3c0-0.8,0.7-1.5,1.5-1.5h7.5v-2.8h-7.5c-0.8,0-1.5-0.7-1.5-1.5v-7.8h-2.8v7.8
			c0,0.8-0.7,1.5-1.5,1.5h-7.5v2.8h7.5c0.8,0,1.5,0.7,1.5,1.5V59.4z"/>
	</g>
</g>
</svg>
