<?xml version="1.0" encoding="utf-8"?>
<!-- Generator: Adobe Illustrator 24.0.0, SVG Export Plug-In . SVG Version: 6.00 Build 0)  -->
<svg version="1.1" id="Ebene_1" xmlns="http://www.w3.org/2000/svg" xmlns:xlink="http://www.w3.org/1999/xlink" x="0px" y="0px"
	 viewBox="0 0 112.8 17.3" style="enable-background:new 0 0 112.8 17.3;" xml:space="preserve">
<style type="text/css">
	.st0{clip-path:url(#SVGID_2_);fill:#004178;}
</style>
<g>
	<g>
		<g>
			<defs>
				<rect id="SVGID_1_" x="0.4" y="0.3" width="112" height="16.7"/>
			</defs>
			<clipPath id="SVGID_2_">
				<use xlink:href="#SVGID_1_"  style="overflow:visible;"/>
			</clipPath>
			<path class="st0" d="M70.3,7.1c-12.8,0.9-24,1.8-33.7,2.8c-26.1,2.8-36,9.1-36.2,7.8c-0.1-1.4,4.4-3,12.2-5.3
				c8.7-2.7,18-4.4,28.8-5.5C60.8,4.6,89.5,3,101.6,1.6c4.3-0.5,6.7-1.1,7.4-1.2c1.2-0.2,3.5,0.7,3.6,1.2c0,0.2-0.8-0.9-3,1.1
				c-1.2,1.1-1.7,0.7-3.9,0.9c-3.9,0.4-20.2,2-24.1,2.3"/>
		</g>
	</g>
</g>
</svg>
