<?xml version="1.0" encoding="utf-8"?>
<!-- Generator: Adobe Illustrator 24.1.3, SVG Export Plug-In . SVG Version: 6.00 Build 0)  -->
<svg version="1.1" id="Ebene_1" xmlns="http://www.w3.org/2000/svg" xmlns:xlink="http://www.w3.org/1999/xlink" x="0px" y="0px"
	 viewBox="0 0 535 236" style="enable-background:new 0 0 535 236;" xml:space="preserve">
<style type="text/css">
	.st0{fill-rule:evenodd;clip-rule:evenodd;fill:none;stroke:#004176;stroke-width:7;stroke-miterlimit:10;}
	.st1{fill:#004176;}
	.st2{fill:#EE6E22;}
	.st3{fill-rule:evenodd;clip-rule:evenodd;fill:#00BE47;}
	.st4{fill:#FFFFFF;}
</style>
<path class="st0" d="M419.5,23.6c-3.7,0-7.4,0.2-11,0.6H120.3c-2.8-0.2-5.6-0.3-8.4-0.3C55.4,23.9,9.5,69.8,9.5,126.4
	s45.9,102.5,102.5,102.5c3.4,0,6.8-0.2,10.1-0.5h290.5c2.3,0.2,4.7,0.2,7.1,0.2c56.6,0,102.5-45.9,102.5-102.5
	S476.1,23.6,419.5,23.6z"/>
<path class="st1" d="M135.1,167.6v6.5c-1.1-0.9-2.2-1.8-3.4-2.5s-2.2-1.3-3.4-1.8c-2.6-1.2-5.2-1.8-7.8-1.8c-3.3,0-6.1,0.8-8.3,2.5
	c-2.2,1.7-3.3,3.7-3.3,6.1c0,3.4,2.5,6,7.6,7.7c2.3,0.8,4.7,1.6,7,2.3l7.1,2.3c5.1,2.4,7.6,6.1,7.6,10.9c0,4.7-1.8,8.5-5.4,11.3
	c-3.5,2.7-7.7,4-12.9,4c-3.4,0-6.7-0.7-9.9-2c-1.8-0.7-4-1.9-6.5-3.6v-6.5c3.3,2.9,6.6,5,10,6.2c1.1,0.4,2.2,0.7,3.3,0.9
	c1.1,0.2,2.1,0.3,3.2,0.3c3.4,0,6.3-0.9,8.6-2.6c2.6-1.9,3.9-4.3,3.9-7.4c0-3.7-2.5-6.5-7.4-8.4c-2.4-0.7-4.7-1.5-7-2.2
	s-4.6-1.5-6.9-2.2c-5-2.3-7.5-5.8-7.5-10.6c0-4,1.6-7.3,4.7-9.8c3.2-2.6,7.3-3.9,12.2-3.9c3,0,6,0.6,9,1.7
	C131,165.5,132.9,166.4,135.1,167.6L135.1,167.6z M172.2,183.1v6c-2.4-2.3-4.8-3.9-7.4-4.9c-0.7-0.3-1.5-0.5-2.2-0.6
	c-0.8-0.1-1.5-0.2-2.3-0.2c-3.5,0-6.4,1.3-8.7,4c-2.3,2.7-3.4,6-3.4,9.7c0,3.8,1.2,7.1,3.5,9.9c2.3,2.6,5.3,3.9,8.8,3.9
	c2.2,0,4.2-0.5,6.1-1.4c1.8-1,3.7-2.4,5.6-4.3v6.1c-2.3,1.4-4.3,2.4-6.1,3c-1.8,0.6-3.7,0.9-5.6,0.9c-4.8,0-8.9-1.7-12.3-5.1
	c-3.3-3.5-5-7.8-5-12.8c0-4.9,1.6-9.1,4.9-12.7c3.3-3.5,7.5-5.2,12.4-5.2c2.5,0,4.9,0.4,7,1.3C168.8,181.1,170.4,181.9,172.2,183.1
	L172.2,183.1z M177.4,164.1h4.6v22.1c1.1-1.7,2.4-3.1,3.9-4.3c2.3-1.8,5-2.6,7.9-2.6c1.8,0,3.4,0.2,4.8,0.8c1.4,0.5,2.7,1.3,3.9,2.2
	c2.5,2.2,3.8,5.3,3.8,9.3v22.6h-4.7v-22c0-2.5-0.8-4.6-2.4-6.3c-1.6-1.7-3.5-2.6-5.8-2.6c-3.3,0-6,1.3-8.2,3.9
	c-2.2,2.7-3.3,5.8-3.3,9.2v17.7h-4.6L177.4,164.1L177.4,164.1z M210.6,180h4.7v21.8c0,2.4,0.7,4.5,2.1,6.1c1.5,1.9,3.7,2.9,6.5,2.9
	c3.2,0,6-1.3,8.3-3.9c2.4-2.7,3.6-5.7,3.6-9v-17.9h4.6v34.2h-4l-0.3-5.8c-0.7,0.9-1.4,1.8-2.2,2.5c-0.8,0.8-1.6,1.4-2.5,2
	c-2.4,1.4-5,2.2-7.9,2.2c-3.9,0-7.1-1.2-9.4-3.6c-2.3-2.5-3.5-5.5-3.5-9L210.6,180L210.6,180z M250.4,169.9h4.2V180h9v4.2h-9v21.8
	c0,1.8,0.3,3.1,1,3.8c0.7,0.8,1.8,1.1,3.4,1.1c0.9,0,1.7-0.1,2.4-0.3c0.7-0.2,1.4-0.5,2.2-0.8v4.2c-0.7,0.2-1.5,0.4-2.5,0.6
	s-1.9,0.3-2.9,0.3c-2.6,0-4.5-0.6-6-1.7c-1.6-1.2-2.4-3.1-2.4-5.8v-23.2h-5.8V180h5.8L250.4,169.9L250.4,169.9z M268.7,184.4V180
	h27.3v3.8l-23,26.6c0.9,0,2.2-0.1,4.2-0.2c0.9,0,1.8-0.1,2.5-0.1c0.7,0,1.4,0,2,0h15.2v4.1h-29.4v-3.8l22.8-26.6
	c-1.1,0.1-2.2,0.1-3.3,0.2c-1.1,0.1-2.3,0.1-3.5,0.2c-1.2,0-2.2,0.1-3.2,0.1c-0.9,0-1.7,0-2.4,0L268.7,184.4L268.7,184.4z
	 M301.9,164.1h4.7v21.7c0.6-0.9,1.2-1.7,1.8-2.3c0.6-0.6,1.2-1.2,1.8-1.7c2.2-1.7,4.8-2.6,7.7-2.6c4.4,0,8.1,1.7,10.9,5.1
	c2.9,3.4,4.4,7.6,4.4,12.4c0,5-1.5,9.2-4.4,12.7c-3.2,3.8-7.1,5.6-11.8,5.6c-2.6,0-4.9-0.6-6.8-1.7c-1.2-0.7-2.4-1.7-3.6-2.9
	l-1.2,3.8h-3.5V164.1L301.9,164.1z M306.6,195.7v9.9c0.6,0.7,1.2,1.4,1.8,1.9c0.6,0.6,1.2,1,1.7,1.4c1.9,1.3,4,2,6.4,2
	c3.3,0,6-1.4,8.1-4c2.1-2.8,3.2-6.1,3.2-10.1c0-4.1-1.2-7.4-3.6-10.1c-2-2.2-4.4-3.3-7.1-3.3c-2.9,0-5.4,1.2-7.5,3.7
	C307.6,189.5,306.6,192.3,306.6,195.7L306.6,195.7z M356.2,180v4.6l-1.2-0.4c-0.3-0.1-0.6-0.2-0.8-0.2c-0.2,0-0.4-0.1-0.7-0.1
	c-0.2,0-0.5,0-0.9,0c-3.1,0-5.7,1.5-7.7,4.5c-1.7,2.8-2.6,5.9-2.6,9.3v16.6h-4.6V180h4.2l0.3,5.9c1.1-1.8,2.1-3.1,3-3.8
	c1.9-1.6,4.2-2.4,6.9-2.4c0.7,0,1.4,0,2,0.1C355,179.8,355.6,179.9,356.2,180L356.2,180z M360.1,180h4.6v34.2h-4.6V180z
	 M362.3,165.6c0.9,0,1.6,0.3,2.2,0.9c0.6,0.6,0.9,1.4,0.9,2.6s-0.3,2-0.8,2.6c-0.6,0.6-1.3,0.9-2.3,0.9c-1,0-1.7-0.3-2.3-1
	c-0.5-0.7-0.8-1.5-0.8-2.4c0-1.4,0.3-2.4,1-2.8C360.8,165.8,361.5,165.5,362.3,165.6L362.3,165.6z M400.7,195.8h-26
	c0,4.9,1.1,8.6,3.4,11.2c2.3,2.6,5.3,3.9,9,3.9c2.8,0,5.5-0.9,8.1-2.7c0.7-0.5,1.5-1.1,2.3-1.8c0.8-0.7,1.7-1.5,2.6-2.5v5.6
	c-1,0.8-2,1.4-2.8,2c-0.9,0.6-1.7,1.1-2.5,1.4c-2.7,1.4-5.4,2.1-8.1,2.1c-4.6,0-8.6-1.6-11.8-4.8c-3.5-3.4-5.2-7.8-5.2-13.1
	c0-5.1,1.6-9.3,4.7-12.7c3.2-3.5,7.1-5.2,11.8-5.2c4.6,0,8.2,1.7,10.9,5C399.5,187.2,400.7,191.1,400.7,195.8L400.7,195.8z
	 M375.2,191.9h20c-0.5-2.9-1.6-5.1-3.3-6.5s-3.7-2.1-6.1-2.1c-2.6,0-4.9,0.8-6.7,2.5C377.4,187.2,376.1,189.3,375.2,191.9
	L375.2,191.9z M409.3,179.9v-6.5c0-3,0.6-5.3,1.7-6.9c1.5-2.2,3.9-3.3,7.4-3.3c0.4,0,0.7,0,1,0c0.3,0,0.6,0.1,0.9,0.1
	s0.7,0.1,1.1,0.3c0.4,0.1,0.9,0.3,1.5,0.4v4.2c-0.1-0.2-0.7-0.4-1.8-0.6c-0.5-0.1-0.9-0.1-1.2-0.2c-0.4,0-0.7-0.1-0.9-0.1
	c-1.8,0-3.1,0.5-3.9,1.5s-1.2,2.5-1.2,4.4v6.5h9.1v4.2h-9.1v30.1h-4.6v-30.1h-5.8v-4.2L409.3,179.9L409.3,179.9z"/>
<g>
	<path class="st2" d="M130.9,47.5L129.4,60H96.1l-2.9,23.4h33.2L125.1,95H91.9l-3.8,30.5h33.2l-1.6,12.5H73.2l11.1-90.5
		C84.3,47.5,130.9,47.5,130.9,47.5z M145.5,119.4l-12.3-15.7h9.4l7.6,10l7.8-10h9.7l-12.7,15.7l14.7,18.5h-9.4l-10.1-12.8L140,137.9
		h-9.7L145.5,119.4L145.5,119.4z M183,156.6h-7.9v-52.9h7.9v3.7c3.1-3.1,6.7-4.7,10.6-4.7c4.7,0,8.6,1.7,11.6,5.2
		c3.1,3.4,4.6,7.8,4.6,13.1c0,5.1-1.5,9.4-4.6,12.8c-3.1,3.4-6.9,5.1-11.5,5.1c-4,0-7.6-1.6-10.8-4.8L183,156.6L183,156.6z
		 M201.8,121c0-3.3-0.9-6-2.7-8c-1.8-2.1-4.1-3.1-6.8-3.1c-2.9,0-5.3,1-7.1,3s-2.7,4.7-2.7,7.9c0,3.2,0.9,5.9,2.7,8
		c1.8,2,4.1,3.1,7,3.1c2.8,0,5-1,6.8-3.1C200.9,126.8,201.9,124.2,201.8,121L201.8,121z M249.5,122.7h-24.5c0.2,2.8,1.1,5.1,2.7,6.7
		c1.6,1.6,3.7,2.5,6.2,2.5c2,0,3.6-0.5,4.9-1.4c1.3-0.9,2.7-2.7,4.3-5.2l6.7,3.7c-1,1.8-2.1,3.3-3.3,4.5c-1.1,1.2-2.4,2.3-3.7,3.1
		c-1.3,0.8-2.7,1.4-4.3,1.8c-1.5,0.4-3.2,0.6-4.9,0.6c-5.1,0-9.2-1.6-12.3-4.9c-3.1-3.3-4.6-7.7-4.6-13.2c0-5.4,1.5-9.8,4.5-13.2
		c3-3.3,7-5,12-5c5,0,9,1.6,12,4.8c2.9,3.2,4.4,7.6,4.4,13.2L249.5,122.7L249.5,122.7z M241.4,116.2c-1.1-4.2-3.8-6.3-8-6.3
		c-1,0-1.9,0.1-2.7,0.4c-0.8,0.3-1.6,0.7-2.3,1.3c-0.7,0.6-1.3,1.2-1.8,2c-0.5,0.8-0.9,1.7-1.1,2.6L241.4,116.2L241.4,116.2z
		 M258.1,103.7h7.9v3.1c1.5-1.5,2.7-2.6,3.9-3.1c1.1-0.6,2.5-0.9,4.1-0.9c2.1,0,4.3,0.7,6.5,2l-3.6,7.2c-1.5-1.1-3-1.6-4.4-1.6
		c-4.3,0-6.5,3.3-6.5,9.8V138h-7.9L258.1,103.7L258.1,103.7z M295.8,111.1V138h-7.9v-26.9h-3.4v-7.4h3.4V91.2h7.9v12.6h6.1v7.4
		L295.8,111.1L295.8,111.1z M339.2,122.7h-24.5c0.2,2.8,1.1,5.1,2.7,6.7c1.6,1.6,3.7,2.5,6.2,2.5c2,0,3.6-0.5,4.9-1.4
		c1.3-0.9,2.7-2.7,4.3-5.2l6.7,3.7c-1,1.8-2.1,3.3-3.3,4.5c-1.1,1.2-2.4,2.3-3.7,3.1c-1.3,0.8-2.7,1.4-4.3,1.8
		c-1.5,0.4-3.2,0.6-5,0.6c-5.1,0-9.2-1.6-12.3-4.9c-3.1-3.3-4.6-7.7-4.6-13.2c0-5.4,1.5-9.8,4.5-13.2c3-3.3,7-5,12-5
		c5,0,9,1.6,12,4.8c2.9,3.2,4.4,7.6,4.4,13.2L339.2,122.7L339.2,122.7z M331,116.2c-1.1-4.2-3.8-6.3-8-6.3c-1,0-1.9,0.1-2.7,0.4
		s-1.6,0.7-2.3,1.3c-0.7,0.6-1.3,1.2-1.8,2c-0.5,0.8-0.9,1.7-1.1,2.6L331,116.2L331,116.2z M347.8,103.7h7.9v3.2
		c2.8-2.8,5.9-4.1,9.4-4.1c4,0,7.1,1.2,9.3,3.8c1.9,2.1,2.9,5.6,2.9,10.4v21h-8v-19.1c0-3.4-0.5-5.7-1.4-7c-0.9-1.3-2.6-2-5-2
		c-2.6,0-4.5,0.9-5.6,2.6c-1.1,1.7-1.6,4.7-1.6,9v16.5h-7.9L347.8,103.7L347.8,103.7z"/>
	<path class="st1" d="M172.9,47l-4.1,33.1H161l0.5-3.6c-3.3,2.9-6.8,4.4-10.3,4.4c-4.4,0-8-1.5-10.7-4.5c-2.8-3-4.1-6.8-4.1-11.6
		c0-5.5,1.6-9.9,4.7-13.4c3.2-3.5,7.3-5.2,12.3-5.2c2.4,0,4.4,0.4,6,1.2c1.7,0.8,3.4,2.1,5.2,4l0.5-4.4L172.9,47L172.9,47z
		 M163.4,62.6c0-2.9-0.8-5.3-2.5-7.1c-1.7-1.8-3.9-2.8-6.5-2.8c-2.9,0-5.3,1.1-7.3,3.4c-2,2.3-3,5.1-3,8.4c0,2.9,0.8,5.3,2.5,7.1
		c1.6,1.9,3.8,2.8,6.3,2.8c2.9,0,5.3-1.2,7.4-3.5C162.4,68.6,163.4,65.8,163.4,62.6L163.4,62.6z M203.5,50.6l-4.4,4.4
		c-2.1-1.9-4-2.8-5.7-2.8c-1.2,0-2.2,0.3-3,1c-0.8,0.7-1.2,1.5-1.2,2.5c0,1,0.3,1.8,1,2.4c0.7,0.7,2,1.6,4.1,2.7c3,1.7,5,3.2,6,4.6
		c1.1,1.4,1.6,3.1,1.6,5.3c0,3.1-1.1,5.7-3.3,7.6c-2.2,1.9-5.1,2.8-8.7,2.8c-4.9,0-8.9-2.2-12.1-6.6L183,71c2.1,2.5,4.3,3.8,6.7,3.8
		c1.3,0,2.4-0.3,3.2-1.1c0.8-0.7,1.2-1.6,1.2-2.7c0-1-0.3-1.8-1-2.4c-0.3-0.3-0.9-0.7-1.7-1.3c-0.8-0.5-1.9-1.2-3.3-1.9
		c-2.5-1.4-4.2-2.7-5.2-4c-1-1.4-1.4-3.1-1.4-5.1c0-3,1.1-5.5,3.3-7.5c2.2-2,5-3,8.4-3C196.9,45.9,200.3,47.4,203.5,50.6L203.5,50.6
		z M244.7,47l-30,52.1h-8.9L219.2,76l-11.8-29h8.3l8.2,21.2l12-21.2L244.7,47L244.7,47z"/>
</g>
<g>
	<circle class="st3" cx="467" cy="67.4" r="63.5"/>
	<path class="st1" d="M467,133.1c-36.3,0-65.8-29.5-65.8-65.7c0-36.3,29.5-65.8,65.8-65.8s65.8,29.5,65.8,65.8
		C532.8,103.7,503.3,133.1,467,133.1z M467,6.1c-33.8,0-61.2,27.5-61.2,61.2c0,33.8,27.5,61.2,61.2,61.2s61.2-27.5,61.2-61.2
		C528.3,33.6,500.8,6.1,467,6.1z"/>
</g>
<path class="st4" d="M498.9,32.9l12.4,12.2l-54.9,56.8L422.8,66l12.3-12.1l21.3,15.7L498.9,32.9L498.9,32.9z"/>
</svg>
