<?xml version="1.0" encoding="UTF-8" standalone="no"?>
<!DOCTYPE svg PUBLIC "-//W3C//DTD SVG 1.0//EN" "http://www.w3.org/TR/2001/REC-SVG-20010904/DTD/svg10.dtd">
<!-- Created with Inkscape (http://www.inkscape.org/) by Marsupilami -->
<svg
   xmlns:svg="http://www.w3.org/2000/svg"
   xmlns="http://www.w3.org/2000/svg"
   version="1.0"
   width="1024"
   height="239"
   viewBox="-1.06919997 -1.06919997 161.62338994 37.77839894"
   id="svg2849">
  <defs
     id="defs2851" />
  <g
     transform="translate(-295.25751,-514.54218)"
     id="layer1">
    <path
       d="M 310.78374,517.90093 C 291.32624,522.08593 293.09624,539.51343 300.24999,544.71218 L 300.32999,544.63218 C 295.58999,539.31843 296.82874,532.36343 309.12874,529.25593 C 316.71374,527.33718 318.82249,521.41593 318.98874,514.54218 C 317.17999,516.23093 314.41374,517.12093 310.78374,517.90093"
       id="path2540"
       style="fill:#f26521;fill-opacity:1;fill-rule:nonzero;stroke:none" />
    <path
       d="M 320.74874,530.43218 C 322.49499,534.62843 319.91124,539.33843 310.98749,540.38093 C 305.39249,541.03593 302.31874,545.28843 300.54499,550.18218 C 302.55874,549.02718 304.17749,548.57468 307.12374,548.33593 C 321.13374,547.19343 324.24374,534.85468 320.85374,530.32843 L 320.74874,530.43218"
       id="path2542"
       style="fill:#9ddcf9;fill-opacity:1;fill-rule:nonzero;stroke:none" />
    <path
       d="M 451.86749,518.79218 C 451.37874,519.12968 449.97248,520.03466 448.42999,520.54218 C 447.07624,520.98718 445.29499,521.31967 444.77374,521.41718 L 444.77374,523.07343 L 447.36749,523.07343 L 447.36749,544.29213 L 454.74249,544.29213 L 454.74249,542.54213 L 451.86749,541.60468 L 451.86749,518.79218 z M 400.39874,521.76093 C 399.95249,522.63218 398.91998,524.48344 397.58624,525.72968 C 395.60999,527.57843 393.19998,528.2472 392.64874,528.38593 L 392.64874,530.32343 L 395.89874,530.32343 L 395.89874,539.16718 C 395.89874,542.10718 397.90002,544.72973 400.96124,544.72973 C 403.19124,544.72973 404.13246,544.43713 405.99249,543.35473 L 405.99249,540.29218 C 404.67749,541.35468 403.76375,541.79217 402.46124,541.79218 C 401.27749,541.79218 400.39873,540.66844 400.39874,539.01093 L 400.39874,530.32343 L 405.99249,530.32343 L 405.99249,527.19843 L 400.39874,527.19843 L 400.39874,521.76093 z M 377.80499,526.04218 L 370.05499,528.54218 L 370.05499,530.29218 L 373.42999,530.29218 L 373.42999,541.54218 L 370.46124,542.47968 L 370.46124,544.29213 L 380.52374,544.29213 L 380.52374,542.47968 L 377.89874,541.54218 L 377.89874,531.22968 C 379.06624,530.75843 381.73746,530.04218 382.80499,530.04218 C 383.94624,530.04218 384.805,530.96968 384.80499,533.10468 L 384.80499,544.29213 L 392.17999,544.29213 L 392.17999,542.41718 L 389.30499,541.51093 L 389.30499,532.57343 C 389.30499,529.22718 387.43875,526.54215 384.21124,526.54218 C 383.03624,526.54218 381.95249,526.89094 380.92999,527.35468 C 379.90124,527.82218 378.92627,528.43969 377.80499,528.97968 L 377.80499,526.04218 z M 416.61749,526.04218 L 408.83624,528.57343 L 408.83624,530.29218 L 412.14874,530.29218 L 412.14874,541.54218 L 409.24249,542.47968 L 409.24249,544.29213 L 419.55499,544.29213 L 419.55499,542.47968 L 416.67999,541.54218 L 416.67999,530.88593 C 417.67874,530.45468 419.62372,530.02715 420.64874,529.97968 L 421.17999,532.72968 L 423.86749,532.72968 L 423.86749,532.60468 L 423.86749,527.01093 C 422.99374,526.67593 422.05498,526.66718 422.05499,526.66718 C 420.38249,526.66718 418.44876,527.45969 416.61749,528.35468 L 416.61749,526.04218 z M 434.92999,526.51093 C 433.85126,526.51095 432.59749,526.71593 431.33624,526.97968 C 430.10871,527.23593 428.89499,527.56468 427.86749,527.82343 L 427.86749,532.76093 L 430.42999,532.76093 L 430.99249,529.97968 C 432.49249,529.35593 433.52374,529.26093 434.46124,529.26093 C 435.70996,529.26092 436.64874,530.18093 436.64874,532.47968 L 436.64874,534.41718 L 433.24249,534.57343 C 429.62124,534.71968 426.33624,536.06218 426.33624,539.54218 C 426.33627,542.68473 428.71624,544.69843 431.49249,544.69843 C 432.55751,544.69843 433.52249,544.37723 434.36749,543.94843 C 435.28249,543.48223 435.67249,543.14843 436.80499,542.32343 L 436.80499,544.29213 L 444.14874,544.29213 L 444.14874,542.57343 L 441.14874,541.60468 L 441.14874,532.44843 C 441.14871,529.29965 439.04624,526.51093 434.92999,526.51093 z M 341.27374,526.54218 C 335.81999,526.54218 332.71127,531.17841 332.71124,536.10468 C 332.71124,540.91843 336.43998,544.72973 341.74249,544.72973 C 344.18249,544.72973 345.51874,544.25963 348.08624,542.66713 L 348.08624,539.01093 C 346.26249,540.44968 344.25749,541.79217 342.14874,541.79218 C 339.44374,541.79218 337.33625,538.82341 337.33624,535.66718 C 337.33624,531.92718 338.77124,529.22967 341.14874,529.22968 C 342.81499,529.22968 343.66625,529.58591 344.74249,530.13593 L 345.30499,533.04218 L 347.99249,533.04218 L 347.99249,528.07343 C 346.24249,527.17218 343.97127,526.54218 341.27374,526.54218 z M 359.42999,526.54218 C 354.15124,526.54219 351.08624,530.95218 351.08624,536.01093 C 351.08626,540.48593 354.04374,544.72973 359.89874,544.72973 C 362.93751,544.72973 364.70874,543.80463 367.11749,542.41718 L 367.11749,538.91718 C 366.64127,539.27466 366.17624,539.60468 365.74249,539.91718 C 365.23249,540.28593 364.74124,540.60593 364.21124,540.88593 C 363.14121,541.44967 361.94499,541.82343 360.30499,541.82343 C 357.79252,541.82344 356.34999,539.68968 355.83624,536.85468 L 365.74249,535.72968 L 367.92999,535.44843 C 367.89874,534.9647 367.86749,534.66718 367.86749,534.66718 C 367.8675,534.66721 367.82999,534.33718 367.67999,533.79218 C 366.54751,529.6722 364.28249,526.54218 359.42999,526.54218 z M 359.42999,529.13593 C 361.53125,529.13593 362.35124,531.68468 362.64874,533.19843 L 355.67999,534.51093 C 355.97377,531.57718 357.37999,529.13593 359.42999,529.13593 z M 436.64874,536.85468 L 436.64874,540.35468 C 435.50626,540.78593 433.78374,541.38593 432.61749,541.38593 C 431.65373,541.38591 430.80499,540.67593 430.80499,539.22968 C 430.80501,537.38343 433.15749,536.96843 434.89874,536.91718 C 436.07747,536.88218 436.64874,536.85468 436.64874,536.85468 z"
       id="path2544"
       style="fill:#806d5b;fill-opacity:1;fill-rule:nonzero;stroke:none" />
  </g>
</svg>
<!-- version: 20080810, original size: 159.48499 35.639999, border: 3% -->
