<?xml version="1.0" encoding="utf-8"?>
<!-- Generator: Adobe Illustrator 23.0.4, SVG Export Plug-In . SVG Version: 6.00 Build 0)  -->
<svg version="1.1" id="svg2380" xmlns:svg="http://www.w3.org/2000/svg"
	 xmlns="http://www.w3.org/2000/svg" xmlns:xlink="http://www.w3.org/1999/xlink" x="0px" y="0px" viewBox="0 0 1009.1 297.1"
	 style="enable-background:new 0 0 1009.1 297.1;" xml:space="preserve">
<style type="text/css">
	.st0{fill-rule:evenodd;clip-rule:evenodd;fill:#BA122B;}
</style>
<path id="path2554" class="st0" d="M869.4,11.8c-76.7,0-138.9,40.2-138.9,135.9c0,95.5,62.2,135.9,138.9,135.9
	s138.9-40.4,138.9-135.9C1008.2,52,946.1,11.8,869.4,11.8z M594.9,13.6c-3.2,0.1-5,0.3-5,0.3C452.3,13.8,459,149.7,459,149.7
	c0,126.3,107.2,135.6,139.1,135.6c36,0,61-3.4,117.8-9.5c0.2,0,0-141.2,0-141.2H600V185h45.3v45.6c-89.8,21.5-111-25.6-111-79.3
	c0-80.8,45.9-82,65.7-82c40.7,0,45.3,30.2,45.3,30.2H716C707.8,16.7,617.4,13.1,594.9,13.6z M1,18.9v261.7h201.3v-55.1H71.5v-50.3
	h120.8v-50.6H71.5V74.3h130.9V18.9L1,18.9L1,18.9z M222.5,18.9v261.7H293V185h25.2l65.1,95.6h80.5l-70.5-101
	c56.1-11.8,55.7-75.2,55.7-75.2c0-89.2-93.9-85.6-93.9-85.6H222.5V18.9z M869.4,66c47.5,0,62.5,36.7,62.5,81.7
	c0,45.1-15,81.4-62.5,81.4c-47.8,0-62.5-36.3-62.5-81.4S821.6,66,869.4,66z M293,74.2h55.4c0,0,35,0.2,35.2,30.2
	c0.2,36.4-35.2,35.5-35.2,35.5H293V74.2z"/>
</svg>
