<?xml version="1.0" encoding="UTF-8" standalone="no"?>
<!DOCTYPE svg PUBLIC "-//W3C//DTD SVG 1.0//EN" "http://www.w3.org/TR/2001/REC-SVG-20010904/DTD/svg10.dtd">
<!-- Created with Inkscape (http://www.inkscape.org/) by Marsupilami -->
<svg
   xmlns:svg="http://www.w3.org/2000/svg"
   xmlns="http://www.w3.org/2000/svg"
   version="1.0"
   width="1024"
   height="252"
   viewBox="-1.93068123 -1.93068123 276.96335246 68.21740346"
   id="svg26459">
  <defs
     id="defs26461" />
  <g
     transform="translate(-238.44901,-500.18416)"
     id="layer1">
    <path
       d="M 278.63552,511.75895 C 272.65037,511.75895 265.82302,514.50296 265.82302,521.5402 C 265.82302,527.45035 270.76553,528.63904 275.32302,529.94645 C 279.92143,531.25745 284.32302,531.25968 284.32302,534.1027 C 284.32302,536.49234 281.54047,537.38395 279.04177,537.38395 C 275.51074,537.38395 272.87352,536.46609 272.94802,533.4777 L 264.97927,533.4777 C 265.04275,540.31669 271.21812,543.88395 278.54177,543.88395 C 285.55837,543.88395 292.36078,541.44759 292.01052,533.2902 C 291.80117,528.4117 287.36192,526.28508 282.76052,524.9777 C 278.11391,523.66655 273.69802,523.49246 273.69802,521.00895 C 273.69802,518.8892 275.91027,518.25895 277.69802,518.25895 C 280.2419,518.25895 283.58162,519.20171 283.44802,522.13395 L 291.41677,522.13395 C 291.37588,514.86832 284.97699,511.75895 278.63552,511.75895 z M 296.16677,512.5402 L 296.16677,542.88395 L 307.19802,542.88395 C 318.23552,542.88395 324.91677,538.0896 324.91677,527.07145 C 324.91677,517.43584 318.56438,512.5402 307.47927,512.5402 L 296.16677,512.5402 z M 329.26052,512.57145 L 329.26052,542.88395 L 337.22927,542.88395 L 337.19802,530.00895 L 346.54177,542.88395 L 356.32302,542.88395 C 356.32302,542.87109 343.41677,526.00895 343.41677,526.00895 L 356.01052,512.57145 L 346.41677,512.57145 L 337.19802,523.32145 L 337.22927,512.57145 L 329.26052,512.57145 z M 304.13552,519.94645 L 306.26052,519.94645 C 312.27975,519.94645 316.57302,521.59921 316.57302,527.75895 C 316.57302,533.34355 311.76628,535.50895 306.51052,535.50895 L 304.13552,535.50895 L 304.13552,519.94645 z M 251.57302,529.0402 C 250.92238,533.10443 250.57705,537.30433 250.51052,541.5402 C 250.38536,549.50347 251.30348,557.18371 253.19802,564.5402 L 260.97927,562.57145 C 259.2593,555.89421 258.39688,548.89355 258.51052,541.6652 C 258.57091,537.81807 258.91975,534.04406 259.51052,530.3527 L 251.57302,529.0402 z M 367.19802,534.4152 C 365.70425,534.4152 364.10427,535.2233 364.10427,536.9152 C 364.10427,538.46794 365.34549,538.93431 366.57302,539.25895 C 367.79049,539.58369 369.04177,539.74154 369.04177,540.63395 C 369.04178,541.47929 368.05302,541.6652 367.41677,541.6652 C 366.44303,541.6652 365.60427,541.23445 365.60427,540.13395 L 363.82302,540.13395 C 363.79928,542.17318 365.52301,543.07145 367.35427,543.07145 C 369.60176,543.07145 370.79177,541.93373 370.79177,540.4152 C 370.79178,538.53769 368.95676,538.15971 368.35427,538.00895 C 366.27926,537.47608 365.88552,537.3962 365.88552,536.75895 C 365.88552,536.06434 366.55676,535.82145 367.13552,535.82145 C 368.00553,535.82145 368.70177,536.07536 368.76052,537.07145 L 370.51052,537.07145 C 370.51051,535.16045 368.92552,534.4152 367.19802,534.4152 z M 372.54177,534.6027 L 372.54177,535.94645 L 374.10427,535.94645 L 374.10427,534.6027 L 372.54177,534.6027 z M 374.91677,534.6027 L 374.91677,535.94645 L 376.47927,535.94645 L 376.47927,534.6027 L 374.91677,534.6027 z M 382.76052,534.6027 L 382.76052,537.6027 C 382.37801,537.01132 381.68673,536.7277 380.97927,536.7277 C 379.21678,536.7277 378.32302,538.2108 378.32302,539.82145 C 378.32302,541.47855 379.20431,543.0402 381.01052,543.0402 C 381.77551,543.0402 382.44056,542.75154 382.82302,542.1027 L 382.85427,542.1027 L 382.85427,542.88395 L 384.41677,542.88395 L 384.41677,534.6027 L 382.76052,534.6027 z M 389.85427,534.6027 L 389.85427,537.6027 L 389.82302,537.6027 C 389.44055,537.01132 388.74801,536.7277 388.04177,536.7277 C 386.2805,536.7277 385.38552,538.2108 385.38552,539.82145 C 385.38553,541.47855 386.26552,543.0402 388.07302,543.0402 C 388.83678,543.0402 389.50302,542.75154 389.88552,542.1027 L 389.91677,542.1027 L 389.91677,542.88395 L 391.47927,542.88395 L 391.47927,534.6027 L 389.85427,534.6027 z M 423.19802,534.6027 L 423.19802,542.88395 L 424.85427,542.88395 L 424.85427,539.7277 C 424.85427,538.51074 425.21175,538.00895 426.10427,538.00895 C 426.86928,538.00896 427.16677,538.49321 427.16677,539.4777 L 427.16677,542.88395 L 428.82302,542.88395 L 428.82302,539.19645 C 428.82301,537.71319 428.38427,536.7277 426.63552,536.7277 C 426.02054,536.7277 425.30303,537.05509 424.88552,537.7277 L 424.85427,537.7277 L 424.85427,534.6027 L 423.19802,534.6027 z M 406.69802,535.07145 L 406.69802,536.88395 L 405.69802,536.88395 L 405.69802,537.9777 L 406.69802,537.9777 L 406.69802,541.50895 C 406.69802,542.70267 407.56426,542.94645 408.57302,542.94645 C 408.89675,542.94645 409.26301,542.92973 409.54177,542.88395 L 409.54177,541.6027 C 409.36677,541.63747 409.21549,541.63395 409.04177,541.63395 C 408.4855,541.63396 408.32302,541.50241 408.32302,540.94645 L 408.32302,537.9777 L 409.54177,537.9777 L 409.54177,536.88395 L 408.32302,536.88395 L 408.32302,535.07145 L 406.69802,535.07145 z M 395.51052,536.7277 C 393.69052,536.7277 392.44802,538.08773 392.44802,539.88395 C 392.44801,541.73759 393.62052,543.0402 395.51052,543.0402 C 396.86551,543.0402 397.82802,542.422 398.29177,541.00895 L 396.85427,541.00895 C 396.75054,541.37948 396.20178,541.7902 395.54177,541.7902 C 394.62678,541.7902 394.11801,541.33258 394.07302,540.2902 L 398.41677,540.2902 C 398.53304,538.44809 397.54926,536.7277 395.51052,536.7277 z M 412.79177,536.7277 C 411.5055,536.7277 410.16677,537.1038 410.16677,538.63395 C 410.16676,539.68804 411.12303,540.01835 412.07302,540.2277 C 413.25552,540.48221 413.94802,540.6672 413.94802,541.1652 C 413.94802,541.74507 413.32926,541.94645 412.85427,541.94645 C 412.2055,541.94645 411.61551,541.63419 411.60427,540.9152 L 410.04177,540.9152 C 410.11177,542.5033 411.46301,543.0402 412.85427,543.0402 C 414.2218,543.0402 415.57302,542.52291 415.57302,540.94645 C 415.57303,539.83428 414.6605,539.47871 413.69802,539.25895 C 412.76051,539.03861 411.82302,538.97546 411.82302,538.38395 C 411.82302,537.89759 412.35802,537.82145 412.72927,537.82145 C 413.3205,537.82145 413.80802,537.9962 413.85427,538.63395 L 415.41677,538.63395 C 415.28925,537.16246 414.10052,536.7277 412.79177,536.7277 z M 419.41677,536.7277 C 417.47054,536.7277 416.35427,538.08118 416.35427,539.94645 C 416.35427,541.74271 417.57678,543.0402 419.38552,543.0402 C 420.96054,543.0402 422.05178,542.15898 422.26052,540.57145 L 420.66677,540.57145 C 420.56301,541.30146 420.15053,541.7902 419.38552,541.7902 C 418.3543,541.7902 418.01052,540.77209 418.01052,539.9152 C 418.01052,539.03381 418.36303,537.94645 419.41677,537.94645 C 420.10049,537.94645 420.53052,538.30518 420.63552,538.9777 L 422.22927,538.9777 C 422.12427,537.44755 420.83054,536.7277 419.41677,536.7277 z M 432.82302,536.7277 C 431.00428,536.7277 429.76052,538.08773 429.76052,539.88395 C 429.76052,541.73759 430.93427,543.0402 432.82302,543.0402 C 434.17926,543.0402 435.17305,542.422 435.63552,541.00895 L 434.19802,541.00895 C 434.09302,541.37948 433.54553,541.7902 432.88552,541.7902 C 431.96924,541.7902 431.46427,541.33258 431.41677,540.2902 L 435.72927,540.2902 C 435.8455,538.44809 434.86302,536.7277 432.82302,536.7277 z M 371.69802,536.88395 L 371.69802,540.57145 C 371.69802,542.05457 372.13677,543.0402 373.88552,543.0402 C 374.58052,543.0402 375.31178,542.7122 375.72927,542.0402 L 375.76052,542.0402 L 375.76052,542.88395 L 377.32302,542.88395 L 377.32302,536.88395 L 375.66677,536.88395 L 375.66677,540.00895 C 375.66677,541.22597 375.27802,541.7277 374.38552,541.7277 C 373.62054,541.7277 373.35427,541.2434 373.35427,540.25895 L 373.35427,536.88395 L 371.69802,536.88395 z M 399.38552,536.88395 L 399.38552,540.57145 C 399.38551,542.05457 399.82303,543.0402 401.57302,543.0402 C 402.26803,543.0402 402.96802,542.7122 403.38552,542.0402 L 403.44802,542.0402 L 403.44802,542.88395 L 405.01052,542.88395 L 405.01052,536.88395 L 403.35427,536.88395 L 403.35427,540.00895 C 403.35427,541.22597 402.96552,541.7277 402.07302,541.7277 C 401.30928,541.7277 401.01052,541.2434 401.01052,540.25895 L 401.01052,536.88395 L 399.38552,536.88395 z M 381.41677,537.94645 C 382.48301,537.94645 382.82302,538.87919 382.82302,539.8527 C 382.82302,540.83781 382.50552,541.7902 381.41677,541.7902 C 380.39676,541.7902 379.94802,540.82268 379.94802,539.88395 C 379.94803,538.89832 380.33927,537.94645 381.41677,537.94645 z M 388.47927,537.94645 C 389.54554,537.94645 389.88552,538.87919 389.88552,539.8527 C 389.88551,540.83781 389.56801,541.7902 388.47927,541.7902 C 387.45926,541.7902 387.04177,540.82268 387.04177,539.88395 C 387.04177,538.89832 387.40174,537.94645 388.47927,537.94645 z M 395.44802,537.94645 C 396.24802,537.94645 396.61051,538.39396 396.76052,539.2277 L 394.07302,539.2277 C 394.09551,538.76445 394.40552,537.94645 395.44802,537.94645 z M 432.79177,537.94645 C 433.59051,537.94645 433.95303,538.39396 434.10427,539.2277 L 431.41677,539.2277 C 431.44052,538.76445 431.74927,537.94645 432.79177,537.94645 z M 364.35427,545.7277 L 364.35427,554.0402 L 366.13552,554.0402 L 366.13552,550.32145 L 368.91677,554.0402 L 371.07302,554.0402 C 371.07302,554.03597 367.57302,549.4152 367.57302,549.4152 L 371.01052,545.75895 L 368.82302,545.75895 L 366.13552,548.75895 L 366.13552,545.7277 L 364.35427,545.7277 z M 389.82302,545.75895 L 389.82302,554.0402 L 391.47927,554.0402 L 391.47927,551.9777 L 392.10427,551.3527 L 393.76052,554.0402 L 395.76052,554.0402 L 393.22927,550.25895 L 395.51052,548.0402 L 393.54177,548.0402 L 391.47927,550.19645 L 391.47927,545.75895 L 389.82302,545.75895 z M 414.07302,545.82145 L 414.07302,554.1027 L 419.91677,554.1027 L 419.91677,552.57145 L 415.88552,552.57145 L 415.88552,545.82145 L 414.07302,545.82145 z M 427.41677,545.82145 L 427.41677,554.1027 L 428.97927,554.1027 L 428.97927,553.32145 L 429.01052,553.32145 C 429.36928,553.9807 430.09802,554.25895 430.97927,554.25895 C 432.17303,554.25895 433.44802,553.30478 433.44802,551.1027 C 433.44802,548.91268 432.17302,547.94645 430.97927,547.94645 C 430.23676,547.94645 429.47923,548.23869 429.07302,548.8527 L 429.07302,545.82145 L 427.41677,545.82145 z M 453.66677,545.82145 L 450.51052,554.1027 L 452.35427,554.1027 L 453.01052,552.25895 L 456.10427,552.25895 L 456.72927,554.1027 L 458.63552,554.1027 L 455.54177,545.82145 L 453.66677,545.82145 z M 459.22927,545.82145 L 459.22927,554.1027 L 460.85427,554.1027 L 460.85427,545.82145 L 459.22927,545.82145 z M 462.19802,545.82145 L 462.19802,554.1027 L 463.85427,554.1027 L 463.85427,545.82145 L 462.19802,545.82145 z M 496.07302,545.82145 L 496.07302,547.1652 L 497.69802,547.1652 L 497.69802,545.82145 L 496.07302,545.82145 z M 454.57302,547.8527 L 454.60427,547.8527 L 455.63552,550.9152 L 453.47927,550.9152 L 454.57302,547.8527 z M 375.16677,547.88395 C 374.36804,547.88395 373.56302,548.41191 373.26052,549.1652 L 373.22927,549.1652 L 373.22927,548.0402 L 371.66677,548.0402 L 371.66677,554.0402 L 373.29177,554.0402 L 373.29177,551.3527 C 373.29177,550.29794 373.71177,549.4152 374.91677,549.4152 C 375.113,549.4152 375.35927,549.44284 375.51052,549.4777 L 375.51052,547.94645 C 375.40552,547.91109 375.28302,547.88395 375.16677,547.88395 z M 378.91677,547.88395 C 377.57303,547.88395 376.19677,548.3433 376.10427,549.88395 L 377.72927,549.88395 C 377.78679,549.23506 378.19677,548.9777 378.82302,548.9777 C 379.40302,548.9777 379.88552,549.08284 379.88552,549.7902 C 379.88552,550.46158 378.95551,550.45198 377.94802,550.6027 C 376.92801,550.74247 375.91677,551.06018 375.91677,552.4152 C 375.91678,553.6438 376.81306,554.19645 377.94802,554.19645 C 378.67802,554.19645 379.45797,554.02221 379.97927,553.4777 C 379.99174,553.67493 380.01428,553.85474 380.07302,554.0402 L 381.76052,554.0402 C 381.60928,553.79671 381.54177,553.24084 381.54177,552.69645 L 381.54177,549.6027 C 381.54177,548.16594 380.11052,547.88395 378.91677,547.88395 z M 386.26052,547.88395 C 385.56553,547.88395 384.83427,548.21135 384.41677,548.88395 L 384.38552,548.88395 L 384.38552,548.0402 L 382.82302,548.0402 L 382.82302,554.0402 L 384.44802,554.0402 L 384.44802,550.9152 C 384.44803,549.69815 384.83677,549.19645 385.72927,549.19645 C 386.49301,549.19645 386.79177,549.68006 386.79177,550.6652 L 386.79177,554.0402 L 388.44802,554.0402 L 388.44802,550.3527 C 388.44802,548.86944 388.0105,547.88395 386.26052,547.88395 z M 399.10427,547.88395 C 397.28426,547.88395 396.04177,549.24398 396.04177,551.0402 C 396.04178,552.89322 397.21552,554.19645 399.10427,554.19645 C 400.45927,554.19645 401.45302,553.60941 401.91677,552.19645 L 400.44802,552.19645 C 400.34427,552.56694 399.82803,552.9777 399.16677,552.9777 C 398.25179,552.9777 397.74427,552.48948 397.69802,551.44645 L 402.01052,551.44645 C 402.12549,549.60434 401.14302,547.88395 399.10427,547.88395 z M 406.41677,547.88395 C 405.72053,547.88395 404.99052,548.21135 404.57302,548.88395 L 404.54177,548.88395 L 404.54177,548.0402 L 402.97927,548.0402 L 402.97927,554.0402 L 404.63552,554.0402 L 404.63552,550.9152 C 404.63553,549.69815 405.02426,549.19645 405.91677,549.19645 C 406.68176,549.19645 406.94802,549.68006 406.94802,550.6652 L 406.94802,554.0402 L 408.60427,554.0402 L 408.60427,550.3527 C 408.60427,548.86944 408.16552,547.88395 406.41677,547.88395 z M 423.54177,547.94645 C 421.72302,547.94645 420.47927,549.30644 420.47927,551.1027 C 420.47927,552.95695 421.65426,554.25895 423.54177,554.25895 C 424.89803,554.25895 425.85927,553.67317 426.32302,552.25895 L 424.88552,552.25895 C 424.78177,552.63007 424.26551,553.00895 423.60427,553.00895 C 422.68802,553.00895 422.15052,552.55136 422.10427,551.50895 L 426.44802,551.50895 C 426.56303,549.66623 425.58177,547.94645 423.54177,547.94645 z M 437.26052,547.94645 C 435.44053,547.94645 434.19802,549.30644 434.19802,551.1027 C 434.19802,552.95695 435.37053,554.25895 437.26052,554.25895 C 438.61552,554.25895 439.60928,553.67317 440.07302,552.25895 L 438.60427,552.25895 C 438.49927,552.63007 437.98302,553.00895 437.32302,553.00895 C 436.40679,553.00895 435.90178,552.55136 435.85427,551.50895 L 440.16677,551.50895 C 440.28305,549.66623 439.29931,547.94645 437.26052,547.94645 z M 444.57302,547.94645 C 443.87803,547.94645 443.14677,548.27456 442.72927,548.94645 L 442.69802,548.94645 L 442.69802,548.1027 L 441.13552,548.1027 L 441.13552,554.1027 L 442.79177,554.1027 L 442.79177,550.94645 C 442.79178,549.72945 443.18056,549.25895 444.07302,549.25895 C 444.83804,549.25895 445.10427,549.74321 445.10427,550.7277 L 445.10427,554.1027 L 446.76052,554.1027 L 446.76052,550.4152 C 446.76052,548.93209 446.32304,547.94645 444.57302,547.94645 z M 467.54177,547.94645 C 465.86178,547.94645 464.94802,549.36181 464.94802,550.9152 C 464.94803,552.56007 465.71432,553.9152 467.51052,553.9152 C 468.22928,553.9152 468.96425,553.63505 469.32302,553.00895 L 469.32302,553.7902 C 469.33549,554.64781 468.92676,555.25895 468.01052,555.25895 C 467.43175,555.25895 466.94174,555.06042 466.79177,554.44645 L 465.16677,554.44645 C 465.24802,555.81291 466.61049,556.38395 467.79177,556.38395 C 470.55047,556.38395 470.91677,554.71281 470.91677,553.7277 L 470.91677,548.1027 L 469.32302,548.1027 L 469.32302,548.9152 C 468.92925,548.22009 468.33053,547.94645 467.54177,547.94645 z M 474.97927,547.94645 C 473.15926,547.94645 471.94802,549.30644 471.94802,551.1027 C 471.94803,552.95695 473.09053,554.25895 474.97927,554.25895 C 476.33551,554.25895 477.32678,553.67317 477.79177,552.25895 L 476.35427,552.25895 C 476.24931,552.63007 475.70304,553.00895 475.04177,553.00895 C 474.12679,553.00895 473.62053,552.55136 473.57302,551.50895 L 477.88552,551.50895 C 478.00176,549.66623 477.01803,547.94645 474.97927,547.94645 z M 482.32302,547.94645 C 481.54677,547.94645 480.93927,548.30054 480.51052,548.9152 L 480.47927,548.9152 L 480.47927,548.1027 L 478.91677,548.1027 L 478.91677,554.1027 L 480.57302,554.1027 L 480.57302,550.63395 C 480.57303,549.46384 481.34181,549.25895 481.66677,549.25895 C 482.70929,549.25895 482.66677,550.03255 482.66677,550.7277 L 482.66677,554.1027 L 484.32302,554.1027 L 484.32302,550.75895 C 484.32303,550.00646 484.48928,549.25895 485.41677,549.25895 C 486.35555,549.25895 486.41677,549.89631 486.41677,550.69645 L 486.41677,554.1027 L 488.07302,554.1027 L 488.07302,550.1027 C 488.07301,548.55057 487.16051,547.94645 485.88552,547.94645 C 485.05175,547.94645 484.42052,548.42536 484.07302,548.94645 C 483.74927,548.22871 483.07551,547.94645 482.32302,547.94645 z M 492.13552,547.94645 C 490.31672,547.94645 489.07302,549.30644 489.07302,551.1027 C 489.07302,552.95695 490.24673,554.25895 492.13552,554.25895 C 493.49174,554.25895 494.48428,553.67317 494.94802,552.25895 L 493.51052,552.25895 C 493.40553,552.63007 492.85678,553.00895 492.19802,553.00895 C 491.28177,553.00895 490.77555,552.55136 490.72927,551.50895 L 495.04177,551.50895 C 495.158,549.66623 494.17547,547.94645 492.13552,547.94645 z M 502.44802,547.94645 C 501.75302,547.94645 501.02177,548.27456 500.60427,548.94645 L 500.57302,548.94645 L 500.57302,548.1027 L 499.01052,548.1027 L 499.01052,554.1027 L 500.66677,554.1027 L 500.66677,550.94645 C 500.66678,549.72945 501.02431,549.25895 501.91677,549.25895 C 502.683,549.25895 502.97927,549.74321 502.97927,550.7277 L 502.97927,554.1027 L 504.63552,554.1027 L 504.63552,550.4152 C 504.63551,548.93209 504.19804,547.94645 502.44802,547.94645 z M 508.63552,547.94645 C 506.81552,547.94645 505.57302,549.30644 505.57302,551.1027 C 505.57303,552.95695 506.74551,554.25895 508.63552,554.25895 C 509.99049,554.25895 510.98428,553.67317 511.44802,552.25895 L 510.01052,552.25895 C 509.90678,552.63007 509.35802,553.00895 508.69802,553.00895 C 507.78301,553.00895 507.27556,552.55136 507.22927,551.50895 L 511.54177,551.50895 C 511.65801,549.66623 510.67423,547.94645 508.63552,547.94645 z M 496.07302,548.1027 L 496.07302,554.1027 L 497.69802,554.1027 L 497.69802,548.1027 L 496.07302,548.1027 z M 399.07302,549.13395 C 399.87302,549.13395 400.20302,549.5802 400.35427,550.4152 L 397.69802,550.4152 C 397.72178,549.95134 398.03178,549.13395 399.07302,549.13395 z M 423.47927,549.19645 C 424.27803,549.19645 424.64179,549.61268 424.79177,550.44645 L 422.10427,550.44645 C 422.12676,549.98385 422.43553,549.19645 423.47927,549.19645 z M 430.41677,549.19645 C 431.39051,549.19645 431.79177,550.09444 431.79177,551.1027 C 431.79177,552.09945 431.39051,553.00895 430.41677,553.00895 C 429.44428,553.00895 429.01052,552.09945 429.01052,551.1027 C 429.01051,550.09444 429.44428,549.19645 430.41677,549.19645 z M 437.22927,549.19645 C 438.02924,549.19645 438.35927,549.61268 438.51052,550.44645 L 435.85427,550.44645 C 435.87804,549.98385 436.18677,549.19645 437.22927,549.19645 z M 467.94802,549.19645 C 469.013,549.19645 469.32302,550.0673 469.32302,551.0402 C 469.32303,551.89771 468.88676,552.69645 467.94802,552.69645 C 466.93925,552.69645 466.60427,551.74085 466.60427,550.88395 C 466.60426,549.99162 467.02051,549.19645 467.94802,549.19645 z M 474.94802,549.19645 C 475.74675,549.19645 476.10927,549.61268 476.26052,550.44645 L 473.57302,550.44645 C 473.59678,549.98385 473.90552,549.19645 474.94802,549.19645 z M 492.10427,549.19645 C 492.90303,549.19645 493.26673,549.61268 493.41677,550.44645 L 490.72927,550.44645 C 490.75304,549.98385 491.06177,549.19645 492.10427,549.19645 z M 508.60427,549.19645 C 509.40424,549.19645 509.76673,549.61268 509.91677,550.44645 L 507.22927,550.44645 C 507.25305,549.98385 507.56173,549.19645 508.60427,549.19645 z M 379.88552,551.1027 L 379.88552,551.7277 C 379.88552,552.0872 379.85926,553.1027 378.57302,553.1027 C 378.04051,553.1027 377.54177,552.96667 377.54177,552.3527 C 377.54177,551.74968 378.03175,551.55083 378.54177,551.44645 C 379.05299,551.35368 379.60807,551.34619 379.88552,551.1027 z"
       id="path5274"
       style="fill:#3c5ba3;fill-opacity:1;fill-rule:evenodd;stroke:none" />
    <path
       d="M 248.1121,500.18416 L 255.35388,503.68453 C 249.86071,515.13651 246.69486,527.94055 246.48246,541.47326 C 246.47571,541.9139 246.47205,542.44551 246.47147,542.88489 L 238.44901,542.88126 C 238.44962,542.40154 238.45328,541.80404 238.46118,541.323 C 238.69253,526.5879 242.12695,512.6512 248.1121,500.18416 z"
       id="path5282"
       style="fill:#cf7127;fill-opacity:1;fill-rule:nonzero;stroke:none" />
  </g>
</svg>
<!-- version: 20080810, original size: 273.10199 64.356041, border: 3% -->
