<?xml version="1.0" encoding="utf-8"?>
<!-- Generator: Adobe Illustrator 23.0.4, SVG Export Plug-In . SVG Version: 6.00 Build 0)  -->
<svg version="1.1" id="UV_Logo" xmlns="http://www.w3.org/2000/svg" xmlns:xlink="http://www.w3.org/1999/xlink" x="0px" y="0px"
	 viewBox="0 0 652 108" style="enable-background:new 0 0 652 108;" xml:space="preserve">
<style type="text/css">
	.st0{fill:#4770B4;}
	.st1{fill-rule:evenodd;clip-rule:evenodd;fill:#4770B4;}
</style>
<path class="st0" d="M203,18.4v34.3c0,16.3,8.1,27.4,26.8,27.4s26.8-11.1,26.8-27.4V18.4h-12.2v33c0,9.6-2.6,18-14.6,18
	c-12.1,0-14.6-8.4-14.6-18v-33H203L203,18.4z"/>
<path class="st0" d="M281.5,18.4h-12.2V78h12.2V50.7c0-10.8,0-23.8,15.7-23.8c12.5,0,14,6.9,14,17.1v34.1h12.2V42.5
	c0-14.5-4.6-25.9-22.5-25.9c-7.7,0-15.3,3.4-19.1,9.8h-0.3L281.5,18.4L281.5,18.4z"/>
<polygon class="st1" points="347.9,18.4 335.7,18.4 335.7,78.1 347.9,78.1 "/>
<polygon class="st0" points="363.5,7.2 349.3,7.2 393.7,91.5 438,7.2 424,7.2 393.7,66.3 "/>
<path class="st1" d="M490.1,50.2v-1.8c0-17.7-9.5-31.7-29.7-31.7c-20.5,0-30.9,13.8-30.9,32.1c0,17.6,11.8,31.3,31.2,31.3
	c12.3,0,23.4-6,29.4-16.3l-10.3-5.5c-4.6,7.1-9.6,11.6-19,11.6c-11.6,0-19-9.6-19.1-19.8L490.1,50.2L490.1,50.2z M442.4,41.5
	c1.5-8.5,8.5-14.9,18-14.9c9.8,0,16,6,17.5,14.9H442.4L442.4,41.5z"/>
<path class="st0" d="M511.5,18.4h-12.2V78h12.2V48.8c0-9.7,1.6-21.2,14.8-21.2c2.8,0,5.3,0.6,7.4,2.4l5.6-10.4
	c-3-1.8-6.5-2.9-10-2.9c-8.1,0-14.4,4.5-17.3,11.5h-0.4v-9.8H511.5z"/>
<path class="st0" d="M538,58.9h10.9c0.5,4.1,2.2,6.3,4.9,8.5c2.8,2.2,6.6,3.4,11.6,3.5s8.8-0.8,11.3-2.7c2.5-1.9,3.7-4.2,3.8-6.8
	c0-2.3-1-4.2-3.1-5.6c-1.5-0.9-5.2-2.2-11.2-3.7c-8-2.1-13.6-3.8-16.7-5.2c-3.1-1.5-5.4-3.4-7-5.9c-1.5-2.5-2.3-5.3-2.2-8.2
	c0-2.7,0.7-5.2,2.1-7.5c1.4-2.3,3.2-4.2,5.5-5.7c1.7-1.2,4.1-2.1,7-2.9c3-0.8,6.2-1.2,9.5-1.1c5.1,0.1,9.5,0.9,13.3,2.3
	s6.6,3.4,8.4,5.8c1.8,2.4,3,7,3.6,10.9H579c-0.4-3.1-1.8-5.9-4.1-7.7c-2.3-1.8-5.6-2.7-9.8-2.8c-5-0.1-8.7,0.6-10.8,2.2
	c-2.2,1.5-3.3,3.3-3.3,5.4c0,1.3,0.4,2.6,1.3,3.6c0.9,1.1,2.3,2.1,4.2,2.8c1.1,0.4,4.3,1.3,9.6,2.8c7.7,2.1,13.1,3.8,16.1,5.1
	c3.1,1.3,5.5,3.1,7.2,5.5s2.5,5.4,2.5,8.9c-0.1,3.4-1.2,6.7-3.4,9.7s-5.3,5.3-9.3,6.9c-4.1,1.6-8.6,2.3-13.7,2.2
	c-8.4-0.1-14.8-1.9-19.2-5.3C541.8,70.8,539.1,65.4,538,58.9L538,58.9z"/>
<path class="st1" d="M605.8,58.2c0-8.3,8.2-15,17-15s17,4,17,15c0,11.1-8.2,15-17,15S605.8,66.5,605.8,58.2L605.8,58.2z M642.1,74.2
	c-4.9,3.8-11.5,6.1-18.7,6.1c-15,0-27.2-9.9-27.2-22.1s12.2-22.1,27.2-22.1c6.7,0,12.7,1.9,17.5,5.2c0-1.4,0-4.3,0-4.6
	c0-4.2-1-7.2-3.1-8.9c-2.8-2.3-7-3.5-12.5-3.5c-5.2,0-9,1.1-11.5,2.9c-2.4,1.7-3.6,2.8-4.8,7.1l-11.4,0.2c1-4.3,2.6-7.8,4.8-10.4
	c2.2-2.7,5.5-5,9.7-6.4c4.2-1.5,9.1-2.2,14.7-2.2c5.5,0,10,0.9,13.5,2.1s5.7,2.8,7.3,4.6c1.6,1.8,3.1,4.2,3.7,7
	c0.4,1.8,0.5,4.9,0.5,9.5v13.8c0,9.6,0.1,21.9,0.1,26h-10C642,77.1,642.1,75.8,642.1,74.2L642.1,74.2z"/>
<path class="st0" d="M172,33.1l10.6-16.4h-55.8l5.9-9.5h-23.4l-18,29.7l-18-29.7H49.9l5.9,9.5H0l10.6,16.4h43.9v1.5H11.4l9.7,16.3
	h33.4v1.5h-32l9.9,16.2H55c1.9,18.1,17.6,32.1,36,32.1h0.6c18.4,0,34.1-14,36-32.1h22.6l9.9-16.2h-32v-1.5h33.4l9.7-16.3H128v-1.5
	H172z M52.9,8.9h19.5l18.9,31.2l18.9-31.2h19.5l-38.3,62L52.9,8.9z M104,53.5v12.3c0,6.9-5.6,12.3-12.7,12.3s-12.7-5.4-12.7-12.3
	V53.5L91.3,74L104,53.5z M168.2,36.3l-7.7,13h-34.1v4.8H157L149.2,67H126l-0.1,0.8c-1.5,17.6-16.6,31.3-34.4,31.3H91
	c-17.8,0-32.9-13.8-34.4-31.3L56.5,67H33.4l-7.8-12.9h30.7v-4.9H22.1l-7.7-13h41.8v-4.8H11.5l-8.4-13h53.8l20,32.4v15
	c0,7.8,6.3,13.9,14.3,14h0.1c8-0.1,14.3-6.2,14.3-14v-15l20-32.4h53.8l-8.4,13h-44.7v4.8h41.9L168.2,36.3L168.2,36.3z"/>
</svg>
