<?xml version="1.0" encoding="UTF-8"?>
<svg width="29px" height="24px" viewBox="0 0 29 24" version="1.1" xmlns="http://www.w3.org/2000/svg" xmlns:xlink="http://www.w3.org/1999/xlink">
    <!-- Generator: Sketch 44.1 (41455) - http://www.bohemiancoding.com/sketch -->
    <title>Untitled 5</title>
    <desc>Created with Sketch.</desc>
    <defs></defs>
    <g id="Page-1" stroke="none" stroke-width="1" fill="none" fill-rule="evenodd" stroke-linecap="square">
        <g id="icon" transform="translate(2.000000, 1.000000)" stroke="#979797">
            <path d="M5.71428571,10.8313623 L5.71428571,17.1771426" id="Line" stroke-width="3"></path>
            <path d="M10.2857143,6.27073433 L10.2857143,17.1771426" id="Line" stroke-width="3"></path>
            <path d="M14.8571429,8 L14.8571429,17.1771426" id="Line" stroke-width="3"></path>
            <path d="M19.4285714,4.57142857 L19.4285714,17.1771426" id="Line" stroke-width="3"></path>
            <path d="M1.71428571,0.571428571 L1.71428571,21.2694517" id="Line"></path>
            <path d="M22.9837375,21.7142857 L1.70661105,21.7142857" id="Line"></path>
        </g>
    </g>
</svg>