<?xml version="1.0" encoding="UTF-8"?>
<svg width="30px" height="26px" viewBox="0 0 30 26" version="1.1" xmlns="http://www.w3.org/2000/svg" xmlns:xlink="http://www.w3.org/1999/xlink">
    <!-- Generator: Sketch 44.1 (41455) - http://www.bohemiancoding.com/sketch -->
    <title>Untitled 6</title>
    <desc>Created with Sketch.</desc>
    <defs>
        <rect id="path-1" x="9.40951493" y="24.1666085" width="11.563083" height="1.05072211" rx="0.525361055"></rect>
    </defs>
    <g id="Page-1" stroke="none" stroke-width="1" fill="none" fill-rule="evenodd">
        <rect id="Rectangle-3" stroke="#FFFFFF" x="1.5" y="0.5" width="27.3821129" height="20.0144422" rx="2"></rect>
        <path d="M1.52559468,16.2861927 L28.8565182,16.2861927" id="Line" stroke="#FFFFFF" stroke-linecap="square"></path>
        <path d="M12.0374883,20.4890811 L12.0374883,23.6412475" id="Line" stroke="#FFFFFF" stroke-linecap="square"></path>
        <path d="M18.3446245,20.4890811 L18.3446245,23.6412475" id="Line" stroke="#FFFFFF" stroke-linecap="square"></path>
        <g id="Rectangle-4">
            <use fill="#D8D8D8" fill-rule="evenodd" xlink:href="#path-1"></use>
            <rect stroke="#FFFFFF" stroke-width="1" x="9.90951493" y="24.6666085" width="10.563083" height="1" rx="0.5"></rect>
        </g>
        <ellipse id="Oval" stroke="#FFFFFF" fill="#D8D8D8" cx="15.1910564" cy="18.3876369" rx="1" ry="1"></ellipse>
    </g>
</svg>