<?xml version="1.0" encoding="UTF-8"?>
<svg width="140px" height="85px" viewBox="0 0 140 85" version="1.1" xmlns="http://www.w3.org/2000/svg" xmlns:xlink="http://www.w3.org/1999/xlink">
    <!-- Generator: Sketch 44.1 (41455) - http://www.bohemiancoding.com/sketch -->
    <title>Slice</title>
    <desc>Created with Sketch.</desc>
    <defs></defs>
    <g id="Page-1" stroke="none" stroke-width="1" fill="none" fill-rule="evenodd">
        <g id="Logo-BigHub" transform="translate(42.000000, 34.000000)" fill="#79797B">
            <path d="M0.386,1.264 L4.4,1.264 C5.01200306,1.264 5.57899739,1.30899955 6.101,1.399 C6.62300261,1.48900045 7.07899805,1.64799886 7.469,1.876 C7.85900195,2.10400114 8.16499889,2.40399814 8.387,2.776 C8.60900111,3.14800186 8.72,3.61599718 8.72,4.18 C8.72,4.44400132 8.68100039,4.70799868 8.603,4.972 C8.52499961,5.23600132 8.40800078,5.48199886 8.252,5.71 C8.09599922,5.93800114 7.89200126,6.1419991 7.64,6.322 C7.38799874,6.5020009 7.09400168,6.63399958 6.758,6.718 L6.758,6.79 C7.5980042,6.94600078 8.23099787,7.24599778 8.657,7.69 C9.08300213,8.13400222 9.296,8.75199604 9.296,9.544 C9.296,10.144003 9.17900117,10.6599978 8.945,11.092 C8.71099883,11.5240022 8.38700207,11.8809986 7.973,12.163 C7.55899793,12.4450014 7.07600276,12.6549993 6.524,12.793 C5.97199724,12.9310007 5.37800318,13 4.742,13 L0.386,13 L0.386,1.264 Z M4.274,5.998 C4.92200324,5.998 5.39299853,5.86900129 5.687,5.611 C5.98100147,5.35299871 6.128,5.00200222 6.128,4.558 C6.128,4.11399778 5.9780015,3.79600096 5.678,3.604 C5.3779985,3.41199904 4.91600312,3.316 4.292,3.316 L3.032,3.316 L3.032,5.998 L4.274,5.998 Z M4.526,10.948 C5.97800726,10.948 6.704,10.4140053 6.704,9.346 C6.704,8.82999742 6.5240018,8.45500117 6.164,8.221 C5.8039982,7.98699883 5.25800366,7.87 4.526,7.87 L3.032,7.87 L3.032,10.948 L4.526,10.948 Z M12.374,2.758 C11.9299978,2.758 11.5640014,2.62900129 11.276,2.371 C10.9879986,2.11299871 10.844,1.78000204 10.844,1.372 C10.844,0.96399796 10.9879986,0.63400126 11.276,0.382 C11.5640014,0.12999874 11.9299978,0.004 12.374,0.004 C12.8300023,0.004 13.1989986,0.12999874 13.481,0.382 C13.7630014,0.63400126 13.904,0.96399796 13.904,1.372 C13.904,1.78000204 13.7630014,2.11299871 13.481,2.371 C13.1989986,2.62900129 12.8300023,2.758 12.374,2.758 Z M11.06,4.072 L13.706,4.072 L13.706,13 L11.06,13 L11.06,4.072 Z M17.648,14.116 C17.648,14.4520017 17.8279982,14.7069991 18.188,14.881 C18.5480018,15.0550009 19.027997,15.142 19.628,15.142 C20.228003,15.142 20.7199981,15.037001 21.104,14.827 C21.4880019,14.616999 21.68,14.3560016 21.68,14.044 C21.68,13.7679986 21.5630012,13.5820005 21.329,13.486 C21.0949988,13.3899995 20.7560022,13.342 20.312,13.342 L19.394,13.342 C19.0819984,13.342 18.830001,13.3330001 18.638,13.315 C18.445999,13.2969999 18.2780007,13.2700002 18.134,13.234 C17.8099984,13.5220014 17.648,13.8159985 17.648,14.116 Z M15.47,14.53 C15.47,13.8099964 15.8959957,13.2100024 16.748,12.73 L16.748,12.658 C16.5079988,12.5019992 16.3100008,12.3040012 16.154,12.064 C15.9979992,11.8239988 15.92,11.5180019 15.92,11.146 C15.92,10.8219984 16.015999,10.5130015 16.208,10.219 C16.400001,9.92499853 16.6399986,9.67600102 16.928,9.472 L16.928,9.4 C16.6159984,9.18399892 16.3370012,8.87500201 16.091,8.473 C15.8449988,8.07099799 15.722,7.60600264 15.722,7.078 C15.722,6.5379973 15.823999,6.06700201 16.028,5.665 C16.232001,5.26299799 16.5049983,4.92700135 16.847,4.657 C17.1890017,4.38699865 17.5819978,4.18600066 18.026,4.054 C18.4700022,3.92199934 18.9319976,3.856 19.412,3.856 C19.9400026,3.856 20.401998,3.92799928 20.798,4.072 L24.056,4.072 L24.056,5.998 L22.634,5.998 C22.7180004,6.13000066 22.7869997,6.29799898 22.841,6.502 C22.8950003,6.70600102 22.922,6.9279988 22.922,7.168 C22.922,7.68400258 22.8320009,8.13099811 22.652,8.509 C22.4719991,8.88700189 22.2230016,9.19899877 21.905,9.445 C21.5869984,9.69100123 21.2150021,9.8739994 20.789,9.994 C20.3629979,10.1140006 19.9040025,10.174 19.412,10.174 C19.0639983,10.174 18.7040019,10.1140006 18.332,9.994 C18.2119994,10.0900005 18.1280002,10.1859995 18.08,10.282 C18.0319998,10.3780005 18.008,10.5039992 18.008,10.66 C18.008,10.8880011 18.106999,11.0559995 18.305,11.164 C18.503001,11.2720005 18.8539975,11.326 19.358,11.326 L20.798,11.326 C21.9020055,11.326 22.7449971,11.5029982 23.327,11.857 C23.9090029,12.2110018 24.2,12.789996 24.2,13.594 C24.2,14.0620023 24.0830012,14.4909981 23.849,14.881 C23.6149988,15.271002 23.2820022,15.6069986 22.85,15.889 C22.4179978,16.1710014 21.8960031,16.3929992 21.284,16.555 C20.6719969,16.7170008 19.9820038,16.798 19.214,16.798 C18.6859974,16.798 18.1970022,16.7530004 17.747,16.663 C17.2969977,16.5729995 16.9010017,16.4380009 16.559,16.258 C16.2169983,16.0779991 15.950001,15.8440014 15.758,15.556 C15.565999,15.2679986 15.47,14.926002 15.47,14.53 Z M19.412,8.572 C19.7600017,8.572 20.0509988,8.44900123 20.285,8.203 C20.5190012,7.95699877 20.636,7.58200252 20.636,7.078 C20.636,6.60999766 20.5190012,6.25300123 20.285,6.007 C20.0509988,5.76099877 19.7600017,5.638 19.412,5.638 C19.0639983,5.638 18.7730012,5.7579988 18.539,5.998 C18.3049988,6.2380012 18.188,6.5979976 18.188,7.078 C18.188,7.58200252 18.3049988,7.95699877 18.539,8.203 C18.7730012,8.44900123 19.0639983,8.572 19.412,8.572 Z M25.856,1.264 L28.502,1.264 L28.502,5.782 L32.552,5.782 L32.552,1.264 L35.216,1.264 L35.216,13 L32.552,13 L32.552,8.104 L28.502,8.104 L28.502,13 L25.856,13 L25.856,1.264 Z M37.682,4.072 L40.328,4.072 L40.328,9.274 C40.328,9.92200324 40.4179991,10.3659988 40.598,10.606 C40.7780009,10.8460012 41.0599981,10.966 41.444,10.966 C41.7800017,10.966 42.0619989,10.8880008 42.29,10.732 C42.5180011,10.5759992 42.7639987,10.3240017 43.028,9.976 L43.028,4.072 L45.674,4.072 L45.674,13 L43.514,13 L43.316,11.758 L43.262,11.758 C42.8779981,12.2140023 42.4670022,12.5709987 42.029,12.829 C41.5909978,13.0870013 41.0660031,13.216 40.454,13.216 C39.4819951,13.216 38.7770022,12.8980032 38.339,12.262 C37.9009978,11.6259968 37.682,10.7440056 37.682,9.616 L37.682,4.072 Z M47.996,0.382 L50.642,0.382 L50.642,3.478 L50.57,4.846 C50.9180017,4.53399844 51.292998,4.29100087 51.695,4.117 C52.097002,3.94299913 52.5079979,3.856 52.928,3.856 C53.4680027,3.856 53.9539978,3.96399892 54.386,4.18 C54.8180022,4.39600108 55.1869985,4.69899805 55.493,5.089 C55.7990015,5.47900195 56.0329992,5.95299721 56.195,6.511 C56.3570008,7.06900279 56.438,7.68999658 56.438,8.374 C56.438,9.14200384 56.3330011,9.825997 56.123,10.426 C55.912999,11.026003 55.6310018,11.5329979 55.277,11.947 C54.9229982,12.3610021 54.5210023,12.6759989 54.071,12.892 C53.6209978,13.1080011 53.1560024,13.216 52.676,13.216 C52.279998,13.216 51.881002,13.120001 51.479,12.928 C51.076998,12.735999 50.7020017,12.4480019 50.354,12.064 L50.282,12.064 L50.066,13 L47.996,13 L47.996,0.382 Z M50.642,10.48 C50.8820012,10.6960011 51.1219988,10.8459996 51.362,10.93 C51.6020012,11.0140004 51.8359989,11.056 52.064,11.056 C52.5200023,11.056 52.9099984,10.8490021 53.234,10.435 C53.5580016,10.0209979 53.72,9.35200462 53.72,8.428 C53.72,6.81999196 53.2040052,6.016 52.172,6.016 C51.6439974,6.016 51.1340025,6.2859973 50.642,6.826 L50.642,10.48 Z" id="BigHub"></path>
        </g>
    </g>
</svg>