<?xml version="1.0" encoding="UTF-8"?>
<svg width="140px" height="85px" viewBox="0 0 140 85" version="1.1" xmlns="http://www.w3.org/2000/svg" xmlns:xlink="http://www.w3.org/1999/xlink">
    <!-- Generator: Sketch 44.1 (41455) - http://www.bohemiancoding.com/sketch -->
    <title>Slice</title>
    <desc>Created with Sketch.</desc>
    <defs></defs>
    <g id="Page-1" stroke="none" stroke-width="1" fill="none" fill-rule="evenodd">
        <path d="M54.676,39.605 L52.223,42.982 L52.223,46.48 C52.223,46.5753338 52.1900003,46.6541664 52.124,46.7165 C52.0579997,46.7788336 51.9773338,46.81 51.882,46.81 C51.7866662,46.81 51.7078336,46.7788336 51.6455,46.7165 C51.5831664,46.6541664 51.552,46.5753338 51.552,46.48 L51.552,42.993 L49.088,39.627 C49.029333,39.5609997 49,39.4840004 49,39.396 C49,39.3079996 49.0366663,39.2310003 49.11,39.165 C49.1833337,39.0989997 49.2639996,39.066 49.352,39.066 C49.4693339,39.066 49.5609997,39.1173328 49.627,39.22 L51.904,42.322 L54.126,39.22 C54.2066671,39.1173328 54.3019994,39.066 54.412,39.066 C54.5000004,39.066 54.5769997,39.100833 54.643,39.1705 C54.7090003,39.240167 54.742,39.3153329 54.742,39.396 C54.742,39.4473336 54.7200002,39.5169996 54.676,39.605 Z M62.365,44.995 C62.0496651,45.5963363 61.6133361,46.0674983 61.056,46.4085 C60.4986639,46.7495017 59.8643369,46.92 59.153,46.92 C58.4416631,46.92 57.8073361,46.7495017 57.25,46.4085 C56.6926639,46.0674983 56.2563349,45.5963363 55.941,44.995 C55.6256651,44.3936637 55.468,43.7153371 55.468,42.96 C55.468,42.1973295 55.6256651,41.5153363 55.941,40.914 C56.2563349,40.3126637 56.6926639,39.843335 57.25,39.506 C57.8073361,39.168665 58.4416631,39 59.153,39 C59.8643369,39 60.4986639,39.168665 61.056,39.506 C61.6133361,39.843335 62.0496651,40.3126637 62.365,40.914 C62.6803349,41.5153363 62.838,42.1973295 62.838,42.96 C62.838,43.7153371 62.6803349,44.3936637 62.365,44.995 Z M61.7545,41.2495 C61.5014987,40.7471642 61.1495023,40.3566681 60.6985,40.078 C60.2474977,39.7993319 59.7323362,39.66 59.153,39.66 C58.5736638,39.66 58.0585023,39.7993319 57.6075,40.078 C57.1564977,40.3566681 56.8045013,40.7471642 56.5515,41.2495 C56.2984987,41.7518358 56.172,42.3219968 56.172,42.96 C56.172,43.5980032 56.2984987,44.1681642 56.5515,44.6705 C56.8045013,45.1728358 57.1564977,45.5633319 57.6075,45.842 C58.0585023,46.1206681 58.5736638,46.26 59.153,46.26 C59.7323362,46.26 60.2474977,46.1206681 60.6985,45.842 C61.1495023,45.5633319 61.5014987,45.1728358 61.7545,44.6705 C62.0075013,44.1681642 62.134,43.5980032 62.134,42.96 C62.134,42.3219968 62.0075013,41.7518358 61.7545,41.2495 Z M68.426,39.3905 C68.7486683,39.5775009 68.9998324,39.8378317 69.1795,40.1715 C69.3591676,40.5051683 69.449,40.8809979 69.449,41.299 C69.449,41.7170021 69.3591676,42.0983316 69.1795,42.443 C68.9998324,42.7876684 68.7486683,43.058999 68.426,43.257 C68.1033317,43.455001 67.7403354,43.554 67.337,43.554 L65.06,43.554 L65.06,46.48 C65.06,46.5753338 65.0288336,46.6541664 64.9665,46.7165 C64.9041664,46.7788336 64.8253338,46.81 64.73,46.81 C64.6346662,46.81 64.5558336,46.7788336 64.4935,46.7165 C64.4311664,46.6541664 64.4,46.5753338 64.4,46.48 L64.4,39.44 C64.4,39.3446662 64.4311664,39.2658336 64.4935,39.2035 C64.5558336,39.1411664 64.6346662,39.11 64.73,39.11 L67.337,39.11 C67.7403354,39.11 68.1033317,39.2034991 68.426,39.3905 Z M68.371,42.454 C68.6350013,42.1459985 68.767,41.7610023 68.767,41.299 C68.767,40.8443311 68.6350013,40.4740014 68.371,40.188 C68.1069987,39.9019986 67.7623355,39.759 67.337,39.759 L65.06,39.759 L65.06,42.916 L67.337,42.916 C67.7623355,42.916 68.1069987,42.7620015 68.371,42.454 Z M74.982,39.3905 C75.3046683,39.5775009 75.5558324,39.8378317 75.7355,40.1715 C75.9151676,40.5051683 76.005,40.8809979 76.005,41.299 C76.005,41.7170021 75.9151676,42.0983316 75.7355,42.443 C75.5558324,42.7876684 75.3046683,43.058999 74.982,43.257 C74.6593317,43.455001 74.2963353,43.554 73.893,43.554 L71.616,43.554 L71.616,46.48 C71.616,46.5753338 71.5848336,46.6541664 71.5225,46.7165 C71.4601664,46.7788336 71.3813338,46.81 71.286,46.81 C71.1906662,46.81 71.1118336,46.7788336 71.0495,46.7165 C70.9871664,46.6541664 70.956,46.5753338 70.956,46.48 L70.956,39.44 C70.956,39.3446662 70.9871664,39.2658336 71.0495,39.2035 C71.1118336,39.1411664 71.1906662,39.11 71.286,39.11 L73.893,39.11 C74.2963353,39.11 74.6593317,39.2034991 74.982,39.3905 Z M74.927,42.454 C75.1910013,42.1459985 75.323,41.7610023 75.323,41.299 C75.323,40.8443311 75.1910013,40.4740014 74.927,40.188 C74.6629987,39.9019986 74.3183355,39.759 73.893,39.759 L71.616,39.759 L71.616,42.916 L73.893,42.916 C74.3183355,42.916 74.6629987,42.7620015 74.927,42.454 Z M82.363,39.605 L79.91,42.982 L79.91,46.48 C79.91,46.5753338 79.8770003,46.6541664 79.811,46.7165 C79.7449997,46.7788336 79.6643338,46.81 79.569,46.81 C79.4736662,46.81 79.3948336,46.7788336 79.3325,46.7165 C79.2701664,46.6541664 79.239,46.5753338 79.239,46.48 L79.239,42.993 L76.775,39.627 C76.716333,39.5609997 76.687,39.4840004 76.687,39.396 C76.687,39.3079996 76.7236663,39.2310003 76.797,39.165 C76.8703337,39.0989997 76.9509996,39.066 77.039,39.066 C77.1563339,39.066 77.2479997,39.1173328 77.314,39.22 L79.591,42.322 L81.813,39.22 C81.8936671,39.1173328 81.9889994,39.066 82.099,39.066 C82.1870004,39.066 82.2639997,39.100833 82.33,39.1705 C82.3960003,39.240167 82.429,39.3153329 82.429,39.396 C82.429,39.4473336 82.4070002,39.5169996 82.363,39.605 Z M90.052,44.9565 C89.7293317,45.561503 89.2838362,46.0399982 88.7155,46.392 C88.1471638,46.7440018 87.5073369,46.92 86.796,46.92 C86.0846631,46.92 85.4448362,46.7440018 84.8765,46.392 C84.3081638,46.0399982 83.8645016,45.561503 83.5455,44.9565 C83.2264984,44.351497 83.067,43.6860036 83.067,42.96 C83.067,42.2339964 83.2264984,41.568503 83.5455,40.9635 C83.8645016,40.358497 84.3081638,39.8800018 84.8765,39.528 C85.4448362,39.1759982 86.0846631,39 86.796,39 C87.5073369,39 88.1471638,39.1759982 88.7155,39.528 C89.2838362,39.8800018 89.7293317,40.358497 90.052,40.9635 C90.3746683,41.568503 90.536,42.2339964 90.536,42.96 C90.536,43.6860036 90.3746683,44.351497 90.052,44.9565 Z M88.809,41.6235 C88.610999,41.2238313 88.3360018,40.9066678 87.984,40.672 C87.6319982,40.4373322 87.2360022,40.32 86.796,40.32 C86.3486644,40.32 85.9508351,40.4354988 85.6025,40.6665 C85.2541649,40.8975012 84.9828343,41.2146646 84.7885,41.618 C84.5941657,42.0213354 84.497,42.4686642 84.497,42.96 C84.497,43.4513358 84.5941657,43.8986647 84.7885,44.302 C84.9828343,44.7053353 85.2541649,45.0224988 85.6025,45.2535 C85.9508351,45.4845012 86.3486644,45.6 86.796,45.6 C87.2360022,45.6 87.6319982,45.4826678 87.984,45.248 C88.3360018,45.0133322 88.610999,44.6961687 88.809,44.2965 C89.007001,43.8968313 89.106,43.4513358 89.106,42.96 C89.106,42.4686642 89.007001,42.0231687 88.809,41.6235 Z" id="YOPPYO" fill="#79797B"></path>
    </g>
</svg>