<?xml version="1.0" encoding="utf-8"?>
<!-- Generator: Adobe Illustrator 16.0.0, SVG Export Plug-In . SVG Version: 6.00 Build 0)  -->
<!DOCTYPE svg PUBLIC "-//W3C//DTD SVG 1.1//EN" "http://www.w3.org/Graphics/SVG/1.1/DTD/svg11.dtd">
<svg version="1.1" id="Layer_1" xmlns="http://www.w3.org/2000/svg" xmlns:xlink="http://www.w3.org/1999/xlink" x="0px" y="0px"
	 width="98.141px" height="98.141px" viewBox="0 0 98.141 98.141" enable-background="new 0 0 98.141 98.141" xml:space="preserve">
<g>
	<line fill="none" stroke="#000000" stroke-width="2" stroke-miterlimit="10" x1="98.14" y1="49.07" x2="0" y2="49.07"/>
	<line fill="none" stroke="#000000" stroke-width="2" stroke-miterlimit="10" x1="49.071" y1="98.14" x2="49.071" y2="0"/>
</g>
</svg>
