<?xml version="1.0" encoding="utf-8"?>
<!-- Generator: Adobe Illustrator 16.0.0, SVG Export Plug-In . SVG Version: 6.00 Build 0)  -->
<!DOCTYPE svg PUBLIC "-//W3C//DTD SVG 1.1//EN" "http://www.w3.org/Graphics/SVG/1.1/DTD/svg11.dtd">
<svg version="1.1" id="Ebene_1" xmlns="http://www.w3.org/2000/svg" xmlns:xlink="http://www.w3.org/1999/xlink" x="0px" y="0px"
	 width="1px" height="46px" viewBox="0 0 1 46" enable-background="new 0 0 1 46" xml:space="preserve">
<line fill="#393939" stroke="#393939" stroke-miterlimit="10" x1="0.5" y1="0" x2="0.5" y2="46"/>
</svg>
