<?xml version="1.0" encoding="UTF-8"?>
<svg width="29px" height="24px" viewBox="0 0 29 24" version="1.1" xmlns="http://www.w3.org/2000/svg" xmlns:xlink="http://www.w3.org/1999/xlink">
    <!-- Generator: Sketch 44.1 (41455) - http://www.bohemiancoding.com/sketch -->
    <title>Untitled 5</title>
    <desc>Created with Sketch.</desc>
    <defs></defs>
    <g id="Page-1" stroke="none" stroke-width="1" fill="none" fill-rule="evenodd">
        <g id="icon" transform="translate(0.000000, 2.000000)">
            <rect id="Rectangle-2" stroke="#979797" x="0.5" y="15.5" width="28" height="4"></rect>
            <rect id="Rectangle-2" fill="#D8D8D8" x="1" y="16" width="18" height="3"></rect>
            <rect id="Rectangle-2" stroke="#979797" x="0.5" y="8.5" width="28" height="4"></rect>
            <rect id="Rectangle-2" fill="#D8D8D8" x="1" y="9" width="15" height="3"></rect>
            <rect id="Rectangle-2" stroke="#979797" x="0.5" y="0.5" width="28" height="4"></rect>
            <rect id="Rectangle-2" fill="#D8D8D8" x="1" y="1" width="23" height="3"></rect>
        </g>
    </g>
</svg>