<?xml version="1.0" encoding="UTF-8"?>
<svg width="140px" height="85px" viewBox="0 0 140 85" version="1.1" xmlns="http://www.w3.org/2000/svg" xmlns:xlink="http://www.w3.org/1999/xlink">
    <!-- Generator: Sketch 44.1 (41455) - http://www.bohemiancoding.com/sketch -->
    <title>Slice</title>
    <desc>Created with Sketch.</desc>
    <defs></defs>
    <g id="Page-1" stroke="none" stroke-width="1" fill="none" fill-rule="evenodd">
        <g id="Logo-Sqeer" transform="translate(30.000000, 34.000000)">
            <path d="M24.564,10.569 C24.9606687,10.9883354 25.428164,11.3254987 25.9665,11.5805 C26.504836,11.8355013 27.0629971,11.963 27.641,11.963 C28.3776704,11.963 28.949998,11.795835 29.358,11.4615 C29.766002,11.127165 29.97,10.6880027 29.97,10.144 C29.97,9.86066525 29.9218338,9.61983433 29.8255,9.4215 C29.7291662,9.22316568 29.5988342,9.05316738 29.4345,8.9115 C29.2701658,8.76983263 29.0746678,8.6423339 28.848,8.529 C28.6213322,8.4156661 28.377668,8.29666729 28.117,8.172 L26.519,7.475 C26.258332,7.3616661 25.9920014,7.22566746 25.72,7.067 C25.4479986,6.90833254 25.2043344,6.7156678 24.989,6.489 C24.7736656,6.2623322 24.5980007,5.99316822 24.462,5.6815 C24.3259993,5.36983177 24.258,5.01000204 24.258,4.602 C24.258,4.18266457 24.3458325,3.79166848 24.5215,3.429 C24.6971675,3.06633152 24.9408318,2.75183467 25.2525,2.4855 C25.5641682,2.21916533 25.9324979,2.01233407 26.3575,1.865 C26.7825021,1.71766593 27.2499975,1.644 27.76,1.644 C28.42867,1.644 29.0463305,1.77149873 29.613,2.0265 C30.1796695,2.28150127 30.6613314,2.61299796 31.058,3.021 L30.293,3.939 C29.9529983,3.61033169 29.5761687,3.35250093 29.1625,3.1655 C28.7488313,2.97849907 28.2813359,2.885 27.76,2.885 C27.1366635,2.885 26.6351686,3.02949856 26.2555,3.3185 C25.8758314,3.60750145 25.686,4.00699745 25.686,4.517 C25.686,4.78900136 25.7398328,5.01849907 25.8475,5.2055 C25.9551672,5.39250094 26.0996658,5.55683262 26.281,5.6985 C26.4623342,5.84016737 26.6606656,5.9648328 26.876,6.0725 C27.0913344,6.1801672 27.3123322,6.27933288 27.539,6.37 L29.12,7.05 C29.4373349,7.18600068 29.7376653,7.34183246 30.021,7.5175 C30.3043348,7.69316755 30.547999,7.8971655 30.752,8.1295 C30.956001,8.3618345 31.1174994,8.63383177 31.2365,8.9455 C31.3555006,9.25716822 31.415,9.61699796 31.415,10.025 C31.415,10.4670022 31.3271675,10.8806647 31.1515,11.266 C30.9758325,11.6513353 30.7236683,11.9884986 30.395,12.2775 C30.0663317,12.5665014 29.669669,12.7931658 29.205,12.9575 C28.740331,13.1218342 28.2133363,13.204 27.624,13.204 C26.8419961,13.204 26.11667,13.0566681 25.448,12.762 C24.77933,12.4673319 24.2013358,12.0650026 23.714,11.555 L24.564,10.569 Z M34.277,8.886 C34.277,8.21732999 34.3761657,7.61383602 34.5745,7.0755 C34.7728343,6.53716397 35.0363317,6.08100187 35.365,5.707 C35.6936683,5.33299813 36.0733312,5.04400102 36.504,4.84 C36.9346688,4.63599898 37.3879976,4.534 37.864,4.534 C38.3400024,4.534 38.7593315,4.61616584 39.122,4.7805 C39.4846685,4.94483415 39.8529981,5.19133169 40.227,5.52 L40.261,5.52 L40.397,4.738 L41.519,4.738 L41.519,16.485 L40.108,16.485 L40.108,13.544 L40.176,12.082 C39.8473317,12.3880015 39.4705021,12.6514989 39.0455,12.8725 C38.6204979,13.0935011 38.1700024,13.204 37.694,13.204 C36.6513281,13.204 35.8211697,12.8300037 35.2035,12.082 C34.5858302,11.3339963 34.277,10.2686736 34.277,8.886 Z M35.722,8.869 C35.722,9.86633832 35.9203313,10.6426639 36.317,11.198 C36.7136686,11.7533361 37.274663,12.031 38,12.031 C38.3853352,12.031 38.7479983,11.9375009 39.088,11.7505 C39.4280017,11.5634991 39.7679983,11.2773353 40.108,10.892 L40.108,6.574 C39.7566649,6.25666508 39.4195016,6.03283399 39.0965,5.9025 C38.7734984,5.77216602 38.4420017,5.707 38.102,5.707 C37.7733317,5.707 37.4645014,5.78349924 37.1755,5.9365 C36.8864985,6.08950077 36.6343344,6.30483195 36.419,6.5825 C36.2036656,6.86016806 36.0336673,7.19166474 35.909,7.577 C35.7843327,7.96233526 35.722,8.39299762 35.722,8.869 Z M45.503,4.738 L46.914,4.738 L46.914,9.787 C46.914,10.5690039 47.0358321,11.1328316 47.2795,11.4785 C47.5231678,11.8241684 47.9169972,11.997 48.461,11.997 C48.8916688,11.997 49.2713316,11.8865011 49.6,11.6655 C49.9286683,11.4444989 50.2913313,11.0903358 50.688,10.603 L50.688,4.738 L52.082,4.738 L52.082,13 L50.926,13 L50.807,11.708 L50.756,11.708 C50.3706647,12.1613356 49.9655021,12.5239986 49.5405,12.796 C49.1154978,13.0680014 48.6140028,13.204 48.036,13.204 C47.1519955,13.204 46.5088353,12.9320027 46.1065,12.388 C45.7041646,11.8439973 45.503,11.0393387 45.503,9.974 L45.503,4.738 Z M55.6579999,8.886 C55.6579999,8.2059966 55.7628322,7.59683603 55.9724999,7.0585 C56.1821676,6.52016397 56.4598315,6.06400187 56.8054999,5.69 C57.1511683,5.31599813 57.5449977,5.02983433 57.9869999,4.8315 C58.4290021,4.63316567 58.8879975,4.534 59.3639999,4.534 C59.8853359,4.534 60.3528312,4.62466576 60.7664999,4.806 C61.1801687,4.98733424 61.5258319,5.2479983 61.8034999,5.588 C62.081168,5.9280017 62.2936659,6.33599762 62.4409999,6.812 C62.588334,7.28800238 62.6619999,7.82066372 62.6619999,8.41 C62.6619999,8.71600153 62.6450001,8.97099898 62.6109999,9.175 L57.0349999,9.175 C57.0916669,10.0703378 57.3664975,10.7786641 57.8594999,11.3 C58.3525024,11.8213359 58.9956626,12.082 59.7889999,12.082 C60.1856686,12.082 60.5511649,12.0225006 60.8854999,11.9035 C61.2198349,11.7844994 61.5399984,11.6286676 61.8459999,11.436 L62.3389999,12.354 C61.9763314,12.5806678 61.5740021,12.7789992 61.1319999,12.949 C60.6899977,13.1190009 60.1856694,13.204 59.6189999,13.204 C59.0636638,13.204 58.545169,13.1048343 58.0634999,12.9065 C57.5818309,12.7081657 57.1625017,12.4248352 56.8054999,12.0565 C56.4484981,11.6881648 56.1680009,11.2376693 55.9639999,10.705 C55.7599989,10.1723307 55.6579999,9.5660034 55.6579999,8.886 Z M61.4379999,8.257 C61.4379999,7.40699575 61.2595017,6.75816891 60.9024999,6.3105 C60.5454981,5.8628311 60.0440032,5.639 59.3979999,5.639 C59.1033318,5.639 58.8228346,5.69849941 58.5564999,5.8175 C58.2901653,5.93650059 58.0493343,6.10649889 57.8339999,6.3275 C57.6186655,6.54850111 57.4401673,6.82049838 57.2984999,7.1435 C57.1568326,7.46650161 57.0633335,7.83766457 57.0179999,8.257 L61.4379999,8.257 Z M65.4899999,8.886 C65.4899999,8.2059966 65.5948322,7.59683603 65.8044999,7.0585 C66.0141676,6.52016397 66.2918315,6.06400187 66.6374999,5.69 C66.9831683,5.31599813 67.3769977,5.02983433 67.8189999,4.8315 C68.2610021,4.63316567 68.7199975,4.534 69.1959999,4.534 C69.7173358,4.534 70.1848312,4.62466576 70.5984999,4.806 C71.0121686,4.98733424 71.3578318,5.2479983 71.6354999,5.588 C71.913168,5.9280017 72.1256658,6.33599762 72.2729999,6.812 C72.420334,7.28800238 72.4939999,7.82066372 72.4939999,8.41 C72.4939999,8.71600153 72.4770001,8.97099898 72.4429999,9.175 L66.8669999,9.175 C66.9236669,10.0703378 67.1984974,10.7786641 67.6914999,11.3 C68.1845024,11.8213359 68.8276626,12.082 69.6209999,12.082 C70.0176686,12.082 70.3831649,12.0225006 70.7174999,11.9035 C71.0518349,11.7844994 71.3719984,11.6286676 71.6779999,11.436 L72.1709999,12.354 C71.8083314,12.5806678 71.4060021,12.7789992 70.9639999,12.949 C70.5219977,13.1190009 70.0176694,13.204 69.4509999,13.204 C68.8956638,13.204 68.377169,13.1048343 67.8954999,12.9065 C67.4138308,12.7081657 66.9945017,12.4248352 66.6374999,12.0565 C66.2804981,11.6881648 66.0000009,11.2376693 65.7959999,10.705 C65.5919989,10.1723307 65.4899999,9.5660034 65.4899999,8.886 Z M71.2699999,8.257 C71.2699999,7.40699575 71.0915017,6.75816891 70.7344999,6.3105 C70.3774981,5.8628311 69.8760031,5.639 69.2299999,5.639 C68.9353318,5.639 68.6548346,5.69849941 68.3884999,5.8175 C68.1221652,5.93650059 67.8813343,6.10649889 67.6659999,6.3275 C67.4506655,6.54850111 67.2721673,6.82049838 67.1304999,7.1435 C66.9888325,7.46650161 66.8953335,7.83766457 66.8499999,8.257 L71.2699999,8.257 Z M75.9339999,4.738 L77.0899999,4.738 L77.2089999,6.234 L77.2599999,6.234 C77.5433346,5.71266406 77.8861645,5.29900153 78.2884999,4.993 C78.6908352,4.68699847 79.1299975,4.534 79.6059999,4.534 C79.9346682,4.534 80.2293319,4.5906661 80.4899999,4.704 L80.2179999,5.928 C80.0819992,5.88266644 79.9573338,5.84866678 79.8439999,5.826 C79.730666,5.80333322 79.5890007,5.792 79.4189999,5.792 C79.0676648,5.792 78.7021684,5.93366525 78.3224999,6.217 C77.9428313,6.50033475 77.6113346,6.99332982 77.3279999,7.696 L77.3279999,13 L75.9339999,13 L75.9339999,4.738 Z" id="Squeer" fill="#79797B"></path>
            <rect id="Rectangle-7" stroke="#979797" stroke-width="2" x="1" y="1" width="15" height="15" rx="1"></rect>
            <path d="M8.5,1.5 L8.5,15.8178211" id="Line" stroke="#979797" stroke-linecap="square"></path>
            <circle id="Oval-5" stroke="#FFFFFF" fill="#79797B" cx="8.5" cy="8.5" r="2.5"></circle>
        </g>
    </g>
</svg>