<?xml version="1.0" encoding="utf-8"?>
<svg width="16" height="16" xmlns="http://www.w3.org/2000/svg">
  <linearGradient id="a" x1="8828.881" y1="-12585.506" x2="9178.879" y2="-12935.504" gradientTransform="matrix(.032 0 0 -.032 -280.124 -400.032)">
    <stop offset="0" stop-color="#CCC"/>
    <stop offset="1" stop-color="#b3b3b3"/>
  </linearGradient>
  <path fill="url(#a)" d="M 2.88 14.384 L 13.12 14.384 L 13.12 2.224 L 2.88 2.224 Z" transform="matrix(-1, 0, 0, -1, 16, 16.608)"/>
  <path opacity=".5" fill="#FFF" d="M 2.88 14.384 L 13.12 14.384 L 13.12 2.224 L 2.88 2.224 Z" transform="matrix(-1, 0, 0, -1, 16, 16.608)"/>
  <linearGradient id="b" x1="8816.373" y1="-12573.005" x2="9191.373" y2="-12948.005" gradientTransform="matrix(.032 0 0 -.032 -280.124 -400.032)">
    <stop offset="0" stop-color="#CCC"/>
    <stop offset="1" stop-color="#b3b3b3"/>
  </linearGradient>
  <path fill="url(#b)" d="M 2.4 14.704 L 2.4 1.904 L 13.6 1.904 L 13.6 14.704 L 2.4 14.704 Z M 12.96 2.544 L 3.04 2.544 L 3.04 14.064 L 12.96 14.064 L 12.96 2.544 Z" transform="matrix(-1, 0, 0, -1, 16.000001, 16.608)"/>
  <path d="M 9.868 4.432 L 9.818 4.432 C 9.851 4.373 9.868 4.307 9.868 4.24 L 9.868 3.952 C 9.868 3.74 9.696 3.568 9.484 3.568 L 9.164 3.568 L 9.164 2.448 C 9.164 2.236 8.992 2.064 8.78 2.064 L 4.768 2.064 C 4.834 1.95 4.958 1.872 5.1 1.872 L 9.164 1.872 C 9.374 1.872 9.547 2.044 9.547 2.256 L 9.547 3.376 L 9.867 3.376 C 10.079 3.375 10.252 3.548 10.252 3.76 L 10.252 4.048 C 10.253 4.26 10.08 4.433 9.868 4.432 Z" opacity=".25" transform="matrix(-1, 0, 0, -1, 15.020005, 6.304004)"/>
  <linearGradient id="c" x1="8942.647" y1="-12522.772" x2="9062.119" y2="-12642.244" gradientTransform="matrix(.032 0 0 -.032 -280.124 -400.032)">
    <stop offset="0" stop-color="#CCC"/>
    <stop offset="1" stop-color="#b3b3b3"/>
  </linearGradient>
  <path fill="url(#c)" d="M 10.784 3.856 L 10.464 3.856 C 10.464 4.068 10.293 4.239 10.081 4.24 L 6.016 4.24 C 5.804 4.24 5.632 4.068 5.632 3.856 L 5.312 3.856 C 5.1 3.856 4.928 3.684 4.928 3.472 L 4.928 3.184 C 4.928 2.972 5.1 2.8 5.312 2.8 L 5.632 2.8 L 5.632 1.68 C 5.632 1.468 5.804 1.296 6.016 1.296 L 10.08 1.296 C 10.292 1.296 10.464 1.468 10.464 1.68 L 10.464 2.8 L 10.784 2.8 C 10.996 2.8 11.168 2.972 11.168 3.184 L 11.168 3.472 C 11.168 3.684 10.996 3.856 10.784 3.856 Z" transform="matrix(-1, 0, 0, -1, 16.096, 5.536)"/>
  <linearGradient id="d" x1="8960.369" y1="-12552.994" x2="9044.377" y2="-12637.002" gradientTransform="matrix(.032 0 0 -.032 -280.124 -400.032)">
    <stop offset="0" stop-color="#b3b3b3"/>
    <stop offset="1" stop-color="#999"/>
  </linearGradient>
  <path fill="url(#d)" d="M 5.632 3.28 L 10.464 3.28 L 10.464 2.736 L 5.632 2.736 Z" transform="matrix(-1, 0, 0, -1, 16.096, 6.016)"/>
  <path fill="#FFF" d="M 8.086 13.186 L 8.086 11.238 C 8.086 11.183 7.774 11.138 7.392 11.138 L 4.692 11.138 C 4.309 11.136 3.999 10.825 3.999 10.442 L 3.999 8.064 C 3.999 7.682 4.311 7.37 4.693 7.37 L 7.393 7.37 C 7.775 7.37 8.087 7.33 8.087 7.283 L 8.087 5.299 C 8.087 5.242 8.312 5.414 8.587 5.679 L 11.794 8.774 C 12.069 9.037 12.069 9.475 11.794 9.738 L 8.584 12.831 C 8.311 13.096 8.086 13.257 8.086 13.188 Z" transform="matrix(-1, 0, 0, -1, 15.999249, 18.49206)"/>
</svg>