<?xml version="1.0" encoding="utf-8"?>
<!-- Generator: Adobe Illustrator 24.2.0, SVG Export Plug-In . SVG Version: 6.00 Build 0)  -->
<svg version="1.1" id="svg12098" xmlns:svg="http://www.w3.org/2000/svg"
	 xmlns="http://www.w3.org/2000/svg" xmlns:xlink="http://www.w3.org/1999/xlink" x="0px" y="0px" viewBox="0 0 1024 605"
	 style="enable-background:new 0 0 1024 605;" xml:space="preserve">
<style type="text/css">
	.st0{fill:#00988C;}
	.st1{fill:#231F20;}
	.st2{fill-rule:evenodd;clip-rule:evenodd;fill:#231F20;}
</style>
<path id="path11888" class="st0" d="M20.7,17.1v174.4c0,0,50.3-70.9,155.4-70.5c103.6,0.4,156.1,70.5,156.1,70.5V17.1H20.7z
	 M21.7,453.8V521c0,0,58,67,154.3,66.9c94.5-0.1,156.1-66.9,156.1-66.9v-67.2c0,0-51.7,82.6-156.1,82.6
	C71,536.4,21.7,453.8,21.7,453.8z"/>
<path id="path11890" class="st1" d="M81.5,274.1c-47.1,0-64.1,32.8-64.1,63.1c0,52.9,36,64.6,59.1,64.6c19.8,0,34.3-3.6,40.8-6.6
	v-66.1H90.1v48.7c-2.5,1.2-5.9,1.8-10.1,1.8c-22.1,0-32.7-18.1-32.7-41.1c0-14,5.9-42.1,36.5-42.1c12.7,0,22.2,4,28.4,6.8l1.8-24.1
	C106.5,277.1,96,274.1,81.5,274.1z M120.8,276.4l36.7,123.4h31.2L226,276.4h-29.7l-22.3,90h-0.3l-21.8-90H120.8z M229.8,276.4
	l36.7,123.4h31.2L335,276.4h-29.7l-22.3,90h-0.3l-21.8-90H229.8z"/>
<path id="path11896" class="st2" d="M384.1,276.6v51.4h12.2v-18.8h5.8c11.3,0,16-7.4,16-16.2c0-11.2-6.5-16.5-17.5-16.5H384.1z
	 M432.5,276.6v51.4h12.2v-20.8c4.4,0,5.9,0.1,7.9,7.1l4.1,13.7h12.7l-5.3-16.7c-1.9-6.1-3.3-8.2-7.1-8.6v-0.3
	c10-2,10.4-10.5,10.4-12.7c0-9.5-7.5-13.2-16-13.2H432.5z M483.7,276.6v51.4h11.9v-51.4H483.7z M508.6,276.6l15.5,51.4H537
	l15.7-51.4h-12.4l-9.4,37.5h-0.3l-9.1-37.5H508.6z M574,276.6l-17,51.4h11.7l3.5-11.4h16l3.3,11.4h12.4l-16.5-51.4H574z
	 M608.7,276.6v9.4h11.4v42.1h12.2V286h11.2v-9.4H608.7z M444.2,285.3h3.5c6.5,0,7.3,4.4,7.3,6.6c0,3.7-2.4,6.8-7.1,6.8h-3.8V285.3z
	 M395.8,285.5h3c4.8,0,7.3,2.3,7.3,7.3c0,4.8-2.8,7.4-6.6,7.4h-3.8V285.5z M580.6,286.5l5.3,21.3h-11.7L580.6,286.5z"/>
<path id="path11908" class="st1" d="M525.8,347.6c-7.8,0-14.2,4.4-14.2,12.9c0,6.6,2.1,9.8,11.4,15.5c6.9,4.2,7.9,6.4,7.9,10.4
	c0,4.2-3.3,8.1-9.1,8.1c-3,0-6.9-1.5-9.9-3.3v6.8c2.7,1.3,6.8,2,10.9,2c9.9,0,15-6.3,15-14.4c0-5.9-2.7-10.6-10.6-15.2
	c-7.4-4.3-8.9-6.3-8.9-9.6c0-4.4,3.2-7.6,8.1-7.6c3.2,0,6.4,0.8,8.9,2.3v-6.3C532.9,348.2,529.2,347.6,525.8,347.6z M597,347.6
	c-13.4,0-22.8,10-22.8,26.1c0,14,6.7,26.4,23.1,26.4c3,0,6.3-0.6,9.4-1.5V392c-2.7,1.6-5.8,2.5-9.1,2.5c-11.2,0-16.5-8.8-16.5-22
	c0-12.6,7.5-19.3,16-19.3c3.6,0,6.8,0.8,9.6,2.5v-6.3C604.3,348.2,600.7,347.6,597,347.6z M875.8,347.6c-13.4,0-22.8,10-22.8,26.1
	c0,14,7,26.4,23.3,26.4c4.6,0,9.7-1.4,12.7-2.5v-26.4h-15v5.6h8.6v16.5c-1.7,0.9-4.3,1.3-6.3,1.3c-11.2,0-16.5-8.8-16.5-22
	c0-12.6,7.5-19.3,16-19.3c3.8,0,8.3,1,12.2,3v-6.3C884.4,348.2,880.2,347.6,875.8,347.6z M993.4,347.6c-13.4,0-22.8,10-22.8,26.1
	c0,14,7,26.4,23.3,26.4c4.6,0,9.6-1.4,12.7-2.5v-26.4h-15v5.6h8.6v16.5c-1.7,0.9-4.3,1.3-6.3,1.3c-11.2,0-16.5-8.8-16.5-22
	c0-12.6,7.5-19.3,16-19.3c3.8,0,8.3,1,12.2,3v-6.3C1002,348.2,997.8,347.6,993.4,347.6z M379.1,348.1l15.7,51.4h6.3l16.2-51.4h-6.6
	l-12.4,42.1h-0.3l-11.9-42.1H379.1z M429.5,348.1v51.4h25.1V394h-18.5v-18.2h16.7v-5.6h-16.7v-16.5h17.5v-5.6H429.5z M469.8,348.1
	v51.4h6.3v-23.3h3c4.9,0,6.6,1.6,8.1,5.8l5.8,17.5h7.1l-7.1-20.5c-1-3-2.7-4.5-5.8-5.1v-0.3c7.6-1.6,10.4-6.7,10.4-12.2
	c0-3.8-1.1-7.4-3.8-9.9c-2.4-2.2-5.4-3.5-10.9-3.5H469.8z M552.7,348.1v51.4h6.3v-51.4H552.7z M621.9,348.1v51.4h6.6v-23.8h18v23.8
	h6.3v-51.4h-6.3v22h-18v-22H621.9z M670.3,348.1v51.4h24.8V394h-18.5v-18.2h16.7v-5.6h-16.7v-16.5h17.5v-5.6H670.3z M710.3,348.1
	v51.4h6.3v-23.3h3c4.9,0,6.6,1.6,8.1,5.8l6.1,17.5h6.8l-7.1-20.5c-1-3-2.5-4.5-5.6-5.1v-0.3c7.6-1.6,10.1-6.7,10.1-12.2
	c0-3.8-1.1-7.4-3.8-9.9c-2.4-2.2-5.4-3.5-10.9-3.5H710.3z M754.4,348.1v32.4c0,5.1,0.3,8,2,11.7c2.1,4.3,6.7,7.9,14.2,7.9
	s12.1-3.6,14.2-7.9c1.8-3.6,2-6.6,2-11.7v-32.4h-6.6v33.5c0,8-3.5,13.2-9.6,13.2c-6.1,0-9.6-5.1-9.6-13.2v-33.5H754.4z M804.1,348.1
	v51.4h6.1v-42.1h0.3l19.5,42.1h7.9v-51.4h-6.1v42.6h-0.3l-19.3-42.6H804.1z M937.9,348.1l-17.2,51.4h6.6l4.1-13.4h19.8l4.1,13.4h6.8
	l-17-51.4H937.9z M476.1,353.4h5.3c5.7,0,9.4,2.6,9.4,8.4c0,4.5-2.7,9.1-9.6,9.1h-5.1V353.4z M716.7,353.4h5.3
	c5.7,0,9.4,2.6,9.4,8.4c0,4.5-2.7,9.1-9.6,9.1h-5.1V353.4z M941.2,355h0.3l7.9,25.6h-16.2L941.2,355z"/>
</svg>
