<?xml version="1.0" encoding="utf-8"?>
<!-- Generator: Adobe Illustrator 23.0.4, SVG Export Plug-In . SVG Version: 6.00 Build 0)  -->
<svg version="1.1" id="svg8747" xmlns:svg="http://www.w3.org/2000/svg"
	 xmlns="http://www.w3.org/2000/svg" xmlns:xlink="http://www.w3.org/1999/xlink" x="0px" y="0px" viewBox="0 0 1024 300"
	 style="enable-background:new 0 0 1024 300;" xml:space="preserve">
<style type="text/css">
	.st0{fill:#E74A09;}
</style>
<path id="path8273" class="st0" d="M981.6,16.4c20.2,10.1,34.1,30.9,34.1,55c0,33.9-27.5,61.4-61.4,61.4c-5.4,0-10.6-0.7-15.6-2
	c25.3-11.3,43-35.7,43-65.1C981.6,65.8,981.6,16.4,981.6,16.4z M892.8,71.9c0-33.9,27.5-61.4,61.4-61.4v55.8
	c0,26.1-21.3,44.7-47.4,44.7C898,100.4,892.8,86.8,892.8,71.9 M44.6,137.1c0,0,2.9,0,5.9,2c1.2,0.7,4.7,3,4.7,11.6L55,219
	c0,25.6-21,43.9-46.6,43.9v26.6c40.2,0,73.5-30.6,73.5-70.5v-69.5c0-21.4-11.8-31.3-18.7-35.3c-8.6-4.9-17-5.2-18.5-5.2 M52,89.7
	c0,8.1,6.7,15,15,15c8.1,0,14.8-6.9,14.8-15s-6.7-15-15-15C58.6,74.7,52,81.6,52,89.7 M771.9,179.2l-0.3,32.8c0,9.2-3.7,11.5-5,12.3
	c-2,1.5-4.4,1.9-5.7,2h-26.6v27.1h25.9c1.6,0.1,10.5-0.1,19.6-5.4c7.6-4.2,18-14.7,18-37.4v-31.5l0.3-33c0-9.2,3.7-11.5,5-12.3
	c2-1.5,4.4-1.9,5.7-2h26.6v-27.1h-25.9c-1.6-0.1-10.5,0.1-19.6,5.4c-7.6,4.2-18,14.7-18,37.4 M219.3,222.5v-41.2
	c0-26.7-22.1-48.5-48.8-48.5s-48.3,21.8-48.3,48.5s21.6,48.3,48.3,48.3c9.1,0,17.6-2.7,25.2-7.1H219.3L219.3,222.5z M219.3,247
	h-10.6c-11.5,6.6-24.5,10.1-38.2,10.1c-41.7,0-75.7-34.1-75.7-75.7c0-41.9,34.1-76,75.7-76c41.9,0,76,34.1,76,76v72.2h-27.2V247
	 M610.6,181c0,26.9,21.9,48.6,48.8,48.6c26.6,0,48.6-21.7,48.6-48.6s-21.9-48.6-48.6-48.6C632.6,132.4,610.6,154.1,610.6,181
	 M583.2,181c0-41.9,34-76.2,76.2-76.2c41.9,0,75.9,34.3,75.9,76.2s-34,76.2-75.9,76.2C617.3,257.2,583.2,222.9,583.2,181 M580.5,111
	h-75.4V82.2H478c0,0-0.2,8.2,0,97.6c0.1,40.7,33.8,73.7,74.7,73.7h27.9v-27.1h-33c0,0-42.2-9.4-42.2-47.3l-0.2-41.9h75.4
	 M420.2,137.1c0.9,0,3.7,0.3,5.9,2c1.2,0.7,4.7,3,4.7,11.6v102.8h26.6v-104c0-21.5-11.6-31.3-18.7-35.3c-8.6-4.9-17-5.2-18.5-5.2
	V137.1L420.2,137.1z M427.5,89.7c0,8.1,6.7,15,15,15c8.1,0,14.8-6.9,14.8-15s-6.7-15-15-15C434.2,74.7,427.5,81.6,427.5,89.7
	 M407.2,177.3c0-39.2-32.3-71.3-71.5-71.3c-39.5,0-71.8,32.1-71.8,71.3l-0.2,76.2h25.9c0,0-0.2-4.2,0.3-76.2
	c0-25.1,20.7-45.4,45.9-45.4c24.9,0,45.9,20.5,45.9,45.4l-0.3,76.2h25.9C407.2,253.5,407.4,249.3,407.2,177.3"/>
</svg>
