<?xml version="1.0" encoding="UTF-8"?>
<svg width="29px" height="24px" viewBox="0 0 29 24" version="1.1" xmlns="http://www.w3.org/2000/svg" xmlns:xlink="http://www.w3.org/1999/xlink">
    <!-- Generator: Sketch 44.1 (41455) - http://www.bohemiancoding.com/sketch -->
    <title>Untitled 5</title>
    <desc>Created with Sketch.</desc>
    <defs></defs>
    <g id="Page-1" stroke="none" stroke-width="1" fill="none" fill-rule="evenodd">
        <g id="icon-play" stroke="#979797">
            <rect id="Rectangle-5" x="0.5" y="0.5" width="27" height="23"></rect>
            <polygon id="Triangle" transform="translate(14.000000, 10.080000) rotate(90.000000) translate(-14.000000, -10.080000) " points="14 6.72 18.3448276 13.44 9.65517241 13.44"></polygon>
            <path d="M27.5172414,19.68 L8.20689655,19.68" id="Line" stroke-linecap="square"></path>
            <path d="M7.24137931,18.72 L7.24137931,20.64" id="Line" stroke-linecap="square"></path>
            <path d="M5.31034483,19.68 L0.482758621,19.68" id="Line" stroke-linecap="square"></path>
        </g>
    </g>
</svg>